mesures_60_mV.CSV

Memory Length,4000,
Trigger Level,-2.60000e+02,
Source,CH1,
Probe,1.0X,
Vertical Units,V,
Vertical Scale,1.00000e-01,
Vertical Position,2.00000e-01,
Horizontal Units,S,
Horizontal Scale,2.50000e-05,
Horizontal Position,2.0000000e-06,
Horizontal Mode,Main,
Sampling Period,1.00000e-07,
Firmware,V1.14,
Time, ,
Mode,Fast,
Waveform Data,
-116,
-116,
-116,
-116,
-116,
-115,
-115,
-114,
-114,
-116,
-116,
-115,
-115,
-116,
-116,
-116,
-116,
-116,
-116,
-115,
-115,
-116,
-116,
-116,
-116,
-116,
-116,
-116,
-116,
-116,
-116,
-116,
-116,
-114,
-114,
-116,
-116,
-115,
-115,
-116,
-116,
-115,
-115,
-116,
-116,
-114,
-114,
-116,
-116,
-115,
-115,
-115,
-115,
-116,
-116,
-116,
-116,
-117,
-117,
-118,
-118,
-117,
-117,
-117,
-117,
-117,
-117,
-117,
-117,
-117,
-117,
-116,
-116,
-116,
-116,
-116,
-116,
-116,
-116,
-115,
-115,
-116,
-116,
-117,
-117,
-117,
-117,
-116,
-116,
-114,
-114,
-115,
-115,
-116,
-116,
-115,
-115,
-115,
-115,
-114,
-114,
-114,
-114,
-115,
-115,
-115,
-115,
-115,
-115,
-115,
-115,
-115,
-115,
-115,
-115,
-115,
-115,
-115,
-115,
-113,
-113,
-115,
-115,
-115,
-115,
-115,
-115,
-115,
-115,
-113,
-113,
-114,
-114,
-114,
-114,
-114,
-114,
-115,
-115,
-115,
-115,
-114,
-114,
-115,
-115,
-113,
-113,
-114,
-114,
-113,
-113,
-115,
-115,
-113,
-113,
-114,
-114,
-115,
-115,
-115,
-115,
-113,
-113,
-115,
-115,
-113,
-113,
-115,
-115,
-115,
-115,
-115,
-115,
-115,
-115,
-116,
-116,
-115,
-115,
-115,
-115,
-115,
-115,
-114,
-114,
-116,
-116,
-114,
-114,
-113,
-113,
-115,
-115,
-115,
-115,
-116,
-116,
-114,
-114,
-115,
-115,
-115,
-115,
-115,
-115,
-115,
-115,
-115,
-115,
-117,
-117,
-115,
-115,
-115,
-115,
-115,
-115,
-116,
-116,
-115,
-115,
-116,
-116,
-115,
-115,
-114,
-114,
-115,
-115,
-116,
-116,
-114,
-114,
-115,
-115,
-115,
-115,
-115,
-115,
-114,
-114,
-116,
-116,
-115,
-115,
-114,
-114,
-116,
-116,
-114,
-114,
-113,
-113,
-115,
-115,
-115,
-115,
-115,
-115,
-115,
-115,
-114,
-114,
-113,
-113,
-115,
-115,
-113,
-113,
-115,
-115,
-113,
-113,
-113,
-113,
-112,
-112,
-115,
-115,
-112,
-112,
-112,
-112,
-111,
-111,
-111,
-111,
-109,
-109,
-108,
-108,
-107,
-107,
-108,
-108,
-107,
-107,
-107,
-107,
-109,
-109,
-109,
-109,
-108,
-108,
-108,
-108,
-109,
-109,
-108,
-108,
-108,
-108,
-108,
-108,
-108,
-108,
-106,
-106,
-106,
-106,
-104,
-104,
-104,
-104,
-104,
-104,
-104,
-104,
-105,
-105,
-106,
-106,
-105,
-105,
-105,
-105,
-104,
-104,
-104,
-104,
-104,
-104,
-104,
-104,
-104,
-104,
-104,
-104,
-103,
-103,
-103,
-103,
-104,
-104,
-103,
-103,
-103,
-103,
-103,
-103,
-102,
-102,
-102,
-102,
-101,
-101,
-102,
-102,
-102,
-102,
-101,
-101,
-101,
-101,
-102,
-102,
-102,
-102,
-101,
-101,
-102,
-102,
-102,
-102,
-103,
-103,
-101,
-101,
-102,
-102,
-102,
-102,
-101,
-101,
-102,
-102,
-102,
-102,
-103,
-103,
-103,
-103,
-103,
-103,
-103,
-103,
-103,
-103,
-103,
-103,
-103,
-103,
-103,
-103,
-103,
-103,
-102,
-102,
-103,
-103,
-101,
-101,
-101,
-101,
-101,
-101,
-101,
-101,
-101,
-101,
-101,
-101,
-101,
-101,
-101,
-101,
-101,
-101,
-102,
-102,
-102,
-102,
-102,
-102,
-103,
-103,
-103,
-103,
-102,
-102,
-103,
-103,
-103,
-103,
-103,
-103,
-104,
-104,
-103,
-103,
-104,
-104,
-103,
-103,
-105,
-105,
-104,
-104,
-103,
-103,
-103,
-103,
-104,
-104,
-104,
-104,
-103,
-103,
-104,
-104,
-103,
-103,
-102,
-102,
-103,
-103,
-103,
-103,
-102,
-102,
-103,
-103,
-102,
-102,
-103,
-103,
-103,
-103,
-103,
-103,
-103,
-103,
-103,
-103,
-104,
-104,
-103,
-103,
-103,
-103,
-103,
-103,
-103,
-103,
-103,
-103,
-102,
-102,
-103,
-103,
-103,
-103,
-103,
-103,
-102,
-102,
-101,
-101,
-103,
-103,
-103,
-103,
-103,
-103,
-104,
-104,
-103,
-103,
-102,
-102,
-102,
-102,
-101,
-101,
-103,
-103,
-102,
-102,
-103,
-103,
-103,
-103,
-102,
-102,
-103,
-103,
-102,
-102,
-103,
-103,
-103,
-103,
-103,
-103,
-103,
-103,
-103,
-103,
-104,
-104,
-103,
-103,
-103,
-103,
-103,
-103,
-103,
-103,
-103,
-103,
-104,
-104,
-102,
-102,
-103,
-103,
-102,
-102,
-103,
-103,
-102,
-102,
-103,
-103,
-102,
-102,
-102,
-102,
-103,
-103,
-102,
-102,
-101,
-101,
-101,
-101,
-102,
-102,
-103,
-103,
-102,
-102,
-102,
-102,
-102,
-102,
-103,
-103,
-103,
-103,
-102,
-102,
-102,
-102,
-103,
-103,
-102,
-102,
-102,
-102,
-102,
-102,
-102,
-102,
-102,
-102,
-103,
-103,
-102,
-102,
-102,
-102,
-102,
-102,
-103,
-103,
-103,
-103,
-102,
-102,
-103,
-103,
-102,
-102,
-103,
-103,
-103,
-103,
-102,
-102,
-101,
-101,
-102,
-102,
-103,
-103,
-101,
-101,
-102,
-102,
-102,
-102,
-101,
-101,
-102,
-102,
-101,
-101,
-102,
-102,
-102,
-102,
-101,
-101,
-103,
-103,
-101,
-101,
-102,
-102,
-102,
-102,
-102,
-102,
-102,
-102,
-102,
-102,
-102,
-102,
-102,
-102,
-103,
-103,
-103,
-103,
-102,
-102,
-103,
-103,
-103,
-103,
-103,
-103,
-102,
-102,
-102,
-102,
-102,
-102,
-103,
-103,
-102,
-102,
-103,
-103,
-103,
-103,
-103,
-103,
-103,
-103,
-103,
-103,
-103,
-103,
-103,
-103,
-103,
-103,
-102,
-102,
-103,
-103,
-102,
-102,
-102,
-102,
-101,
-101,
-102,
-102,
-102,
-102,
-102,
-102,
-103,
-103,
-102,
-102,
-103,
-103,
-103,
-103,
-102,
-102,
-103,
-103,
-103,
-103,
-103,
-103,
-102,
-102,
-102,
-102,
-102,
-102,
-101,
-101,
-101,
-101,
-101,
-101,
-99,
-99,
-99,
-99,
-97,
-97,
-97,
-97,
-96,
-96,
-97,
-97,
-96,
-96,
-97,
-97,
-97,
-97,
-96,
-96,
-95,
-95,
-94,
-94,
-93,
-93,
-96,
-96,
-97,
-97,
-99,
-99,
-99,
-99,
-100,
-100,
-101,
-101,
-101,
-101,
-100,
-100,
-101,
-101,
-100,
-100,
-101,
-101,
-101,
-101,
-100,
-100,
-100,
-100,
-100,
-100,
-101,
-101,
-101,
-101,
-101,
-101,
-101,
-101,
-100,
-100,
-101,
-101,
-101,
-101,
-100,
-100,
-101,
-101,
-101,
-101,
-101,
-101,
-101,
-101,
-101,
-101,
-101,
-101,
-101,
-101,
-101,
-101,
-101,
-101,
-101,
-101,
-101,
-101,
-101,
-101,
-101,
-101,
-102,
-102,
-102,
-102,
-102,
-102,
-101,
-101,
-102,
-102,
-102,
-102,
-102,
-102,
-101,
-101,
-101,
-101,
-101,
-101,
-102,
-102,
-102,
-102,
-101,
-101,
-102,
-102,
-101,
-101,
-101,
-101,
-102,
-102,
-101,
-101,
-101,
-101,
-102,
-102,
-102,
-102,
-101,
-101,
-102,
-102,
-101,
-101,
-102,
-102,
-102,
-102,
-101,
-101,
-101,
-101,
-101,
-101,
-101,
-101,
-101,
-101,
-101,
-101,
-102,
-102,
-100,
-100,
-101,
-101,
-100,
-100,
-100,
-100,
-101,
-101,
-100,
-100,
-100,
-100,
-100,
-100,
-101,
-101,
-101,
-101,
-101,
-101,
-101,
-101,
-101,
-101,
-100,
-100,
-100,
-100,
-100,
-100,
-101,
-101,
-100,
-100,
-99,
-99,
-99,
-99,
-100,
-100,
-100,
-100,
-100,
-100,
-101,
-101,
-99,
-99,
-101,
-101,
-100,
-100,
-100,
-100,
-100,
-100,
-100,
-100,
-100,
-100,
-100,
-100,
-100,
-100,
-101,
-101,
-100,
-100,
-100,
-100,
-100,
-100,
-100,
-100,
-101,
-101,
-100,
-100,
-100,
-100,
-99,
-99,
-99,
-99,
-99,
-99,
-100,
-100,
-99,
-99,
-98,
-98,
-99,
-99,
-99,
-99,
-100,
-100,
-99,
-99,
-101,
-101,
-99,
-99,
-100,
-100,
-99,
-99,
-98,
-98,
-100,
-100,
-99,
-99,
-99,
-99,
-100,
-100,
-99,
-99,
-100,
-100,
-99,
-99,
-99,
-99,
-100,
-100,
-99,
-99,
-99,
-99,
-99,
-99,
-99,
-99,
-99,
-99,
-99,
-99,
-99,
-99,
-99,
-99,
-99,
-99,
-99,
-99,
-97,
-97,
-97,
-97,
-99,
-99,
-97,
-97,
-99,
-99,
-98,
-98,
-99,
-99,
-98,
-98,
-99,
-99,
-98,
-98,
-99,
-99,
-99,
-99,
-99,
-99,
-98,
-98,
-100,
-100,
-97,
-97,
-98,
-98,
-99,
-99,
-99,
-99,
-99,
-99,
-98,
-98,
-99,
-99,
-99,
-99,
-100,
-100,
-99,
-99,
-99,
-99,
-98,
-98,
-98,
-98,
-97,
-97,
-97,
-97,
-97,
-97,
-97,
-97,
-97,
-97,
-97,
-97,
-97,
-97,
-97,
-97,
-97,
-97,
-97,
-97,
-97,
-97,
-97,
-97,
-97,
-97,
-98,
-98,
-99,
-99,
-99,
-99,
-100,
-100,
-100,
-100,
-100,
-100,
-100,
-100,
-100,
-100,
-101,
-101,
-101,
-101,
-100,
-100,
-100,
-100,
-101,
-101,
-100,
-100,
-101,
-101,
-101,
-101,
-101,
-101,
-101,
-101,
-102,
-102,
-101,
-101,
-101,
-101,
-102,
-102,
-101,
-101,
-99,
-99,
-97,
-97,
-96,
-96,
-93,
-93,
-91,
-91,
-91,
-91,
-90,
-90,
-89,
-89,
-89,
-89,
-88,
-88,
-89,
-89,
-88,
-88,
-86,
-86,
-86,
-86,
-85,
-85,
-83,
-83,
-83,
-83,
-81,
-81,
-80,
-80,
-80,
-80,
-79,
-79,
-79,
-79,
-80,
-80,
-81,
-81,
-81,
-81,
-83,
-83,
-84,
-84,
-84,
-84,
-86,
-86,
-85,
-85,
-83,
-83,
-85,
-85,
-85,
-85,
-84,
-84,
-85,
-85,
-85,
-85,
-84,
-84,
-85,
-85,
-86,
-86,
-85,
-85,
-85,
-85,
-85,
-85,
-85,
-85,
-86,
-86,
-85,
-85,
-85,
-85,
-86,
-86,
-85,
-85,
-86,
-86,
-84,
-84,
-84,
-84,
-84,
-84,
-83,
-83,
-83,
-83,
-83,
-83,
-84,
-84,
-83,
-83,
-82,
-82,
-83,
-83,
-84,
-84,
-84,
-84,
-83,
-83,
-83,
-83,
-83,
-83,
-83,
-83,
-82,
-82,
-82,
-82,
-83,
-83,
-83,
-83,
-84,
-84,
-83,
-83,
-83,
-83,
-83,
-83,
-83,
-83,
-83,
-83,
-83,
-83,
-84,
-84,
-82,
-82,
-83,
-83,
-83,
-83,
-83,
-83,
-84,
-84,
-83,
-83,
-84,
-84,
-84,
-84,
-84,
-84,
-83,
-83,
-83,
-83,
-84,
-84,
-83,
-83,
-82,
-82,
-83,
-83,
-82,
-82,
-82,
-82,
-83,
-83,
-84,
-84,
-83,
-83,
-82,
-82,
-83,
-83,
-83,
-83,
-83,
-83,
-84,
-84,
-84,
-84,
-84,
-84,
-84,
-84,
-84,
-84,
-84,
-84,
-83,
-83,
-84,
-84,
-83,
-83,
-84,
-84,
-83,
-83,
-84,
-84,
-83,
-83,
-84,
-84,
-83,
-83,
-84,
-84,
-83,
-83,
-84,
-84,
-84,
-84,
-83,
-83,
-83,
-83,
-83,
-83,
-82,
-82,
-82,
-82,
-83,
-83,
-84,
-84,
-83,
-83,
-83,
-83,
-84,
-84,
-83,
-83,
-83,
-83,
-83,
-83,
-83,
-83,
-83,
-83,
-82,
-82,
-83,
-83,
-83,
-83,
-82,
-82,
-82,
-82,
-84,
-84,
-81,
-81,
-83,
-83,
-83,
-83,
-83,
-83,
-82,
-82,
-84,
-84,
-84,
-84,
-83,
-83,
-85,
-85,
-83,
-83,
-84,
-84,
-83,
-83,
-83,
-83,
-83,
-83,
-84,
-84,
-83,
-83,
-83,
-83,
-82,
-82,
-83,
-83,
-81,
-81,
-83,
-83,
-81,
-81,
-83,
-83,
-83,
-83,
-82,
-82,
-83,
-83,
-82,
-82,
-81,
-81,
-81,
-81,
-81,
-81,
-81,
-81,
-81,
-81,
-81,
-81,
-81,
-81,
-80,
-80,
-81,
-81,
-80,
-80,
-80,
-80,
-80,
-80,
-79,
-79,
-81,
-81,
-80,
-80,
-79,
-79,
-79,
-79,
-80,
-80,
-77,
-77,
-79,
-79,
-80,
-80,
-80,
-80,
-80,
-80,
-81,
-81,
-80,
-80,
-81,
-81,
-81,
-81,
-80,
-80,
-80,
-80,
-80,
-80,
-79,
-79,
-79,
-79,
-80,
-80,
-78,
-78,
-78,
-78,
-79,
-79,
-79,
-79,
-78,
-78,
-80,
-80,
-79,
-79,
-79,
-79,
-80,
-80,
-79,
-79,
-79,
-79,
-79,
-79,
-79,
-79,
-80,
-80,
-80,
-80,
-80,
-80,
-80,
-80,
-80,
-80,
-80,
-80,
-80,
-80,
-80,
-80,
-80,
-80,
-80,
-80,
-81,
-81,
-80,
-80,
-80,
-80,
-79,
-79,
-80,
-80,
-80,
-80,
-80,
-80,
-80,
-80,
-80,
-80,
-80,
-80,
-80,
-80,
-80,
-80,
-81,
-81,
-81,
-81,
-81,
-81,
-81,
-81,
-81,
-81,
-81,
-81,
-80,
-80,
-80,
-80,
-80,
-80,
-80,
-80,
-80,
-80,
-80,
-80,
-81,
-81,
-80,
-80,
-81,
-81,
-81,
-81,
-81,
-81,
-81,
-81,
-81,
-81,
-80,
-80,
-80,
-80,
-78,
-78,
-76,
-76,
-75,
-75,
-74,
-74,
-73,
-73,
-73,
-73,
-72,
-72,
-71,
-71,
-71,
-71,
-69,
-69,
-71,
-71,
-70,
-70,
-69,
-69,
-69,
-69,
-69,
-69,
-69,
-69,
-69,
-69,
-69,
-69,
-69,
-69,
-69,
-69,
-69,
-69,
-69,
-69,
-69,
-69,
-69,
-69,
-69,
-69,
-69,
-69,
-69,
-69,
-68,
-68,
-69,
-69,
-67,
-67,
-68,
-68,
-68,
-68,
-68,
-68,
-69,
-69,
-68,
-68,
-69,
-69,
-68,
-68,
-69,
-69,
-69,
-69,
-69,
-69,
-68,
-68,
-68,
-68,
-69,
-69,
-69,
-69,
-69,
-69,
-68,
-68,
-68,
-68,
-69,
-69,
-68,
-68,
-69,
-69,
-69,
-69,
-69,
-69,
-69,
-69,
-69,
-69,
-68,
-68,
-69,
-69,
-69,
-69,
-68,
-68,
-69,
-69,
-68,
-68,
-68,
-68,
-69,
-69,
-69,
-69,
-68,
-68,
-68,
-68,
-68,
-68,
-68,
-68,
-69,
-69,
-68,
-68,
-68,
-68,
-68,
-68,
-68,
-68,
-68,
-68,
-67,
-67,
-68,
-68,
-68,
-68,
-68,
-68,
-68,
-68,
-68,
-68,
-68,
-68,
-68,
-68,
-68,
-68,
-67,
-67,
-68,
-68,
-67,
-67,
-68,
-68,
-68,
-68,
-68,
-68,
-68,
-68,
-69,
-69,
-69,
-69,
-68,
-68,
-68,
-68,
-68,
-68,
-68,
-68,
-68,
-68,
-68,
-68,
-68,
-68,
-68,
-68,
-67,
-67,
-68,
-68,
-67,
-67,
-67,
-67,
-67,
-67,
-67,
-67,
-67,
-67,
-67,
-67,
-67,
-67,
-67,
-67,
-68,
-68,
-67,
-67,
-67,
-67,
-66,
-66,
-68,
-68,
-67,
-67,
-67,
-67,
-66,
-66,
-67,
-67,
-67,
-67,
-65,
-65,
-66,
-66,
-67,
-67,
-67,
-67,
-67,
-67,
-67,
-67,
-67,
-67,
-68,
-68,
-68,
-68,
-68,
-68,
-67,
-67,
-68,
-68,
-67,
-67,
-67,
-67,
-69,
-69,
-68,
-68,
-69,
-69,
-68,
-68,
-68,
-68,
-68,
-68,
-68,
-68,
-68,
-68,
-68,
-68,
-67,
-67,
-68,
-68,
-66,
-66,
-67,
-67,
-67,
-67,
-67,
-67,
-67,
-67,
-65,
-65,
-67,
-67,
-67,
-67,
-67,
-67,
-67,
-67,
-66,
-66,
-67,
-67,
-67,
-67,
-65,
-65,
-66,
-66,
-66,
-66,
-65,
-65,
-65,
-65,
-65,
-65,
-66,
-66,
-65,
-65,
-66,
-66,
-65,
-65,
-67,
-67,
-65,
-65,
-67,
-67,
-66,
-66,
-67,
-67,
-67,
-67,
-68,
-68,
-68,
-68,
-67,
-67,
-67,
-67,
-66,
-66,
-67,
-67,
-65,
-65,
-67,
-67,
-65,
-65,
-65,
-65,
-65,
-65,
-65,
-65,
-64,
-64,
-65,
-65,
-65,
-65,
-65,
-65,
-64,
-64,
-65,
-65,
-64,
-64,
-64,
-64,
-65,
-65,
-65,
-65,
-65,
-65,
-65,
-65,
-64,
-64,
-64,
-64,
-65,
-65,
-65,
-65,
-64,
-64,
-65,
-65,
-64,
-64,
-65,
-65,
-65,
-65,
-65,
-65,
-65,
-65,
-65,
-65,
-65,
-65,
-65,
-65,
-65,
-65,
-65,
-65,
-65,
-65,
-64,
-64,
-65,
-65,
-65,
-65,
-64,
-64,
-65,
-65,
-65,
-65,
-65,
-65,
-64,
-64,
-64,
-64,
-65,
-65,
-65,
-65,
-65,
-65,
-64,
-64,
-65,
-65,
-64,
-64,
-64,
-64,
-63,
-63,
-63,
-63,
-63,
-63,
-65,
-65,
-62,
-62,
-62,
-62,
-62,
-62,
-63,
-63,
-62,
-62,
-62,
-62,
-62,
-62,
-61,
-61,
-62,
-62,
-61,
-61,
-62,
-62,
-61,
-61,
-61,
-61,
-61,
-61,
-62,
-62,
-62,
-62,
-62,
-62,
-63,
-63,
-63,
-63,
-64,
-64,
-64,
-64,
-65,
-65,
-64,
-64,
-63,
-63,
-64,
-64,
-65,
-65,
-64,
-64,
-65,
-65,
-64,
-64,
-65,
-65,
-64,
-64,
-64,
-64,
-64,
-64,
-63,
-63,
-64,
-64,
-64,
-64,
-64,
-64,
-65,
-65,
-65,
-65,
-65,
-65,
-65,
-65,
-65,
-65,
-65,
-65,
-65,
-65,
-65,
-65,
-65,
-65,
-64,
-64,
-64,
-64,
-65,
-65,
-64,
-64,
-65,
-65,
-64,
-64,
-65,
-65,
-64,
-64,
-64,
-64,
-64,
-64,
-65,
-65,
-63,
-63,
-64,
-64,
-64,
-64,
-64,
-64,
-65,
-65,
-65,
-65,
-64,
-64,
-65,
-65,
-65,
-65,
-67,
-67,
-65,
-65,
-65,
-65,
-66,
-66,
-65,
-65,
-65,
-65,
-65,
-65,
-64,
-64,
-64,
-64,
-65,
-65,
-65,
-65,
-65,
-65,
-65,
-65,
-65,
-65,
-65,
-65,
-65,
-65,
-65,
-65,
-64,
-64,
-65,
-65,
-65,
-65,
-65,
-65,
-65,
-65,
-65,
-65,
-65,
-65,
-64,
-64,
-65,
-65,
-65,
-65,
-65,
-65,
-65,
-65,
-65,
-65,
-65,
-65,
-65,
-65,
-64,
-64,
-65,
-65,
-65,
-65,
-65,
-65,
-65,
-65,
-65,
-65,
-65,
-65,
-64,
-64,
-64,
-64,
-64,
-64,
-63,
-63,
-64,
-64,
-64,
-64,
-64,
-64,
-63,
-63,
-64,
-64,
-64,
-64,
-64,
-64,
-64,
-64,
-65,
-65,
-65,
-65,
-65,
-65,
-65,
-65,
-65,
-65,
-65,
-65,
-65,
-65,
-65,
-65,
-65,
-65,
-64,
-64,
-65,
-65,
-65,
-65,
-64,
-64,
-65,
-65,
-65,
-65,
-64,
-64,
-64,
-64,
-65,
-65,
-65,
-65,
-65,
-65,
-65,
-65,
-65,
-65,
-64,
-64,
-65,
-65,
-64,
-64,
-63,
-63,
-64,
-64,
-64,
-64,
-64,
-64,
-64,
-64,
-65,
-65,
-63,
-63,
-64,
-64,
-63,
-63,
-64,
-64,
-64,
-64,
-64,
-64,
-64,
-64,
-64,
-64,
-64,
-64,
-65,
-65,
-64,
-64,
-65,
-65,
-63,
-63,
-65,
-65,
-63,
-63,
-64,
-64,
-63,
-63,
-63,
-63,
-64,
-64,
-64,
-64,
-64,
-64,
-63,
-63,
-63,
-63,
-63,
-63,
-63,
-63,
-64,
-64,
-64,
-64,
-63,
-63,
-62,
-62,
-63,
-63,
-63,
-63,
-63,
-63,
-63,
-63,
-63,
-63,
-63,
-63,
-64,
-64,
-62,
-62,
-65,
-65,
-62,
-62,
-63,
-63,
-62,
-62,
-64,
-64,
-63,
-63,
-63,
-63,
-62,
-62,
-63,
-63,
-63,
-63,
-64,
-64,
-64,
-64,
-64,
-64,
-65,
-65,
-62,
-62,
-64,
-64,
-62,
-62,
-63,
-63,
-63,
-63,
-63,
-63,
-62,
-62,
-63,
-63,
-61,
-61,
-63,
-63,
-62,
-62,
-64,
-64,
-62,
-62,
-63,
-63,
-63,
-63,
-62,
-62,
-63,
-63,
-62,
-62,
-62,
-62,
-62,
-62,
-63,
-63,
-63,
-63,
-63,
-63,
-63,
-63,
-64,
-64,
-62,
-62,
-63,
-63,
-63,
-63,
-64,
-64,
-63,
-63,
-63,
-63,
-64,
-64,
-62,
-62,
-63,
-63,
-62,
-62,
-63,
-63,
-63,
-63,
-63,
-63,
-63,
-63,
-64,
-64,
-63,
-63,
-64,
-64,
-63,
-63,
-64,
-64,
-64,
-64,
-63,
-63,
-63,
-63,
-63,
-63,
-62,
-62,
-62,
-62,
-65,
-65,
-63,
-63,
-64,
-64,
-63,
-63,
-64,
-64,
-62,
-62,
-63,
-63,
-62,
-62,
-64,
-64,
-64,
-64,
-64,
-64,
-63,
-63,
-63,
-63,
-63,
-63,
-63,
-63,
-63,
-63,
-63,
-63,
-65,
-65,
-64,
-64,
-63,
-63,
-62,
-62,
-64,
-64,
-63,
-63,
-64,
-64,
-63,
-63,
-64,
-64,
-64,
-64,
-63,
-63,
-63,
-63,
-63,
-63,
-63,
-63,
-63,
-63,
-64,
-64,
-63,
-63,
-64,
-64,
-62,
-62,
-62,
-62,
-63,
-63,
-62,
-62,
-61,
-61,
-61,
-61,
-62,
-62,
-61,
-61,
-61,
-61,
-61,
-61,
-61,
-61,
-61,
-61,
-61,
-61,
-60,
-60,
-61,
-61,
-60,
-60,
-61,
-61,
-61,
-61,
-59,
-59,
-59,
-59,
-60,
-60,
-59,
-59,
-59,
-59,
-59,
-59,
-58,
-58,
-59,
-59,
-58,
-58,
-59,
-59,
-59,
-59,
-61,
-61,
-60,
-60,
-60,
-60,
-60,
-60,
-60,
-60,
-59,
-59,
-59,
-59,
-59,
-59,
-58,
-58,
-59,
-59,
-58,
-58,
-58,
-58,
-58,
-58,
-58,
-58,
-58,
-58,
-57,
-57,
-58,
-58,
-58,
-58,
-58,
-58,
-58,
-58,
-57,
-57,
-58,
-58,
-58,
-58,
-58,
-58,
-57,
-57,
-59,
-59,
-58,
-58,
-57,
-57,
-58,
-58,
-58,
-58,
-58,
-58,
-59,
-59,
-59,
-59,
-59,
-59,
-58,
-58,
-59,
-59,
-59,
-59,
-59,
-59,
-59,
-59,
-59,
-59,
-59,
-59,
-58,
-58,
-58,
-58,
-59,
-59,
-59,
-59,
-59,
-59,
-59,
-59,
-58,
-58,
-58,
-58,
-58,
-58,
-57,
-57,
-58,
-58,
-58,
-58,
-57,
-57,
-58,
-58,
-57,
-57,
-57,
-57,
-57,
-57,
-57,
-57,
-57,
-57,
-57,
-57,
-57,
-57,
-57,
-57,
-58,
-58,
-57,
-57,
-57,
-57,
-57,
-57,
-57,
-57,
-57,
-57,
-57,
-57,
-57,
-57,
-57,
-57,
-57,
-57,
-58,
-58,
-58,
-58,
-58,
-58,
-58,
-58,
-58,
-58,
-59,
-59,
-57,
-57,
-57,
-57,
-58,
-58,
-57,
-57,
-57,
-57,
-58,
-58,
-57,
-57,
-57,
-57,
-57,
-57,
-58,
-58,
-57,
-57,
-57,
-57,
-57,
-57,
-57,
-57,
-57,
-57,
-56,
-56,
-53,
-53,
-51,
-51,
-48,
-48,
-43,
-43,
-43,
-43,
-39,
-39,
-37,
-37,
-36,
-36,
-35,
-35,
-33,
-33,
-31,
-31,
-31,
-31,
-29,
-29,
-27,
-27,
-26,
-26,
-25,
-25,
-25,
-25,
-24,
-24,
-21,
-21,
-20,
-20,
-19,
-19,
-17,
-17,
-15,
-15,
-14,
-14,
-12,
-12,
-11,
-11,
-10,
-10,
-10,
-10,
-8,
-8,
-6,
-6,
-6,
-6,
-8,
-8,
-4,
-4,
-4,
-4,
-5,
-5,
-4,
-4,
-3,
-3,
-3,
-3,
-3,
-3,
-3,
-3,
-3,
-3,
-2,
-2,
-3,
-3,
-3,
-3,
-1,
-1,
-2,
-2,
-2,
-2,
-2,
-2,
-2,
-2,
-2,
-2,
-1,
-1,
-2,
-2,
-1,
-1,
-1,
-1,
-1,
-1,
0,
0,
-2,
-2,
-1,
-1,
-1,
-1,
-1,
-1,
-1,
-1,
-1,
-1,
0,
0,
-1,
-1,
0,
0,
-1,
-1,
0,
0,
-1,
-1,
-1,
-1,
-1,
-1,
-1,
-1,
-1,
-1,
-1,
-1,
-1,
-1,
-1,
-1,
-1,
-1,
-1,
-1,
0,
0,
-1,
-1,
-1,
-1,
-1,
-1,
0,
0,
-1,
-1,
-1,
-1,
0,
0,
1,
1,
-1,
-1,
-1,
-1,
0,
0,
0,
0,
-1,
-1,
-1,
-1,
1,
1,
-1,
-1,
-1,
-1,
0,
0,
1,
1,
1,
1,
1,
1,
-1,
-1,
1,
1,
-1,
-1,
1,
1,
1,
1,
0,
0,
2,
2,
1,
1,
1,
1,
0,
0,
-1,
-1,
1,
1,
2,
2,
1,
1,
1,
1,
1,
1,
2,
2,
0,
0,
0,
0,
1,
1,
2,
2,
1,
1,
0,
0,
1,
1,
-1,
-1,
-1,
-1,
1,
1,
0,
0,
0,
0,
1,
1,
-1,
-1,
1,
1,
0,
0,
0,
0,
1,
1,
1,
1,
1,
1,
-1,
-1,
-1,
-1,
-1,
-1,
-1,
-1,
-1,
-1,
0,
0,
-1,
-1,
-1,
-1,
-1,
-1,
-1,
-1,
-1,
-1,
-1,
-1,
1,
1,
0,
0,
1,
1,
0,
0,
0,
0,
0,
0,
0,
0,
1,
1,
0,
0,
0,
0,
1,
1,
1,
1,
2,
2,
0,
0,
1,
1,
1,
1,
1,
1,
1,
1,
1,
1,
2,
2,
1,
1,
1,
1,
1,
1,
1,
1,
1,
1,
2,
2,
0,
0,
2,
2,
1,
1,
2,
2,
1,
1,
1,
1,
2,
2,
1,
1,
2,
2,
3,
3,
2,
2,
2,
2,
2,
2,
2,
2,
2,
2,
3,
3,
2,
2,
2,
2,
2,
2,
2,
2,
2,
2,
2,
2,
2,
2,
2,
2,
2,
2,
2,
2,
1,
1,
1,
1,
1,
1,
2,
2,
1,
1,
2,
2,
1,
1,
2,
2,
2,
2,
2,
2,
2,
2,
2,
2,
1,
1,
2,
2,
1,
1,
2,
2,
1,
1,
1,
1,
2,
2,
2,
2,
2,
2,
1,
1,
1,
1,
2,
2,
1,
1,
2,
2,
2,
2,
0,
0,
1,
1,
2,
2,
2,
2,
1,
1,
1,
1,
1,
1,
1,
1,
1,
1,
1,
1,
1,
1,
1,
1,
2,
2,
2,
2,
2,
2,
0,
0,
1,
1,
2,
2,
1,
1,
0,
0,
0,
0,
1,
1,
1,
1,
1,
1,
1,
1,
2,
2,
1,
1,
1,
1,
1,
1,
1,
1,
1,
1,
1,
1,
2,
2,
1,
1,
0,
0,
2,
2,
1,
1,
1,
1,
1,
1,
1,
1,
2,
2,
2,
2,
1,
1,
1,
1,
2,
2,
0,
0,
0,
0,
1,
1,
2,
2,
1,
1,
1,
1,
2,
2,
2,
2,
2,
2,
2,
2,
2,
2,
2,
2,
1,
1,
1,
1,
2,
2,
0,
0,
1,
1,
1,
1,
1,
1,
2,
2,
1,
1,
1,
1,
2,
2,
2,
2,
1,
1,
1,
1,
1,
1,
1,
1,
0,
0,
1,
1,
1,
1,
0,
0,
2,
2,
1,
1,
1,
1,
1,
1,
1,
1,
1,
1,
1,
1,
2,
2,
1,
1,
0,
0,
-1,
-1,
0,
0,
2,
2,
0,
0,
1,
1,
2,
2,
1,
1,
0,
0,
1,
1,
-1,
-1,
1,
1,
0,
0,
0,
0,
0,
0,
2,
2,
1,
1,
1,
1,
2,
2,
0,
0,
1,
1,
2,
2,
1,
1,
0,
0,
1,
1,
2,
2,
1,
1,
2,
2,
2,
2,
1,
1,
2,
2,
2,
2,
3,
3,
2,
2,
2,
2,
2,
2,
2,
2,
3,
3,
1,
1,
2,
2,
3,
3,
2,
2,
3,
3,
3,
3,
3,
3,
3,
3,
2,
2,
2,
2,
2,
2,
1,
1,
2,
2,
3,
3,
3,
3,
2,
2,
2,
2,
2,
2,
2,
2,
2,
2,
2,
2,
2,
2,
2,
2,
1,
1,
2,
2,
1,
1,
1,
1,
2,
2,
2,
2,
1,
1,
1,
1,
2,
2,
1,
1,
2,
2,
1,
1,
1,
1,
1,
1,
-1,
-1,
1,
1,
1,
1,
2,
2,
0,
0,
0,
0,
0,
0,
1,
1,
0,
0,
1,
1,
1,
1,
1,
1,
2,
2,
2,
2,
1,
1,
1,
1,
1,
1,
1,
1,
1,
1,
1,
1,
2,
2,
1,
1,
0,
0,
0,
0,
2,
2,
1,
1,
2,
2,
1,
1,
1,
1,
0,
0,
0,
0,
0,
0,
1,
1,
2,
2,
0,
0,
1,
1,
2,
2,
3,
3,
1,
1,
2,
2,
0,
0,
1,
1,
1,
1,
1,
1,
0,
0,
1,
1,
0,
0,
1,
1,
2,
2,
1,
1,
2,
2,
1,
1,
1,
1,
0,
0,
1,
1,
1,
1,
1,
1,
1,
1,
1,
1,
0,
0,
0,
0,
0,
0,
1,
1,
1,
1,
1,
1,
2,
2,
1,
1,
1,
1,
1,
1,
1,
1,
0,
0,
0,
0,
0,
0,
1,
1,
1,
1,
1,
1,
1,
1,
1,
1,
1,
1,
0,
0,
2,
2,
1,
1,
1,
1,
-1,
-1,
1,
1,
0,
0,
0,
0,
1,
1,
2,
2,
1,
1,
0,
0,
1,
1,
1,
1,
0,
0,
1,
1,
1,
1,
2,
2,
1,
1,
1,
1,
1,
