mesures_70_mV.CSV

Memory Length,4000,
Trigger Level,-3.08000e+02,
Source,CH1,
Probe,1.0X,
Vertical Units,V,
Vertical Scale,1.00000e-01,
Vertical Position,2.00000e-01,
Horizontal Units,S,
Horizontal Scale,2.50000e-05,
Horizontal Position,0.0000000e+00,
Horizontal Mode,Main,
Sampling Period,1.00000e-07,
Firmware,V1.14,
Time, ,
Mode,Fast,
Waveform Data,
-164,
-164,
-164,
-164,
-164,
-165,
-165,
-165,
-165,
-163,
-163,
-164,
-164,
-165,
-165,
-165,
-165,
-165,
-165,
-165,
-165,
-165,
-165,
-166,
-166,
-166,
-166,
-165,
-165,
-166,
-166,
-165,
-165,
-165,
-165,
-164,
-164,
-164,
-164,
-164,
-164,
-165,
-165,
-165,
-165,
-165,
-165,
-164,
-164,
-164,
-164,
-165,
-165,
-164,
-164,
-165,
-165,
-165,
-165,
-165,
-165,
-165,
-165,
-165,
-165,
-165,
-165,
-165,
-165,
-164,
-164,
-165,
-165,
-165,
-165,
-164,
-164,
-164,
-164,
-164,
-164,
-165,
-165,
-165,
-165,
-164,
-164,
-165,
-165,
-164,
-164,
-165,
-165,
-164,
-164,
-164,
-164,
-164,
-164,
-164,
-164,
-164,
-164,
-164,
-164,
-163,
-163,
-164,
-164,
-164,
-164,
-164,
-164,
-164,
-164,
-164,
-164,
-165,
-165,
-164,
-164,
-163,
-163,
-163,
-163,
-163,
-163,
-164,
-164,
-163,
-163,
-163,
-163,
-162,
-162,
-163,
-163,
-163,
-163,
-164,
-164,
-163,
-163,
-164,
-164,
-164,
-164,
-165,
-165,
-164,
-164,
-164,
-164,
-163,
-163,
-165,
-165,
-164,
-164,
-163,
-163,
-163,
-163,
-164,
-164,
-164,
-164,
-162,
-162,
-163,
-163,
-162,
-162,
-163,
-163,
-162,
-162,
-164,
-164,
-163,
-163,
-163,
-163,
-163,
-163,
-163,
-163,
-162,
-162,
-163,
-163,
-164,
-164,
-164,
-164,
-164,
-164,
-163,
-163,
-164,
-164,
-163,
-163,
-164,
-164,
-163,
-163,
-164,
-164,
-162,
-162,
-163,
-163,
-163,
-163,
-162,
-162,
-163,
-163,
-163,
-163,
-163,
-163,
-163,
-163,
-164,
-164,
-163,
-163,
-164,
-164,
-162,
-162,
-164,
-164,
-163,
-163,
-163,
-163,
-161,
-161,
-163,
-163,
-163,
-163,
-163,
-163,
-162,
-162,
-162,
-162,
-162,
-162,
-163,
-163,
-163,
-163,
-163,
-163,
-163,
-163,
-163,
-163,
-162,
-162,
-162,
-162,
-162,
-162,
-162,
-162,
-163,
-163,
-161,
-161,
-162,
-162,
-162,
-162,
-162,
-162,
-163,
-163,
-162,
-162,
-163,
-163,
-162,
-162,
-163,
-163,
-161,
-161,
-163,
-163,
-162,
-162,
-161,
-161,
-161,
-161,
-162,
-162,
-161,
-161,
-161,
-161,
-162,
-162,
-161,
-161,
-163,
-163,
-161,
-161,
-161,
-161,
-161,
-161,
-161,
-161,
-162,
-162,
-161,
-161,
-161,
-161,
-162,
-162,
-161,
-161,
-161,
-161,
-161,
-161,
-161,
-161,
-161,
-161,
-161,
-161,
-162,
-162,
-161,
-161,
-162,
-162,
-161,
-161,
-162,
-162,
-161,
-161,
-161,
-161,
-161,
-161,
-161,
-161,
-161,
-161,
-161,
-161,
-161,
-161,
-161,
-161,
-162,
-162,
-161,
-161,
-162,
-162,
-161,
-161,
-162,
-162,
-161,
-161,
-161,
-161,
-161,
-161,
-161,
-161,
-161,
-161,
-161,
-161,
-160,
-160,
-160,
-160,
-161,
-161,
-160,
-160,
-160,
-160,
-161,
-161,
-161,
-161,
-160,
-160,
-161,
-161,
-160,
-160,
-160,
-160,
-160,
-160,
-159,
-159,
-160,
-160,
-161,
-161,
-159,
-159,
-160,
-160,
-160,
-160,
-161,
-161,
-160,
-160,
-160,
-160,
-160,
-160,
-160,
-160,
-160,
-160,
-160,
-160,
-159,
-159,
-159,
-159,
-160,
-160,
-159,
-159,
-160,
-160,
-160,
-160,
-160,
-160,
-159,
-159,
-159,
-159,
-159,
-159,
-159,
-159,
-160,
-160,
-159,
-159,
-159,
-159,
-159,
-159,
-159,
-159,
-159,
-159,
-159,
-159,
-159,
-159,
-159,
-159,
-158,
-158,
-158,
-158,
-158,
-158,
-159,
-159,
-158,
-158,
-159,
-159,
-158,
-158,
-157,
-157,
-158,
-158,
-158,
-158,
-158,
-158,
-158,
-158,
-159,
-159,
-158,
-158,
-158,
-158,
-157,
-157,
-157,
-157,
-156,
-156,
-157,
-157,
-157,
-157,
-156,
-156,
-157,
-157,
-156,
-156,
-157,
-157,
-157,
-157,
-155,
-155,
-157,
-157,
-156,
-156,
-156,
-156,
-157,
-157,
-157,
-157,
-156,
-156,
-157,
-157,
-157,
-157,
-157,
-157,
-157,
-157,
-156,
-156,
-157,
-157,
-157,
-157,
-157,
-157,
-156,
-156,
-157,
-157,
-157,
-157,
-157,
-157,
-157,
-157,
-157,
-157,
-157,
-157,
-157,
-157,
-157,
-157,
-156,
-156,
-157,
-157,
-157,
-157,
-156,
-156,
-156,
-156,
-157,
-157,
-157,
-157,
-156,
-156,
-156,
-156,
-156,
-156,
-157,
-157,
-157,
-157,
-156,
-156,
-157,
-157,
-157,
-157,
-156,
-156,
-156,
-156,
-157,
-157,
-155,
-155,
-156,
-156,
-157,
-157,
-156,
-156,
-156,
-156,
-155,
-155,
-155,
-155,
-155,
-155,
-156,
-156,
-155,
-155,
-156,
-156,
-156,
-156,
-157,
-157,
-156,
-156,
-156,
-156,
-156,
-156,
-156,
-156,
-157,
-157,
-156,
-156,
-156,
-156,
-156,
-156,
-156,
-156,
-155,
-155,
-157,
-157,
-155,
-155,
-155,
-155,
-156,
-156,
-155,
-155,
-156,
-156,
-155,
-155,
-155,
-155,
-153,
-153,
-154,
-154,
-153,
-153,
-153,
-153,
-152,
-152,
-153,
-153,
-153,
-153,
-153,
-153,
-153,
-153,
-153,
-153,
-153,
-153,
-153,
-153,
-152,
-152,
-151,
-151,
-152,
-152,
-152,
-152,
-153,
-153,
-152,
-152,
-153,
-153,
-151,
-151,
-152,
-152,
-151,
-151,
-153,
-153,
-151,
-151,
-153,
-153,
-153,
-153,
-152,
-152,
-152,
-152,
-152,
-152,
-152,
-152,
-152,
-152,
-153,
-153,
-152,
-152,
-153,
-153,
-152,
-152,
-152,
-152,
-152,
-152,
-152,
-152,
-150,
-150,
-152,
-152,
-152,
-152,
-151,
-151,
-152,
-152,
-151,
-151,
-151,
-151,
-152,
-152,
-152,
-152,
-152,
-152,
-151,
-151,
-152,
-152,
-152,
-152,
-152,
-152,
-152,
-152,
-152,
-152,
-153,
-153,
-153,
-153,
-152,
-152,
-152,
-152,
-152,
-152,
-152,
-152,
-152,
-152,
-153,
-153,
-152,
-152,
-152,
-152,
-152,
-152,
-152,
-152,
-151,
-151,
-152,
-152,
-152,
-152,
-152,
-152,
-151,
-151,
-151,
-151,
-152,
-152,
-151,
-151,
-150,
-150,
-151,
-151,
-152,
-152,
-151,
-151,
-151,
-151,
-151,
-151,
-151,
-151,
-150,
-150,
-150,
-150,
-149,
-149,
-150,
-150,
-151,
-151,
-150,
-150,
-151,
-151,
-149,
-149,
-149,
-149,
-150,
-150,
-151,
-151,
-150,
-150,
-150,
-150,
-149,
-149,
-150,
-150,
-151,
-151,
-150,
-150,
-150,
-150,
-151,
-151,
-150,
-150,
-149,
-149,
-151,
-151,
-151,
-151,
-151,
-151,
-150,
-150,
-150,
-150,
-149,
-149,
-151,
-151,
-149,
-149,
-150,
-150,
-149,
-149,
-151,
-151,
-151,
-151,
-151,
-151,
-151,
-151,
-149,
-149,
-151,
-151,
-150,
-150,
-149,
-149,
-149,
-149,
-150,
-150,
-149,
-149,
-149,
-149,
-149,
-149,
-150,
-150,
-149,
-149,
-149,
-149,
-149,
-149,
-149,
-149,
-150,
-150,
-149,
-149,
-150,
-150,
-149,
-149,
-149,
-149,
-148,
-148,
-148,
-148,
-148,
-148,
-148,
-148,
-146,
-146,
-147,
-147,
-145,
-145,
-146,
-146,
-146,
-146,
-147,
-147,
-145,
-145,
-145,
-145,
-145,
-145,
-145,
-145,
-145,
-145,
-144,
-144,
-144,
-144,
-145,
-145,
-145,
-145,
-145,
-145,
-147,
-147,
-146,
-146,
-146,
-146,
-147,
-147,
-146,
-146,
-147,
-147,
-147,
-147,
-146,
-146,
-145,
-145,
-145,
-145,
-145,
-145,
-146,
-146,
-147,
-147,
-146,
-146,
-145,
-145,
-147,
-147,
-145,
-145,
-147,
-147,
-145,
-145,
-147,
-147,
-147,
-147,
-147,
-147,
-147,
-147,
-145,
-145,
-145,
-145,
-146,
-146,
-147,
-147,
-146,
-146,
-146,
-146,
-146,
-146,
-146,
-146,
-146,
-146,
-147,
-147,
-147,
-147,
-146,
-146,
-147,
-147,
-146,
-146,
-147,
-147,
-146,
-146,
-146,
-146,
-146,
-146,
-147,
-147,
-147,
-147,
-147,
-147,
-145,
-145,
-145,
-145,
-145,
-145,
-146,
-146,
-146,
-146,
-145,
-145,
-145,
-145,
-145,
-145,
-145,
-145,
-145,
-145,
-145,
-145,
-144,
-144,
-145,
-145,
-144,
-144,
-145,
-145,
-145,
-145,
-145,
-145,
-145,
-145,
-145,
-145,
-145,
-145,
-146,
-146,
-145,
-145,
-145,
-145,
-145,
-145,
-144,
-144,
-145,
-145,
-145,
-145,
-145,
-145,
-145,
-145,
-145,
-145,
-145,
-145,
-145,
-145,
-145,
-145,
-145,
-145,
-144,
-144,
-145,
-145,
-145,
-145,
-144,
-144,
-145,
-145,
-145,
-145,
-145,
-145,
-144,
-144,
-145,
-145,
-145,
-145,
-145,
-145,
-145,
-145,
-145,
-145,
-144,
-144,
-145,
-145,
-145,
-145,
-144,
-144,
-144,
-144,
-143,
-143,
-142,
-142,
-142,
-142,
-141,
-141,
-141,
-141,
-141,
-141,
-142,
-142,
-142,
-142,
-143,
-143,
-143,
-143,
-143,
-143,
-144,
-144,
-144,
-144,
-144,
-144,
-143,
-143,
-143,
-143,
-142,
-142,
-141,
-141,
-142,
-142,
-141,
-141,
-141,
-141,
-140,
-140,
-140,
-140,
-140,
-140,
-140,
-140,
-140,
-140,
-140,
-140,
-140,
-140,
-140,
-140,
-140,
-140,
-140,
-140,
-139,
-139,
-139,
-139,
-139,
-139,
-139,
-139,
-139,
-139,
-139,
-139,
-140,
-140,
-141,
-141,
-139,
-139,
-139,
-139,
-139,
-139,
-140,
-140,
-139,
-139,
-139,
-139,
-139,
-139,
-137,
-137,
-137,
-137,
-137,
-137,
-136,
-136,
-135,
-135,
-135,
-135,
-136,
-136,
-136,
-136,
-134,
-134,
-134,
-134,
-134,
-134,
-135,
-135,
-134,
-134,
-135,
-135,
-136,
-136,
-136,
-136,
-137,
-137,
-137,
-137,
-138,
-138,
-138,
-138,
-138,
-138,
-139,
-139,
-138,
-138,
-138,
-138,
-136,
-136,
-134,
-134,
-134,
-134,
-133,
-133,
-133,
-133,
-133,
-133,
-133,
-133,
-132,
-132,
-133,
-133,
-133,
-133,
-132,
-132,
-132,
-132,
-132,
-132,
-132,
-132,
-131,
-131,
-131,
-131,
-130,
-130,
-130,
-130,
-129,
-129,
-130,
-130,
-129,
-129,
-129,
-129,
-129,
-129,
-128,
-128,
-127,
-127,
-125,
-125,
-125,
-125,
-123,
-123,
-123,
-123,
-123,
-123,
-124,
-124,
-123,
-123,
-123,
-123,
-123,
-123,
-124,
-124,
-124,
-124,
-123,
-123,
-123,
-123,
-123,
-123,
-122,
-122,
-122,
-122,
-123,
-123,
-123,
-123,
-122,
-122,
-122,
-122,
-121,
-121,
-120,
-120,
-120,
-120,
-119,
-119,
-119,
-119,
-119,
-119,
-119,
-119,
-119,
-119,
-119,
-119,
-119,
-119,
-119,
-119,
-119,
-119,
-118,
-118,
-119,
-119,
-117,
-117,
-118,
-118,
-119,
-119,
-119,
-119,
-117,
-117,
-118,
-118,
-119,
-119,
-117,
-117,
-119,
-119,
-117,
-117,
-118,
-118,
-117,
-117,
-119,
-119,
-118,
-118,
-117,
-117,
-119,
-119,
-118,
-118,
-119,
-119,
-118,
-118,
-118,
-118,
-118,
-118,
-118,
-118,
-117,
-117,
-117,
-117,
-117,
-117,
-118,
-118,
-117,
-117,
-119,
-119,
-118,
-118,
-119,
-119,
-119,
-119,
-118,
-118,
-119,
-119,
-118,
-118,
-117,
-117,
-116,
-116,
-117,
-117,
-116,
-116,
-117,
-117,
-115,
-115,
-114,
-114,
-114,
-114,
-114,
-114,
-117,
-117,
-117,
-117,
-116,
-116,
-117,
-117,
-116,
-116,
-115,
-115,
-115,
-115,
-114,
-114,
-113,
-113,
-111,
-111,
-112,
-112,
-111,
-111,
-112,
-112,
-112,
-112,
-114,
-114,
-115,
-115,
-115,
-115,
-117,
-117,
-119,
-119,
-119,
-119,
-120,
-120,
-120,
-120,
-120,
-120,
-121,
-121,
-120,
-120,
-121,
-121,
-121,
-121,
-122,
-122,
-121,
-121,
-121,
-121,
-120,
-120,
-119,
-119,
-119,
-119,
-119,
-119,
-118,
-118,
-118,
-118,
-119,
-119,
-118,
-118,
-119,
-119,
-119,
-119,
-118,
-118,
-117,
-117,
-117,
-117,
-115,
-115,
-116,
-116,
-116,
-116,
-116,
-116,
-116,
-116,
-116,
-116,
-115,
-115,
-117,
-117,
-117,
-117,
-116,
-116,
-117,
-117,
-116,
-116,
-115,
-115,
-116,
-116,
-116,
-116,
-113,
-113,
-115,
-115,
-115,
-115,
-115,
-115,
-113,
-113,
-117,
-117,
-115,
-115,
-116,
-116,
-115,
-115,
-116,
-116,
-117,
-117,
-115,
-115,
-116,
-116,
-116,
-116,
-116,
-116,
-116,
-116,
-116,
-116,
-116,
-116,
-116,
-116,
-117,
-117,
-117,
-117,
-116,
-116,
-116,
-116,
-116,
-116,
-115,
-115,
-116,
-116,
-114,
-114,
-115,
-115,
-115,
-115,
-115,
-115,
-114,
-114,
-115,
-115,
-115,
-115,
-114,
-114,
-115,
-115,
-115,
-115,
-114,
-114,
-114,
-114,
-115,
-115,
-115,
-115,
-115,
-115,
-117,
-117,
-115,
-115,
-116,
-116,
-116,
-116,
-116,
-116,
-116,
-116,
-116,
-116,
-115,
-115,
-113,
-113,
-113,
-113,
-110,
-110,
-110,
-110,
-108,
-108,
-109,
-109,
-108,
-108,
-108,
-108,
-109,
-109,
-108,
-108,
-109,
-109,
-109,
-109,
-108,
-108,
-109,
-109,
-109,
-109,
-108,
-108,
-107,
-107,
-107,
-107,
-107,
-107,
-107,
-107,
-107,
-107,
-106,
-106,
-105,
-105,
-107,
-107,
-107,
-107,
-107,
-107,
-107,
-107,
-108,
-108,
-108,
-108,
-109,
-109,
-109,
-109,
-111,
-111,
-110,
-110,
-110,
-110,
-110,
-110,
-110,
-110,
-111,
-111,
-111,
-111,
-111,
-111,
-109,
-109,
-111,
-111,
-110,
-110,
-109,
-109,
-110,
-110,
-110,
-110,
-109,
-109,
-111,
-111,
-110,
-110,
-111,
-111,
-110,
-110,
-110,
-110,
-111,
-111,
-110,
-110,
-111,
-111,
-110,
-110,
-110,
-110,
-110,
-110,
-109,
-109,
-109,
-109,
-109,
-109,
-109,
-109,
-109,
-109,
-110,
-110,
-110,
-110,
-111,
-111,
-110,
-110,
-110,
-110,
-111,
-111,
-109,
-109,
-105,
-105,
-103,
-103,
-101,
-101,
-100,
-100,
-99,
-99,
-97,
-97,
-96,
-96,
-95,
-95,
-93,
-93,
-92,
-92,
-94,
-94,
-92,
-92,
-91,
-91,
-91,
-91,
-90,
-90,
-89,
-89,
-88,
-88,
-89,
-89,
-87,
-87,
-88,
-88,
-87,
-87,
-87,
-87,
-87,
-87,
-86,
-86,
-86,
-86,
-86,
-86,
-85,
-85,
-85,
-85,
-86,
-86,
-85,
-85,
-84,
-84,
-85,
-85,
-86,
-86,
-85,
-85,
-85,
-85,
-86,
-86,
-86,
-86,
-86,
-86,
-86,
-86,
-86,
-86,
-85,
-85,
-87,
-87,
-86,
-86,
-87,
-87,
-86,
-86,
-86,
-86,
-86,
-86,
-86,
-86,
-85,
-85,
-86,
-86,
-84,
-84,
-85,
-85,
-81,
-81,
-83,
-83,
-82,
-82,
-83,
-83,
-83,
-83,
-82,
-82,
-81,
-81,
-81,
-81,
-80,
-80,
-79,
-79,
-78,
-78,
-76,
-76,
-76,
-76,
-76,
-76,
-77,
-77,
-76,
-76,
-76,
-76,
-76,
-76,
-75,
-75,
-76,
-76,
-74,
-74,
-74,
-74,
-73,
-73,
-72,
-72,
-72,
-72,
-72,
-72,
-72,
-72,
-72,
-72,
-72,
-72,
-70,
-70,
-71,
-71,
-72,
-72,
-73,
-73,
-73,
-73,
-74,
-74,
-73,
-73,
-74,
-74,
-73,
-73,
-73,
-73,
-72,
-72,
-74,
-74,
-73,
-73,
-72,
-72,
-72,
-72,
-73,
-73,
-72,
-72,
-72,
-72,
-72,
-72,
-73,
-73,
-72,
-72,
-71,
-71,
-71,
-71,
-71,
-71,
-71,
-71,
-70,
-70,
-71,
-71,
-70,
-70,
-69,
-69,
-69,
-69,
-70,
-70,
-69,
-69,
-69,
-69,
-71,
-71,
-70,
-70,
-71,
-71,
-69,
-69,
-70,
-70,
-71,
-71,
-71,
-71,
-71,
-71,
-72,
-72,
-72,
-72,
-73,
-73,
-74,
-74,
-74,
-74,
-75,
-75,
-75,
-75,
-74,
-74,
-75,
-75,
-75,
-75,
-74,
-74,
-74,
-74,
-74,
-74,
-75,
-75,
-76,
-76,
-76,
-76,
-75,
-75,
-76,
-76,
-75,
-75,
-76,
-76,
-75,
-75,
-75,
-75,
-76,
-76,
-76,
-76,
-76,
-76,
-75,
-75,
-76,
-76,
-76,
-76,
-78,
-78,
-76,
-76,
-79,
-79,
-79,
-79,
-77,
-77,
-77,
-77,
-79,
-79,
-79,
-79,
-79,
-79,
-79,
-79,
-79,
-79,
-80,
-80,
-78,
-78,
-79,
-79,
-79,
-79,
-79,
-79,
-77,
-77,
-79,
-79,
-77,
-77,
-79,
-79,
-76,
-76,
-77,
-77,
-77,
-77,
-78,
-78,
-77,
-77,
-78,
-78,
-78,
-78,
-77,
-77,
-79,
-79,
-77,
-77,
-77,
-77,
-76,
-76,
-79,
-79,
-77,
-77,
-79,
-79,
-78,
-78,
-80,
-80,
-79,
-79,
-80,
-80,
-79,
-79,
-79,
-79,
-80,
-80,
-80,
-80,
-79,
-79,
-79,
-79,
-79,
-79,
-80,
-80,
-80,
-80,
-80,
-80,
-79,
-79,
-79,
-79,
-80,
-80,
-80,
-80,
-80,
-80,
-81,
-81,
-80,
-80,
-80,
-80,
-80,
-80,
-79,
-79,
-79,
-79,
-80,
-80,
-80,
-80,
-80,
-80,
-80,
-80,
-80,
-80,
-80,
-80,
-80,
-80,
-80,
-80,
-81,
-81,
-80,
-80,
-80,
-80,
-80,
-80,
-80,
-80,
-80,
-80,
-78,
-78,
-79,
-79,
-79,
-79,
-79,
-79,
-80,
-80,
-80,
-80,
-79,
-79,
-79,
-79,
-78,
-78,
-79,
-79,
-78,
-78,
-79,
-79,
-78,
-78,
-77,
-77,
-78,
-78,
-77,
-77,
-79,
-79,
-78,
-78,
-79,
-79,
-78,
-78,
-78,
-78,
-78,
-78,
-79,
-79,
-77,
-77,
-77,
-77,
-78,
-78,
-75,
-75,
-76,
-76,
-76,
-76,
-75,
-75,
-75,
-75,
-77,
-77,
-76,
-76,
-76,
-76,
-77,
-77,
-77,
-77,
-77,
-77,
-76,
-76,
-76,
-76,
-78,
-78,
-79,
-79,
-78,
-78,
-77,
-77,
-76,
-76,
-76,
-76,
-76,
-76,
-76,
-76,
-76,
-76,
-78,
-78,
-77,
-77,
-78,
-78,
-77,
-77,
-77,
-77,
-76,
-76,
-78,
-78,
-76,
-76,
-77,
-77,
-76,
-76,
-77,
-77,
-76,
-76,
-76,
-76,
-76,
-76,
-76,
-76,
-75,
-75,
-76,
-76,
-75,
-75,
-75,
-75,
-75,
-75,
-75,
-75,
-75,
-75,
-75,
-75,
-74,
-74,
-74,
-74,
-73,
-73,
-73,
-73,
-74,
-74,
-74,
-74,
-73,
-73,
-73,
-73,
-75,
-75,
-74,
-74,
-74,
-74,
-74,
-74,
-74,
-74,
-74,
-74,
-75,
-75,
-74,
-74,
-74,
-74,
-75,
-75,
-73,
-73,
-73,
-73,
-74,
-74,
-74,
-74,
-74,
-74,
-74,
-74,
-74,
-74,
-73,
-73,
-73,
-73,
-73,
-73,
-73,
-73,
-73,
-73,
-73,
-73,
-73,
-73,
-73,
-73,
-72,
-72,
-72,
-72,
-73,
-73,
-73,
-73,
-73,
-73,
-74,
-74,
-74,
-74,
-73,
-73,
-73,
-73,
-73,
-73,
-71,
-71,
-73,
-73,
-73,
-73,
-73,
-73,
-72,
-72,
-73,
-73,
-73,
-73,
-74,
-74,
-73,
-73,
-72,
-72,
-73,
-73,
-73,
-73,
-73,
-73,
-73,
-73,
-74,
-74,
-75,
-75,
-75,
-75,
-74,
-74,
-75,
-75,
-75,
-75,
-75,
-75,
-77,
-77,
-77,
-77,
-76,
-76,
-76,
-76,
-77,
-77,
-78,
-78,
-78,
-78,
-77,
-77,
-78,
-78,
-79,
-79,
-79,
-79,
-78,
-78,
-77,
-77,
-79,
-79,
-78,
-78,
-79,
-79,
-78,
-78,
-79,
-79,
-78,
-78,
-79,
-79,
-77,
-77,
-79,
-79,
-79,
-79,
-78,
-78,
-78,
-78,
-79,
-79,
-79,
-79,
-77,
-77,
-77,
-77,
-77,
-77,
-77,
-77,
-78,
-78,
-77,
-77,
-78,
-78,
-78,
-78,
-78,
-78,
-77,
-77,
-78,
-78,
-77,
-77,
-77,
-77,
-78,
-78,
-77,
-77,
-78,
-78,
-77,
-77,
-77,
-77,
-78,
-78,
-78,
-78,
-78,
-78,
-78,
-78,
-78,
-78,
-78,
-78,
-79,
-79,
-77,
-77,
-78,
-78,
-77,
-77,
-79,
-79,
-77,
-77,
-79,
-79,
-77,
-77,
-77,
-77,
-78,
-78,
-79,
-79,
-79,
-79,
-80,
-80,
-79,
-79,
-80,
-80,
-79,
-79,
-79,
-79,
-79,
-79,
-79,
-79,
-79,
-79,
-80,
-80,
-78,
-78,
-80,
-80,
-78,
-78,
-80,
-80,
-79,
-79,
-80,
-80,
-78,
-78,
-79,
-79,
-79,
-79,
-79,
-79,
-77,
-77,
-79,
-79,
-79,
-79,
-79,
-79,
-79,
-79,
-78,
-78,
-79,
-79,
-77,
-77,
-80,
-80,
-79,
-79,
-80,
-80,
-79,
-79,
-79,
-79,
-80,
-80,
-80,
-80,
-79,
-79,
-80,
-80,
-79,
-79,
-80,
-80,
-80,
-80,
-79,
-79,
-79,
-79,
-78,
-78,
-79,
-79,
-79,
-79,
-80,
-80,
-78,
-78,
-78,
-78,
-78,
-78,
-78,
-78,
-78,
-78,
-79,
-79,
-78,
-78,
-77,
-77,
-78,
-78,
-78,
-78,
-77,
-77,
-78,
-78,
-79,
-79,
-79,
-79,
-79,
-79,
-79,
-79,
-78,
-78,
-78,
-78,
-79,
-79,
-78,
-78,
-79,
-79,
-78,
-78,
-77,
-77,
-77,
-77,
-78,
-78,
-80,
-80,
-78,
-78,
-80,
-80,
-78,
-78,
-79,
-79,
-78,
-78,
-78,
-78,
-79,
-79,
-78,
-78,
-78,
-78,
-79,
-79,
-77,
-77,
-79,
-79,
-78,
-78,
-78,
-78,
-78,
-78,
-79,
-79,
-78,
-78,
-77,
-77,
-80,
-80,
-78,
-78,
-77,
-77,
-77,
-77,
-77,
-77,
-78,
-78,
-79,
-79,
-78,
-78,
-77,
-77,
-76,
-76,
-76,
-76,
-77,
-77,
-76,
-76,
-78,
-78,
-77,
-77,
-77,
-77,
-76,
-76,
-77,
-77,
-76,
-76,
-77,
-77,
-77,
-77,
-77,
-77,
-78,
-78,
-78,
-78,
-76,
-76,
-78,
-78,
-77,
-77,
-77,
-77,
-79,
-79,
-78,
-78,
-79,
-79,
-79,
-79,
-78,
-78,
-77,
-77,
-79,
-79,
-77,
-77,
-77,
-77,
-78,
-78,
-78,
-78,
-78,
-78,
-78,
-78,
-78,
-78,
-79,
-79,
-78,
-78,
-79,
-79,
-78,
-78,
-78,
-78,
-78,
-78,
-77,
-77,
-77,
-77,
-78,
-78,
-78,
-78,
-77,
-77,
-77,
-77,
-77,
-77,
-77,
-77,
-78,
-78,
-78,
-78,
-77,
-77,
-77,
-77,
-79,
-79,
-79,
-79,
-77,
-77,
-77,
-77,
-76,
-76,
-77,
-77,
-78,
-78,
-76,
-76,
-76,
-76,
-78,
-78,
-77,
-77,
-77,
-77,
-77,
-77,
-78,
-78,
-78,
-78,
-79,
-79,
-79,
-79,
-77,
-77,
-79,
-79,
-79,
-79,
-77,
-77,
-79,
-79,
-77,
-77,
-78,
-78,
-78,
-78,
-77,
-77,
-78,
-78,
-78,
-78,
-79,
-79,
-77,
-77,
-78,
-78,
-78,
-78,
-77,
-77,
-77,
-77,
-76,
-76,
-78,
-78,
-79,
-79,
-76,
-76,
-78,
-78,
-79,
-79,
-78,
-78,
-77,
-77,
-79,
-79,
-79,
-79,
-77,
-77,
-78,
-78,
-79,
-79,
-78,
-78,
-77,
-77,
-76,
-76,
-78,
-78,
-78,
-78,
-77,
-77,
-77,
-77,
-78,
-78,
-78,
-78,
-76,
-76,
-76,
-76,
-78,
-78,
-76,
-76,
-76,
-76,
-77,
-77,
-77,
-77,
-78,
-78,
-78,
-78,
-77,
-77,
-78,
-78,
-77,
-77,
-77,
-77,
-77,
-77,
-79,
-79,
-78,
-78,
-78,
-78,
-79,
-79,
-78,
-78,
-76,
-76,
-77,
-77,
-76,
-76,
-77,
-77,
-76,
-76,
-76,
-76,
-76,
-76,
-76,
-76,
-76,
-76,
-77,
-77,
-76,
-76,
-77,
-77,
-78,
-78,
-77,
-77,
-76,
-76,
-77,
-77,
-78,
-78,
-76,
-76,
-75,
-75,
-76,
-76,
-77,
-77,
-76,
-76,
-77,
-77,
-75,
-75,
-77,
-77,
-76,
-76,
-76,
-76,
-79,
-79,
-78,
-78,
-76,
-76,
-77,
-77,
-79,
-79,
-77,
-77,
-76,
-76,
-78,
-78,
-78,
-78,
-77,
-77,
-77,
-77,
-77,
-77,
-78,
-78,
-76,
-76,
-76,
-76,
-77,
-77,
-76,
-76,
-76,
-76,
-77,
-77,
-76,
-76,
-76,
-76,
-77,
-77,
-76,
-76,
-78,
-78,
-77,
-77,
-77,
-77,
-76,
-76,
-78,
-78,
-78,
-78,
-77,
-77,
-77,
-77,
-76,
-76,
-76,
-76,
-75,
-75,
-77,
-77,
-77,
-77,
-77,
-77,
-75,
-75,
-78,
-78,
-75,
-75,
-76,
-76,
-78,
-78,
-77,
-77,
-76,
-76,
-76,
-76,
-77,
-77,
-77,
-77,
-78,
-78,
-77,
-77,
-77,
-77,
-78,
-78,
-77,
-77,
-78,
-78,
-77,
-77,
-76,
-76,
-77,
-77,
-78,
-78,
-78,
-78,
-78,
-78,
-79,
-79,
-79,
-79,
-78,
-78,
-77,
-77,
-77,
-77,
-78,
-78,
-76,
-76,
-78,
-78,
-78,
-78,
-78,
-78,
-76,
-76,
-79,
-79,
-77,
-77,
-80,
-80,
-78,
-78,
-77,
-77,
-78,
-78,
-78,
-78,
-78,
-78,
-78,
-78,
-79,
-79,
-78,
-78,
-77,
-77,
-77,
-77,
-77,
-77,
-77,
-77,
-77,
-77,
-78,
-78,
-78,
-78,
-78,
-78,
-78,
-78,
-77,
-77,
-78,
-78,
-78,
-78,
-77,
-77,
-79,
-79,
-77,
-77,
-77,
-77,
-76,
-76,
-78,
-78,
-76,
-76,
-77,
-77,
-78,
-78,
-78,
-78,
-79,
-79,
-78,
-78,
-78,
-78,
-76,
-76,
-78,
-78,
-77,
-77,
-79,
-79,
-78,
-78,
-77,
-77,
-77,
-77,
-78,
-78,
-76,
-76,
-77,
-77,
-77,
-77,
-78,
-78,
-78,
-78,
-77,
-77,
-77,
-77,
-77,
-77,
-77,
-77,
-76,
-76,
-79,
-79,
-77,
-77,
-78,
-78,
-78,
-78,
-78,
-78,
-76,
-76,
-76,
-76,
-78,
-78,
-79,
-79,
-80,
-80,
-76,
-76,
-78,
-78,
-76,
-76,
-77,
-77,
-76,
-76,
-78,
-78,
-77,
-77,
-76,
-76,
-77,
-77,
-78,
-78,
-76,
-76,
-78,
-78,
-78,
-78,
-76,
-76,
-77,
-77,
-77,
-77,
-76,
-76,
-76,
-76,
-76,
-76,
-75,
-75,
-76,
-76,
-75,
-75,
-76,
-76,
-75,
-75,
-76,
-76,
-75,
-75,
-76,
-76,
-76,
-76,
-78,
-78,
-79,
-79,
-78,
-78,
-78,
-78,
-76,
-76,
-78,
-78,
-76,
