donnees_brutes_CSV/entrée_40_mV.CSV

Memory Length,4000,
Trigger Level,5.12000e+01,
Source,CH1,
Probe,1.0X,
Vertical Units,V,
Vertical Scale,5.00000e-03,
Vertical Position,-2.78000e-02,
Horizontal Units,S,
Horizontal Scale,2.50000e-05,
Horizontal Position,0.0000000e+00,
Horizontal Mode,Main,
Sampling Period,1.00000e-07,
Firmware,V1.06,
Time, ,
Mode,Detail,
Waveform Data,
-2.000000e-4,3.92e-2,
-1.999000e-4,3.92e-2,
-1.998000e-4,3.90e-2,
-1.997000e-4,3.90e-2,
-1.996000e-4,3.84e-2,
-1.995000e-4,3.84e-2,
-1.994000e-4,3.98e-2,
-1.993000e-4,3.98e-2,
-1.992000e-4,3.90e-2,
-1.991000e-4,3.90e-2,
-1.990000e-4,3.96e-2,
-1.989000e-4,3.96e-2,
-1.988000e-4,3.92e-2,
-1.987000e-4,3.92e-2,
-1.986000e-4,3.90e-2,
-1.985000e-4,3.90e-2,
-1.984000e-4,3.96e-2,
-1.983000e-4,3.96e-2,
-1.982000e-4,3.92e-2,
-1.981000e-4,3.92e-2,
-1.980000e-4,3.94e-2,
-1.979000e-4,3.94e-2,
-1.978000e-4,3.90e-2,
-1.977000e-4,3.90e-2,
-1.976000e-4,3.98e-2,
-1.975000e-4,3.98e-2,
-1.974000e-4,3.94e-2,
-1.973000e-4,3.94e-2,
-1.972000e-4,3.92e-2,
-1.971000e-4,3.92e-2,
-1.970000e-4,3.96e-2,
-1.969000e-4,3.96e-2,
-1.968000e-4,3.90e-2,
-1.967000e-4,3.90e-2,
-1.966000e-4,3.98e-2,
-1.965000e-4,3.98e-2,
-1.964000e-4,3.98e-2,
-1.963000e-4,3.98e-2,
-1.962000e-4,3.94e-2,
-1.961000e-4,3.94e-2,
-1.960000e-4,3.98e-2,
-1.959000e-4,3.98e-2,
-1.958000e-4,3.92e-2,
-1.957000e-4,3.92e-2,
-1.956000e-4,4.00e-2,
-1.955000e-4,4.00e-2,
-1.954000e-4,3.90e-2,
-1.953000e-4,3.90e-2,
-1.952000e-4,3.98e-2,
-1.951000e-4,3.98e-2,
-1.950000e-4,3.90e-2,
-1.949000e-4,3.90e-2,
-1.948000e-4,3.92e-2,
-1.947000e-4,3.92e-2,
-1.946000e-4,3.92e-2,
-1.945000e-4,3.92e-2,
-1.944000e-4,3.86e-2,
-1.943000e-4,3.86e-2,
-1.942000e-4,3.92e-2,
-1.941000e-4,3.92e-2,
-1.940000e-4,3.86e-2,
-1.939000e-4,3.86e-2,
-1.938000e-4,3.88e-2,
-1.937000e-4,3.88e-2,
-1.936000e-4,3.90e-2,
-1.935000e-4,3.90e-2,
-1.934000e-4,3.96e-2,
-1.933000e-4,3.96e-2,
-1.932000e-4,3.84e-2,
-1.931000e-4,3.84e-2,
-1.930000e-4,3.98e-2,
-1.929000e-4,3.98e-2,
-1.928000e-4,3.84e-2,
-1.927000e-4,3.84e-2,
-1.926000e-4,3.86e-2,
-1.925000e-4,3.86e-2,
-1.924000e-4,3.82e-2,
-1.923000e-4,3.82e-2,
-1.922000e-4,3.88e-2,
-1.921000e-4,3.88e-2,
-1.920000e-4,3.92e-2,
-1.919000e-4,3.92e-2,
-1.918000e-4,3.92e-2,
-1.917000e-4,3.92e-2,
-1.916000e-4,3.96e-2,
-1.915000e-4,3.96e-2,
-1.914000e-4,3.90e-2,
-1.913000e-4,3.90e-2,
-1.912000e-4,3.90e-2,
-1.911000e-4,3.90e-2,
-1.910000e-4,3.90e-2,
-1.909000e-4,3.90e-2,
-1.908000e-4,3.98e-2,
-1.907000e-4,3.98e-2,
-1.906000e-4,3.94e-2,
-1.905000e-4,3.94e-2,
-1.904000e-4,3.90e-2,
-1.903000e-4,3.90e-2,
-1.902000e-4,3.92e-2,
-1.901000e-4,3.92e-2,
-1.900000e-4,3.92e-2,
-1.899000e-4,3.92e-2,
-1.898000e-4,3.80e-2,
-1.897000e-4,3.80e-2,
-1.896000e-4,3.98e-2,
-1.895000e-4,3.98e-2,
-1.894000e-4,3.92e-2,
-1.893000e-4,3.92e-2,
-1.892000e-4,3.90e-2,
-1.891000e-4,3.90e-2,
-1.890000e-4,3.96e-2,
-1.889000e-4,3.96e-2,
-1.888000e-4,3.92e-2,
-1.887000e-4,3.92e-2,
-1.886000e-4,4.00e-2,
-1.885000e-4,4.00e-2,
-1.884000e-4,3.90e-2,
-1.883000e-4,3.90e-2,
-1.882000e-4,3.96e-2,
-1.881000e-4,3.96e-2,
-1.880000e-4,3.88e-2,
-1.879000e-4,3.88e-2,
-1.878000e-4,3.90e-2,
-1.877000e-4,3.90e-2,
-1.876000e-4,3.92e-2,
-1.875000e-4,3.92e-2,
-1.874000e-4,3.92e-2,
-1.873000e-4,3.92e-2,
-1.872000e-4,3.92e-2,
-1.871000e-4,3.92e-2,
-1.870000e-4,4.00e-2,
-1.869000e-4,4.00e-2,
-1.868000e-4,3.96e-2,
-1.867000e-4,3.96e-2,
-1.866000e-4,3.90e-2,
-1.865000e-4,3.90e-2,
-1.864000e-4,3.98e-2,
-1.863000e-4,3.98e-2,
-1.862000e-4,4.00e-2,
-1.861000e-4,4.00e-2,
-1.860000e-4,3.90e-2,
-1.859000e-4,3.90e-2,
-1.858000e-4,3.92e-2,
-1.857000e-4,3.92e-2,
-1.856000e-4,3.96e-2,
-1.855000e-4,3.96e-2,
-1.854000e-4,3.92e-2,
-1.853000e-4,3.92e-2,
-1.852000e-4,4.04e-2,
-1.851000e-4,4.04e-2,
-1.850000e-4,3.84e-2,
-1.849000e-4,3.84e-2,
-1.848000e-4,3.92e-2,
-1.847000e-4,3.92e-2,
-1.846000e-4,3.90e-2,
-1.845000e-4,3.90e-2,
-1.844000e-4,3.96e-2,
-1.843000e-4,3.96e-2,
-1.842000e-4,3.90e-2,
-1.841000e-4,3.90e-2,
-1.840000e-4,3.94e-2,
-1.839000e-4,3.94e-2,
-1.838000e-4,3.92e-2,
-1.837000e-4,3.92e-2,
-1.836000e-4,3.92e-2,
-1.835000e-4,3.92e-2,
-1.834000e-4,3.90e-2,
-1.833000e-4,3.90e-2,
-1.832000e-4,4.00e-2,
-1.831000e-4,4.00e-2,
-1.830000e-4,3.94e-2,
-1.829000e-4,3.94e-2,
-1.828000e-4,3.86e-2,
-1.827000e-4,3.86e-2,
-1.826000e-4,3.92e-2,
-1.825000e-4,3.92e-2,
-1.824000e-4,4.00e-2,
-1.823000e-4,4.00e-2,
-1.822000e-4,4.02e-2,
-1.821000e-4,4.02e-2,
-1.820000e-4,3.92e-2,
-1.819000e-4,3.92e-2,
-1.818000e-4,3.98e-2,
-1.817000e-4,3.98e-2,
-1.816000e-4,3.92e-2,
-1.815000e-4,3.92e-2,
-1.814000e-4,3.94e-2,
-1.813000e-4,3.94e-2,
-1.812000e-4,3.94e-2,
-1.811000e-4,3.94e-2,
-1.810000e-4,3.96e-2,
-1.809000e-4,3.96e-2,
-1.808000e-4,3.94e-2,
-1.807000e-4,3.94e-2,
-1.806000e-4,3.90e-2,
-1.805000e-4,3.90e-2,
-1.804000e-4,3.94e-2,
-1.803000e-4,3.94e-2,
-1.802000e-4,3.92e-2,
-1.801000e-4,3.92e-2,
-1.800000e-4,3.96e-2,
-1.799000e-4,3.96e-2,
-1.798000e-4,3.98e-2,
-1.797000e-4,3.98e-2,
-1.796000e-4,3.90e-2,
-1.795000e-4,3.90e-2,
-1.794000e-4,3.84e-2,
-1.793000e-4,3.84e-2,
-1.792000e-4,3.90e-2,
-1.791000e-4,3.90e-2,
-1.790000e-4,3.92e-2,
-1.789000e-4,3.92e-2,
-1.788000e-4,3.92e-2,
-1.787000e-4,3.92e-2,
-1.786000e-4,3.82e-2,
-1.785000e-4,3.82e-2,
-1.784000e-4,3.90e-2,
-1.783000e-4,3.90e-2,
-1.782000e-4,3.92e-2,
-1.781000e-4,3.92e-2,
-1.780000e-4,3.92e-2,
-1.779000e-4,3.92e-2,
-1.778000e-4,3.96e-2,
-1.777000e-4,3.96e-2,
-1.776000e-4,3.92e-2,
-1.775000e-4,3.92e-2,
-1.774000e-4,3.92e-2,
-1.773000e-4,3.92e-2,
-1.772000e-4,3.92e-2,
-1.771000e-4,3.92e-2,
-1.770000e-4,4.00e-2,
-1.769000e-4,4.00e-2,
-1.768000e-4,3.82e-2,
-1.767000e-4,3.82e-2,
-1.766000e-4,3.84e-2,
-1.765000e-4,3.84e-2,
-1.764000e-4,3.92e-2,
-1.763000e-4,3.92e-2,
-1.762000e-4,3.92e-2,
-1.761000e-4,3.92e-2,
-1.760000e-4,3.96e-2,
-1.759000e-4,3.96e-2,
-1.758000e-4,3.90e-2,
-1.757000e-4,3.90e-2,
-1.756000e-4,3.92e-2,
-1.755000e-4,3.92e-2,
-1.754000e-4,3.90e-2,
-1.753000e-4,3.90e-2,
-1.752000e-4,3.96e-2,
-1.751000e-4,3.96e-2,
-1.750000e-4,3.98e-2,
-1.749000e-4,3.98e-2,
-1.748000e-4,3.90e-2,
-1.747000e-4,3.90e-2,
-1.746000e-4,3.92e-2,
-1.745000e-4,3.92e-2,
-1.744000e-4,3.86e-2,
-1.743000e-4,3.86e-2,
-1.742000e-4,3.94e-2,
-1.741000e-4,3.94e-2,
-1.740000e-4,3.88e-2,
-1.739000e-4,3.88e-2,
-1.738000e-4,3.90e-2,
-1.737000e-4,3.90e-2,
-1.736000e-4,3.94e-2,
-1.735000e-4,3.94e-2,
-1.734000e-4,3.92e-2,
-1.733000e-4,3.92e-2,
-1.732000e-4,3.92e-2,
-1.731000e-4,3.92e-2,
-1.730000e-4,3.96e-2,
-1.729000e-4,3.96e-2,
-1.728000e-4,3.90e-2,
-1.727000e-4,3.90e-2,
-1.726000e-4,3.90e-2,
-1.725000e-4,3.90e-2,
-1.724000e-4,3.92e-2,
-1.723000e-4,3.92e-2,
-1.722000e-4,3.98e-2,
-1.721000e-4,3.98e-2,
-1.720000e-4,3.98e-2,
-1.719000e-4,3.98e-2,
-1.718000e-4,3.92e-2,
-1.717000e-4,3.92e-2,
-1.716000e-4,3.98e-2,
-1.715000e-4,3.98e-2,
-1.714000e-4,3.96e-2,
-1.713000e-4,3.96e-2,
-1.712000e-4,3.94e-2,
-1.711000e-4,3.94e-2,
-1.710000e-4,3.90e-2,
-1.709000e-4,3.90e-2,
-1.708000e-4,3.90e-2,
-1.707000e-4,3.90e-2,
-1.706000e-4,3.98e-2,
-1.705000e-4,3.98e-2,
-1.704000e-4,3.96e-2,
-1.703000e-4,3.96e-2,
-1.702000e-4,3.92e-2,
-1.701000e-4,3.92e-2,
-1.700000e-4,3.92e-2,
-1.699000e-4,3.92e-2,
-1.698000e-4,3.94e-2,
-1.697000e-4,3.94e-2,
-1.696000e-4,3.90e-2,
-1.695000e-4,3.90e-2,
-1.694000e-4,3.92e-2,
-1.693000e-4,3.92e-2,
-1.692000e-4,3.94e-2,
-1.691000e-4,3.94e-2,
-1.690000e-4,3.96e-2,
-1.689000e-4,3.96e-2,
-1.688000e-4,3.92e-2,
-1.687000e-4,3.92e-2,
-1.686000e-4,3.98e-2,
-1.685000e-4,3.98e-2,
-1.684000e-4,3.88e-2,
-1.683000e-4,3.88e-2,
-1.682000e-4,3.90e-2,
-1.681000e-4,3.90e-2,
-1.680000e-4,3.92e-2,
-1.679000e-4,3.92e-2,
-1.678000e-4,3.90e-2,
-1.677000e-4,3.90e-2,
-1.676000e-4,3.90e-2,
-1.675000e-4,3.90e-2,
-1.674000e-4,3.94e-2,
-1.673000e-4,3.94e-2,
-1.672000e-4,3.96e-2,
-1.671000e-4,3.96e-2,
-1.670000e-4,3.92e-2,
-1.669000e-4,3.92e-2,
-1.668000e-4,3.90e-2,
-1.667000e-4,3.90e-2,
-1.666000e-4,3.90e-2,
-1.665000e-4,3.90e-2,
-1.664000e-4,3.90e-2,
-1.663000e-4,3.90e-2,
-1.662000e-4,3.92e-2,
-1.661000e-4,3.92e-2,
-1.660000e-4,3.94e-2,
-1.659000e-4,3.94e-2,
-1.658000e-4,3.92e-2,
-1.657000e-4,3.92e-2,
-1.656000e-4,3.90e-2,
-1.655000e-4,3.90e-2,
-1.654000e-4,3.94e-2,
-1.653000e-4,3.94e-2,
-1.652000e-4,3.92e-2,
-1.651000e-4,3.92e-2,
-1.650000e-4,3.94e-2,
-1.649000e-4,3.94e-2,
-1.648000e-4,3.92e-2,
-1.647000e-4,3.92e-2,
-1.646000e-4,3.82e-2,
-1.645000e-4,3.82e-2,
-1.644000e-4,3.84e-2,
-1.643000e-4,3.84e-2,
-1.642000e-4,3.82e-2,
-1.641000e-4,3.82e-2,
-1.640000e-4,3.98e-2,
-1.639000e-4,3.98e-2,
-1.638000e-4,3.92e-2,
-1.637000e-4,3.92e-2,
-1.636000e-4,3.90e-2,
-1.635000e-4,3.90e-2,
-1.634000e-4,3.98e-2,
-1.633000e-4,3.98e-2,
-1.632000e-4,3.90e-2,
-1.631000e-4,3.90e-2,
-1.630000e-4,3.96e-2,
-1.629000e-4,3.96e-2,
-1.628000e-4,3.92e-2,
-1.627000e-4,3.92e-2,
-1.626000e-4,3.94e-2,
-1.625000e-4,3.94e-2,
-1.624000e-4,3.98e-2,
-1.623000e-4,3.98e-2,
-1.622000e-4,3.92e-2,
-1.621000e-4,3.92e-2,
-1.620000e-4,3.90e-2,
-1.619000e-4,3.90e-2,
-1.618000e-4,3.98e-2,
-1.617000e-4,3.98e-2,
-1.616000e-4,4.02e-2,
-1.615000e-4,4.02e-2,
-1.614000e-4,3.98e-2,
-1.613000e-4,3.98e-2,
-1.612000e-4,3.90e-2,
-1.611000e-4,3.90e-2,
-1.610000e-4,3.94e-2,
-1.609000e-4,3.94e-2,
-1.608000e-4,3.98e-2,
-1.607000e-4,3.98e-2,
-1.606000e-4,3.92e-2,
-1.605000e-4,3.92e-2,
-1.604000e-4,3.94e-2,
-1.603000e-4,3.94e-2,
-1.602000e-4,3.90e-2,
-1.601000e-4,3.90e-2,
-1.600000e-4,3.92e-2,
-1.599000e-4,3.92e-2,
-1.598000e-4,3.88e-2,
-1.597000e-4,3.88e-2,
-1.596000e-4,3.98e-2,
-1.595000e-4,3.98e-2,
-1.594000e-4,3.90e-2,
-1.593000e-4,3.90e-2,
-1.592000e-4,4.02e-2,
-1.591000e-4,4.02e-2,
-1.590000e-4,3.98e-2,
-1.589000e-4,3.98e-2,
-1.588000e-4,3.90e-2,
-1.587000e-4,3.90e-2,
-1.586000e-4,3.92e-2,
-1.585000e-4,3.92e-2,
-1.584000e-4,3.92e-2,
-1.583000e-4,3.92e-2,
-1.582000e-4,4.00e-2,
-1.581000e-4,4.00e-2,
-1.580000e-4,3.96e-2,
-1.579000e-4,3.96e-2,
-1.578000e-4,3.94e-2,
-1.577000e-4,3.94e-2,
-1.576000e-4,4.00e-2,
-1.575000e-4,4.00e-2,
-1.574000e-4,3.92e-2,
-1.573000e-4,3.92e-2,
-1.572000e-4,3.92e-2,
-1.571000e-4,3.92e-2,
-1.570000e-4,3.92e-2,
-1.569000e-4,3.92e-2,
-1.568000e-4,3.98e-2,
-1.567000e-4,3.98e-2,
-1.566000e-4,3.98e-2,
-1.565000e-4,3.98e-2,
-1.564000e-4,3.94e-2,
-1.563000e-4,3.94e-2,
-1.562000e-4,3.98e-2,
-1.561000e-4,3.98e-2,
-1.560000e-4,3.90e-2,
-1.559000e-4,3.90e-2,
-1.558000e-4,3.92e-2,
-1.557000e-4,3.92e-2,
-1.556000e-4,3.92e-2,
-1.555000e-4,3.92e-2,
-1.554000e-4,3.92e-2,
-1.553000e-4,3.92e-2,
-1.552000e-4,3.96e-2,
-1.551000e-4,3.96e-2,
-1.550000e-4,3.94e-2,
-1.549000e-4,3.94e-2,
-1.548000e-4,3.96e-2,
-1.547000e-4,3.96e-2,
-1.546000e-4,3.96e-2,
-1.545000e-4,3.96e-2,
-1.544000e-4,3.82e-2,
-1.543000e-4,3.82e-2,
-1.542000e-4,3.92e-2,
-1.541000e-4,3.92e-2,
-1.540000e-4,4.00e-2,
-1.539000e-4,4.00e-2,
-1.538000e-4,3.90e-2,
-1.537000e-4,3.90e-2,
-1.536000e-4,3.90e-2,
-1.535000e-4,3.90e-2,
-1.534000e-4,3.84e-2,
-1.533000e-4,3.84e-2,
-1.532000e-4,3.94e-2,
-1.531000e-4,3.94e-2,
-1.530000e-4,3.96e-2,
-1.529000e-4,3.96e-2,
-1.528000e-4,3.90e-2,
-1.527000e-4,3.90e-2,
-1.526000e-4,3.92e-2,
-1.525000e-4,3.92e-2,
-1.524000e-4,3.92e-2,
-1.523000e-4,3.92e-2,
-1.522000e-4,3.90e-2,
-1.521000e-4,3.90e-2,
-1.520000e-4,3.92e-2,
-1.519000e-4,3.92e-2,
-1.518000e-4,3.92e-2,
-1.517000e-4,3.92e-2,
-1.516000e-4,3.94e-2,
-1.515000e-4,3.94e-2,
-1.514000e-4,3.92e-2,
-1.513000e-4,3.92e-2,
-1.512000e-4,3.90e-2,
-1.511000e-4,3.90e-2,
-1.510000e-4,3.98e-2,
-1.509000e-4,3.98e-2,
-1.508000e-4,3.90e-2,
-1.507000e-4,3.90e-2,
-1.506000e-4,3.94e-2,
-1.505000e-4,3.94e-2,
-1.504000e-4,3.94e-2,
-1.503000e-4,3.94e-2,
-1.502000e-4,3.98e-2,
-1.501000e-4,3.98e-2,
-1.500000e-4,3.90e-2,
-1.499000e-4,3.90e-2,
-1.498000e-4,3.92e-2,
-1.497000e-4,3.92e-2,
-1.496000e-4,3.94e-2,
-1.495000e-4,3.94e-2,
-1.494000e-4,3.90e-2,
-1.493000e-4,3.90e-2,
-1.492000e-4,3.94e-2,
-1.491000e-4,3.94e-2,
-1.490000e-4,3.90e-2,
-1.489000e-4,3.90e-2,
-1.488000e-4,3.92e-2,
-1.487000e-4,3.92e-2,
-1.486000e-4,3.92e-2,
-1.485000e-4,3.92e-2,
-1.484000e-4,3.90e-2,
-1.483000e-4,3.90e-2,
-1.482000e-4,3.96e-2,
-1.481000e-4,3.96e-2,
-1.480000e-4,3.90e-2,
-1.479000e-4,3.90e-2,
-1.478000e-4,3.90e-2,
-1.477000e-4,3.90e-2,
-1.476000e-4,3.92e-2,
-1.475000e-4,3.92e-2,
-1.474000e-4,3.88e-2,
-1.473000e-4,3.88e-2,
-1.472000e-4,3.94e-2,
-1.471000e-4,3.94e-2,
-1.470000e-4,3.88e-2,
-1.469000e-4,3.88e-2,
-1.468000e-4,3.82e-2,
-1.467000e-4,3.82e-2,
-1.466000e-4,3.92e-2,
-1.465000e-4,3.92e-2,
-1.464000e-4,3.98e-2,
-1.463000e-4,3.98e-2,
-1.462000e-4,3.88e-2,
-1.461000e-4,3.88e-2,
-1.460000e-4,3.88e-2,
-1.459000e-4,3.88e-2,
-1.458000e-4,3.90e-2,
-1.457000e-4,3.90e-2,
-1.456000e-4,3.90e-2,
-1.455000e-4,3.90e-2,
-1.454000e-4,3.96e-2,
-1.453000e-4,3.96e-2,
-1.452000e-4,3.90e-2,
-1.451000e-4,3.90e-2,
-1.450000e-4,3.94e-2,
-1.449000e-4,3.94e-2,
-1.448000e-4,3.92e-2,
-1.447000e-4,3.92e-2,
-1.446000e-4,3.96e-2,
-1.445000e-4,3.96e-2,
-1.444000e-4,3.92e-2,
-1.443000e-4,3.92e-2,
-1.442000e-4,3.92e-2,
-1.441000e-4,3.92e-2,
-1.440000e-4,3.86e-2,
-1.439000e-4,3.86e-2,
-1.438000e-4,3.90e-2,
-1.437000e-4,3.90e-2,
-1.436000e-4,3.86e-2,
-1.435000e-4,3.86e-2,
-1.434000e-4,3.92e-2,
-1.433000e-4,3.92e-2,
-1.432000e-4,3.96e-2,
-1.431000e-4,3.96e-2,
-1.430000e-4,3.84e-2,
-1.429000e-4,3.84e-2,
-1.428000e-4,3.90e-2,
-1.427000e-4,3.90e-2,
-1.426000e-4,3.96e-2,
-1.425000e-4,3.96e-2,
-1.424000e-4,3.96e-2,
-1.423000e-4,3.96e-2,
-1.422000e-4,3.86e-2,
-1.421000e-4,3.86e-2,
-1.420000e-4,3.94e-2,
-1.419000e-4,3.94e-2,
-1.418000e-4,3.90e-2,
-1.417000e-4,3.90e-2,
-1.416000e-4,3.90e-2,
-1.415000e-4,3.90e-2,
-1.414000e-4,3.92e-2,
-1.413000e-4,3.92e-2,
-1.412000e-4,3.90e-2,
-1.411000e-4,3.90e-2,
-1.410000e-4,3.90e-2,
-1.409000e-4,3.90e-2,
-1.408000e-4,3.94e-2,
-1.407000e-4,3.94e-2,
-1.406000e-4,3.98e-2,
-1.405000e-4,3.98e-2,
-1.404000e-4,3.92e-2,
-1.403000e-4,3.92e-2,
-1.402000e-4,3.90e-2,
-1.401000e-4,3.90e-2,
-1.400000e-4,3.92e-2,
-1.399000e-4,3.92e-2,
-1.398000e-4,3.92e-2,
-1.397000e-4,3.92e-2,
-1.396000e-4,3.92e-2,
-1.395000e-4,3.92e-2,
-1.394000e-4,3.92e-2,
-1.393000e-4,3.92e-2,
-1.392000e-4,3.90e-2,
-1.391000e-4,3.90e-2,
-1.390000e-4,3.86e-2,
-1.389000e-4,3.86e-2,
-1.388000e-4,3.94e-2,
-1.387000e-4,3.94e-2,
-1.386000e-4,3.98e-2,
-1.385000e-4,3.98e-2,
-1.384000e-4,3.92e-2,
-1.383000e-4,3.92e-2,
-1.382000e-4,3.90e-2,
-1.381000e-4,3.90e-2,
-1.380000e-4,3.90e-2,
-1.379000e-4,3.90e-2,
-1.378000e-4,3.98e-2,
-1.377000e-4,3.98e-2,
-1.376000e-4,3.90e-2,
-1.375000e-4,3.90e-2,
-1.374000e-4,3.86e-2,
-1.373000e-4,3.86e-2,
-1.372000e-4,3.94e-2,
-1.371000e-4,3.94e-2,
-1.370000e-4,3.90e-2,
-1.369000e-4,3.90e-2,
-1.368000e-4,3.90e-2,
-1.367000e-4,3.90e-2,
-1.366000e-4,3.98e-2,
-1.365000e-4,3.98e-2,
-1.364000e-4,3.94e-2,
-1.363000e-4,3.94e-2,
-1.362000e-4,3.92e-2,
-1.361000e-4,3.92e-2,
-1.360000e-4,3.90e-2,
-1.359000e-4,3.90e-2,
-1.358000e-4,3.94e-2,
-1.357000e-4,3.94e-2,
-1.356000e-4,3.92e-2,
-1.355000e-4,3.92e-2,
-1.354000e-4,3.98e-2,
-1.353000e-4,3.98e-2,
-1.352000e-4,4.02e-2,
-1.351000e-4,4.02e-2,
-1.350000e-4,3.94e-2,
-1.349000e-4,3.94e-2,
-1.348000e-4,3.94e-2,
-1.347000e-4,3.94e-2,
-1.346000e-4,3.90e-2,
-1.345000e-4,3.90e-2,
-1.344000e-4,3.98e-2,
-1.343000e-4,3.98e-2,
-1.342000e-4,3.94e-2,
-1.341000e-4,3.94e-2,
-1.340000e-4,3.92e-2,
-1.339000e-4,3.92e-2,
-1.338000e-4,3.90e-2,
-1.337000e-4,3.90e-2,
-1.336000e-4,3.92e-2,
-1.335000e-4,3.92e-2,
-1.334000e-4,3.92e-2,
-1.333000e-4,3.92e-2,
-1.332000e-4,3.92e-2,
-1.331000e-4,3.92e-2,
-1.330000e-4,3.92e-2,
-1.329000e-4,3.92e-2,
-1.328000e-4,3.94e-2,
-1.327000e-4,3.94e-2,
-1.326000e-4,3.94e-2,
-1.325000e-4,3.94e-2,
-1.324000e-4,3.84e-2,
-1.323000e-4,3.84e-2,
-1.322000e-4,3.94e-2,
-1.321000e-4,3.94e-2,
-1.320000e-4,3.90e-2,
-1.319000e-4,3.90e-2,
-1.318000e-4,3.90e-2,
-1.317000e-4,3.90e-2,
-1.316000e-4,3.90e-2,
-1.315000e-4,3.90e-2,
-1.314000e-4,3.92e-2,
-1.313000e-4,3.92e-2,
-1.312000e-4,3.92e-2,
-1.311000e-4,3.92e-2,
-1.310000e-4,3.82e-2,
-1.309000e-4,3.82e-2,
-1.308000e-4,3.88e-2,
-1.307000e-4,3.88e-2,
-1.306000e-4,3.90e-2,
-1.305000e-4,3.90e-2,
-1.304000e-4,3.90e-2,
-1.303000e-4,3.90e-2,
-1.302000e-4,3.88e-2,
-1.301000e-4,3.88e-2,
-1.300000e-4,3.94e-2,
-1.299000e-4,3.94e-2,
-1.298000e-4,3.98e-2,
-1.297000e-4,3.98e-2,
-1.296000e-4,3.98e-2,
-1.295000e-4,3.98e-2,
-1.294000e-4,4.04e-2,
-1.293000e-4,4.04e-2,
-1.292000e-4,3.98e-2,
-1.291000e-4,3.98e-2,
-1.290000e-4,3.98e-2,
-1.289000e-4,3.98e-2,
-1.288000e-4,3.90e-2,
-1.287000e-4,3.90e-2,
-1.286000e-4,3.90e-2,
-1.285000e-4,3.90e-2,
-1.284000e-4,3.90e-2,
-1.283000e-4,3.90e-2,
-1.282000e-4,3.94e-2,
-1.281000e-4,3.94e-2,
-1.280000e-4,3.98e-2,
-1.279000e-4,3.98e-2,
-1.278000e-4,3.90e-2,
-1.277000e-4,3.90e-2,
-1.276000e-4,3.92e-2,
-1.275000e-4,3.92e-2,
-1.274000e-4,3.90e-2,
-1.273000e-4,3.90e-2,
-1.272000e-4,3.96e-2,
-1.271000e-4,3.96e-2,
-1.270000e-4,3.86e-2,
-1.269000e-4,3.86e-2,
-1.268000e-4,3.98e-2,
-1.267000e-4,3.98e-2,
-1.266000e-4,3.84e-2,
-1.265000e-4,3.84e-2,
-1.264000e-4,3.98e-2,
-1.263000e-4,3.98e-2,
-1.262000e-4,3.92e-2,
-1.261000e-4,3.92e-2,
-1.260000e-4,3.98e-2,
-1.259000e-4,3.98e-2,
-1.258000e-4,3.98e-2,
-1.257000e-4,3.98e-2,
-1.256000e-4,3.94e-2,
-1.255000e-4,3.94e-2,
-1.254000e-4,3.90e-2,
-1.253000e-4,3.90e-2,
-1.252000e-4,3.94e-2,
-1.251000e-4,3.94e-2,
-1.250000e-4,4.00e-2,
-1.249000e-4,4.00e-2,
-1.248000e-4,4.02e-2,
-1.247000e-4,3.80e-2,
-1.246000e-4,3.98e-2,
-1.245000e-4,3.98e-2,
-1.244000e-4,3.98e-2,
-1.243000e-4,3.98e-2,
-1.242000e-4,3.92e-2,
-1.241000e-4,3.92e-2,
-1.240000e-4,3.94e-2,
-1.239000e-4,3.94e-2,
-1.238000e-4,3.90e-2,
-1.237000e-4,3.90e-2,
-1.236000e-4,3.92e-2,
-1.235000e-4,3.92e-2,
-1.234000e-4,3.86e-2,
-1.233000e-4,3.86e-2,
-1.232000e-4,3.90e-2,
-1.231000e-4,3.90e-2,
-1.230000e-4,3.96e-2,
-1.229000e-4,3.96e-2,
-1.228000e-4,3.92e-2,
-1.227000e-4,3.92e-2,
-1.226000e-4,3.96e-2,
-1.225000e-4,3.96e-2,
-1.224000e-4,3.94e-2,
-1.223000e-4,3.94e-2,
-1.222000e-4,3.92e-2,
-1.221000e-4,3.92e-2,
-1.220000e-4,3.98e-2,
-1.219000e-4,3.98e-2,
-1.218000e-4,3.90e-2,
-1.217000e-4,3.90e-2,
-1.216000e-4,3.98e-2,
-1.215000e-4,3.98e-2,
-1.214000e-4,3.84e-2,
-1.213000e-4,3.84e-2,
-1.212000e-4,3.92e-2,
-1.211000e-4,3.92e-2,
-1.210000e-4,3.94e-2,
-1.209000e-4,3.94e-2,
-1.208000e-4,3.98e-2,
-1.207000e-4,3.98e-2,
-1.206000e-4,3.92e-2,
-1.205000e-4,3.92e-2,
-1.204000e-4,3.90e-2,
-1.203000e-4,3.90e-2,
-1.202000e-4,4.00e-2,
-1.201000e-4,4.00e-2,
-1.200000e-4,3.94e-2,
-1.199000e-4,3.94e-2,
-1.198000e-4,3.98e-2,
-1.197000e-4,3.98e-2,
-1.196000e-4,3.98e-2,
-1.195000e-4,3.98e-2,
-1.194000e-4,3.90e-2,
-1.193000e-4,3.90e-2,
-1.192000e-4,3.92e-2,
-1.191000e-4,3.92e-2,
-1.190000e-4,4.00e-2,
-1.189000e-4,4.00e-2,
-1.188000e-4,3.88e-2,
-1.187000e-4,3.88e-2,
-1.186000e-4,3.92e-2,
-1.185000e-4,3.92e-2,
-1.184000e-4,3.92e-2,
-1.183000e-4,3.92e-2,
-1.182000e-4,3.90e-2,
-1.181000e-4,3.90e-2,
-1.180000e-4,3.88e-2,
-1.179000e-4,3.88e-2,
-1.178000e-4,3.78e-2,
-1.177000e-4,3.78e-2,
-1.176000e-4,3.92e-2,
-1.175000e-4,3.92e-2,
-1.174000e-4,3.86e-2,
-1.173000e-4,3.86e-2,
-1.172000e-4,3.94e-2,
-1.171000e-4,3.94e-2,
-1.170000e-4,3.94e-2,
-1.169000e-4,3.94e-2,
-1.168000e-4,3.98e-2,
-1.167000e-4,3.98e-2,
-1.166000e-4,3.86e-2,
-1.165000e-4,3.86e-2,
-1.164000e-4,3.84e-2,
-1.163000e-4,3.84e-2,
-1.162000e-4,3.98e-2,
-1.161000e-4,3.98e-2,
-1.160000e-4,3.84e-2,
-1.159000e-4,3.84e-2,
-1.158000e-4,3.90e-2,
-1.157000e-4,3.90e-2,
-1.156000e-4,3.94e-2,
-1.155000e-4,3.94e-2,
-1.154000e-4,3.90e-2,
-1.153000e-4,3.90e-2,
-1.152000e-4,3.90e-2,
-1.151000e-4,3.90e-2,
-1.150000e-4,3.90e-2,
-1.149000e-4,3.90e-2,
-1.148000e-4,3.90e-2,
-1.147000e-4,3.90e-2,
-1.146000e-4,3.88e-2,
-1.145000e-4,3.88e-2,
-1.144000e-4,3.90e-2,
-1.143000e-4,3.90e-2,
-1.142000e-4,3.94e-2,
-1.141000e-4,3.94e-2,
-1.140000e-4,3.94e-2,
-1.139000e-4,3.94e-2,
-1.138000e-4,3.82e-2,
-1.137000e-4,3.82e-2,
-1.136000e-4,3.96e-2,
-1.135000e-4,3.96e-2,
-1.134000e-4,3.86e-2,
-1.133000e-4,3.86e-2,
-1.132000e-4,3.84e-2,
-1.131000e-4,3.84e-2,
-1.130000e-4,3.86e-2,
-1.129000e-4,3.86e-2,
-1.128000e-4,3.92e-2,
-1.127000e-4,3.92e-2,
-1.126000e-4,3.92e-2,
-1.125000e-4,3.92e-2,
-1.124000e-4,3.90e-2,
-1.123000e-4,3.90e-2,
-1.122000e-4,3.92e-2,
-1.121000e-4,3.92e-2,
-1.120000e-4,3.90e-2,
-1.119000e-4,3.90e-2,
-1.118000e-4,3.90e-2,
-1.117000e-4,3.90e-2,
-1.116000e-4,3.90e-2,
-1.115000e-4,3.90e-2,
-1.114000e-4,3.88e-2,
-1.113000e-4,3.88e-2,
-1.112000e-4,3.96e-2,
-1.111000e-4,3.96e-2,
-1.110000e-4,4.00e-2,
-1.109000e-4,4.00e-2,
-1.108000e-4,3.92e-2,
