donnees_brutes_CSV/mesures_90_mV.CSV

Memory Length,4000,
Trigger Level,-3.96000e+02,
Source,CH1,
Probe,1.0X,
Vertical Units,V,
Vertical Scale,1.00000e-01,
Vertical Position,2.00000e-01,
Horizontal Units,S,
Horizontal Scale,2.50000e-05,
Horizontal Position,0.0000000e+00,
Horizontal Mode,Main,
Sampling Period,1.00000e-07,
Firmware,V1.14,
Time, ,
Mode,Fast,
Waveform Data,
-177,
-177,
-177,
-177,
-177,
-177,
-177,
-177,
-177,
-177,
-177,
-177,
-177,
-177,
-177,
-177,
-177,
-177,
-177,
-177,
-177,
-177,
-177,
-177,
-177,
-177,
-177,
-177,
-177,
-177,
-177,
-177,
-177,
-177,
-177,
-177,
-177,
-177,
-177,
-177,
-177,
-177,
-177,
-177,
-177,
-177,
-177,
-177,
-177,
-177,
-177,
-177,
-177,
-177,
-177,
-177,
-177,
-177,
-177,
-177,
-177,
-177,
-177,
-177,
-177,
-177,
-177,
-177,
-177,
-177,
-177,
-177,
-177,
-177,
-177,
-177,
-177,
-177,
-177,
-177,
-177,
-177,
-177,
-177,
-177,
-177,
-177,
-177,
-177,
-177,
-177,
-177,
-177,
-177,
-177,
-177,
-177,
-177,
-177,
-177,
-177,
-177,
-177,
-177,
-177,
-177,
-177,
-177,
-177,
-177,
-177,
-177,
-177,
-177,
-177,
-177,
-177,
-177,
-177,
-177,
-177,
-177,
-177,
-177,
-177,
-177,
-177,
-177,
-177,
-177,
-177,
-177,
-177,
-177,
-177,
-177,
-177,
-177,
-177,
-177,
-177,
-177,
-177,
-177,
-177,
-177,
-177,
-177,
-177,
-177,
-177,
-177,
-177,
-177,
-177,
-177,
-177,
-177,
-177,
-177,
-177,
-177,
-177,
-177,
-177,
-177,
-177,
-177,
-177,
-177,
-177,
-177,
-177,
-177,
-177,
-177,
-177,
-177,
-177,
-177,
-177,
-177,
-177,
-177,
-177,
-177,
-177,
-177,
-177,
-177,
-177,
-177,
-177,
-177,
-177,
-177,
-177,
-177,
-177,
-177,
-177,
-177,
-177,
-177,
-177,
-177,
-177,
-177,
-177,
-177,
-177,
-177,
-177,
-177,
-177,
-177,
-177,
-177,
-177,
-177,
-177,
-177,
-177,
-177,
-177,
-177,
-177,
-177,
-177,
-177,
-177,
-177,
-177,
-177,
-177,
-177,
-177,
-177,
-177,
-177,
-177,
-177,
-177,
-177,
-177,
-177,
-177,
-177,
-177,
-177,
-177,
-177,
-177,
-177,
-177,
-177,
-177,
-177,
-177,
-177,
-177,
-177,
-177,
-177,
-177,
-177,
-177,
-177,
-177,
-177,
-177,
-177,
-177,
-177,
-177,
-177,
-177,
-177,
-177,
-177,
-177,
-177,
-177,
-177,
-177,
-177,
-177,
-177,
-177,
-177,
-177,
-177,
-177,
-177,
-177,
-177,
-177,
-177,
-177,
-177,
-177,
-177,
-177,
-177,
-177,
-177,
-177,
-177,
-177,
-177,
-177,
-177,
-177,
-177,
-177,
-177,
-177,
-177,
-177,
-177,
-177,
-177,
-177,
-177,
-177,
-177,
-177,
-177,
-177,
-177,
-177,
-177,
-177,
-177,
-177,
-177,
-177,
-177,
-177,
-177,
-177,
-177,
-177,
-177,
-177,
-177,
-177,
-177,
-177,
-177,
-177,
-177,
-177,
-177,
-177,
-177,
-177,
-177,
-177,
-177,
-177,
-177,
-177,
-177,
-177,
-177,
-177,
-177,
-177,
-177,
-177,
-177,
-177,
-177,
-177,
-177,
-177,
-177,
-177,
-177,
-177,
-177,
-177,
-177,
-177,
-177,
-177,
-177,
-177,
-177,
-177,
-177,
-177,
-177,
-177,
-177,
-177,
-177,
-177,
-177,
-177,
-177,
-177,
-177,
-177,
-177,
-177,
-177,
-177,
-177,
-177,
-177,
-177,
-177,
-177,
-177,
-177,
-177,
-177,
-177,
-177,
-177,
-177,
-177,
-177,
-177,
-177,
-177,
-177,
-177,
-177,
-177,
-177,
-177,
-177,
-177,
-177,
-177,
-177,
-177,
-177,
-177,
-177,
-177,
-177,
-177,
-177,
-177,
-177,
-177,
-177,
-177,
-177,
-177,
-177,
-177,
-177,
-177,
-177,
-177,
-177,
-177,
-177,
-177,
-177,
-177,
-177,
-177,
-177,
-177,
-177,
-177,
-177,
-177,
-177,
-177,
-177,
-177,
-177,
-177,
-177,
-177,
-177,
-177,
-177,
-177,
-177,
-177,
-177,
-177,
-177,
-177,
-177,
-177,
-177,
-177,
-177,
-177,
-177,
-177,
-177,
-177,
-177,
-177,
-177,
-177,
-177,
-177,
-177,
-177,
-177,
-177,
-177,
-177,
-177,
-177,
-177,
-177,
-177,
-177,
-177,
-177,
-177,
-177,
-177,
-177,
-177,
-177,
-177,
-177,
-177,
-177,
-177,
-177,
-177,
-177,
-177,
-177,
-177,
-177,
-177,
-177,
-177,
-177,
-177,
-177,
-177,
-177,
-177,
-177,
-177,
-177,
-177,
-177,
-177,
-177,
-177,
-177,
-177,
-177,
-177,
-177,
-177,
-177,
-177,
-177,
-177,
-177,
-177,
-177,
-177,
-177,
-177,
-177,
-177,
-177,
-177,
-177,
-177,
-177,
-177,
-177,
-177,
-177,
-177,
-177,
-177,
-177,
-177,
-177,
-177,
-177,
-177,
-177,
-177,
-177,
-177,
-177,
-177,
-177,
-177,
-177,
-177,
-177,
-177,
-177,
-177,
-177,
-177,
-177,
-177,
-177,
-177,
-177,
-177,
-177,
-177,
-177,
-177,
-177,
-177,
-177,
-177,
-177,
-177,
-177,
-177,
-177,
-177,
-177,
-177,
-177,
-177,
-177,
-177,
-177,
-177,
-177,
-177,
-177,
-177,
-177,
-177,
-177,
-177,
-177,
-177,
-177,
-177,
-177,
-177,
-177,
-177,
-177,
-177,
-177,
-177,
-177,
-177,
-177,
-177,
-177,
-177,
-177,
-177,
-177,
-177,
-177,
-177,
-177,
-177,
-176,
-176,
-177,
-177,
-176,
-176,
-176,
-176,
-177,
-177,
-176,
-176,
-177,
-177,
-176,
-176,
-177,
-177,
-176,
-176,
-177,
-177,
-177,
-177,
-177,
-177,
-177,
-177,
-177,
-177,
-177,
-177,
-177,
-177,
-177,
-177,
-177,
-177,
-177,
-177,
-177,
-177,
-177,
-177,
-177,
-177,
-176,
-176,
-176,
-176,
-176,
-176,
-176,
-176,
-176,
-176,
-176,
-176,
-176,
-176,
-176,
-176,
-176,
-176,
-176,
-176,
-176,
-176,
-176,
-176,
-176,
-176,
-176,
-176,
-175,
-175,
-175,
-175,
-175,
-175,
-176,
-176,
-176,
-176,
-176,
-176,
-176,
-176,
-176,
-176,
-176,
-176,
-176,
-176,
-175,
-175,
-176,
-176,
-175,
-175,
-175,
-175,
-176,
-176,
-176,
-176,
-176,
-176,
-176,
-176,
-176,
-176,
-176,
-176,
-176,
-176,
-176,
-176,
-176,
-176,
-176,
-176,
-176,
-176,
-176,
-176,
-176,
-176,
-176,
-176,
-176,
-176,
-176,
-176,
-176,
-176,
-176,
-176,
-176,
-176,
-176,
-176,
-176,
-176,
-176,
-176,
-176,
-176,
-176,
-176,
-176,
-176,
-176,
-176,
-176,
-176,
-176,
-176,
-176,
-176,
-176,
-176,
-175,
-175,
-174,
-174,
-173,
-173,
-173,
-173,
-174,
-174,
-174,
-174,
-173,
-173,
-173,
-173,
-174,
-174,
-173,
-173,
-174,
-174,
-174,
-174,
-174,
-174,
-173,
-173,
-173,
-173,
-173,
-173,
-172,
-172,
-172,
-172,
-171,
-171,
-173,
-173,
-173,
-173,
-172,
-172,
-172,
-172,
-173,
-173,
-172,
-172,
-173,
-173,
-173,
-173,
-174,
-174,
-174,
-174,
-174,
-174,
-174,
-174,
-173,
-173,
-173,
-173,
-173,
-173,
-174,
-174,
-174,
-174,
-174,
-174,
-173,
-173,
-174,
-174,
-173,
-173,
-173,
-173,
-173,
-173,
-174,
-174,
-175,
-175,
-175,
-175,
-174,
-174,
-174,
-174,
-175,
-175,
-173,
-173,
-173,
-173,
-173,
-173,
-173,
-173,
-173,
-173,
-173,
-173,
-172,
-172,
-173,
-173,
-173,
-173,
-173,
-173,
-173,
-173,
-173,
-173,
-173,
-173,
-173,
-173,
-173,
-173,
-173,
-173,
-173,
-173,
-173,
-173,
-172,
-172,
-173,
-173,
-173,
-173,
-171,
-171,
-172,
-172,
-172,
-172,
-172,
-172,
-172,
-172,
-172,
-172,
-172,
-172,
-171,
-171,
-172,
-172,
-171,
-171,
-172,
-172,
-172,
-172,
-171,
-171,
-172,
-172,
-172,
-172,
-172,
-172,
-172,
-172,
-172,
-172,
-172,
-172,
-173,
-173,
-173,
-173,
-173,
-173,
-172,
-172,
-172,
-172,
-171,
-171,
-172,
-172,
-172,
-172,
-171,
-171,
-171,
-171,
-172,
-172,
-171,
-171,
-171,
-171,
-171,
-171,
-172,
-172,
-172,
-172,
-171,
-171,
-172,
-172,
-171,
-171,
-172,
-172,
-170,
-170,
-171,
-171,
-172,
-172,
-171,
-171,
-172,
-172,
-171,
-171,
-171,
-171,
-171,
-171,
-170,
-170,
-171,
-171,
-170,
-170,
-172,
-172,
-172,
-172,
-172,
-172,
-173,
-173,
-173,
-173,
-173,
-173,
-173,
-173,
-173,
-173,
-173,
-173,
-173,
-173,
-173,
-173,
-173,
-173,
-174,
-174,
-173,
-173,
-173,
-173,
-173,
-173,
-173,
-173,
-173,
-173,
-173,
-173,
-173,
-173,
-173,
-173,
-173,
-173,
-174,
-174,
-174,
-174,
-173,
-173,
-173,
-173,
-173,
-173,
-172,
-172,
-172,
-172,
-170,
-170,
-171,
-171,
-170,
-170,
-169,
-169,
-169,
-169,
-169,
-169,
-169,
-169,
-169,
-169,
-171,
-171,
-170,
-170,
-169,
-169,
-169,
-169,
-169,
-169,
-170,
-170,
-170,
-170,
-169,
-169,
-170,
-170,
-169,
-169,
-168,
-168,
-169,
-169,
-168,
-168,
-169,
-169,
-168,
-168,
-169,
-169,
-170,
-170,
-169,
-169,
-169,
-169,
-169,
-169,
-169,
-169,
-169,
-169,
-169,
-169,
-169,
-169,
-168,
-168,
-168,
-168,
-168,
-168,
-168,
-168,
-168,
-168,
-168,
-168,
-168,
-168,
-168,
-168,
-168,
-168,
-168,
-168,
-168,
-168,
-168,
-168,
-168,
-168,
-166,
-166,
-167,
-167,
-166,
-166,
-165,
-165,
-165,
-165,
-165,
-165,
-165,
-165,
-165,
-165,
-165,
-165,
-165,
-165,
-165,
-165,
-165,
-165,
-165,
-165,
-164,
-164,
-163,
-163,
-163,
-163,
-163,
-163,
-163,
-163,
-162,
-162,
-162,
-162,
-161,
-161,
-161,
-161,
-161,
-161,
-161,
-161,
-161,
-161,
-160,
-160,
-160,
-160,
-160,
-160,
-161,
-161,
-161,
-161,
-161,
-161,
-164,
-164,
-164,
-164,
-165,
-165,
-165,
-165,
-165,
-165,
-165,
-165,
-165,
-165,
-165,
-165,
-165,
-165,
-165,
-165,
-165,
-165,
-165,
-165,
-165,
-165,
-164,
-164,
-165,
-165,
-164,
-164,
-163,
-163,
-163,
-163,
-162,
-162,
-163,
-163,
-163,
-163,
-163,
-163,
-163,
-163,
-163,
-163,
-163,
-163,
-163,
-163,
-163,
-163,
-163,
-163,
-161,
-161,
-161,
-161,
-161,
-161,
-161,
-161,
-160,
-160,
-162,
-162,
-161,
-161,
-161,
-161,
-161,
-161,
-162,
-162,
-161,
-161,
-161,
-161,
-162,
-162,
-161,
-161,
-161,
-161,
-161,
-161,
-161,
-161,
-161,
-161,
-161,
-161,
-161,
-161,
-161,
-161,
-161,
-161,
-161,
-161,
-161,
-161,
-161,
-161,
-163,
-163,
-162,
-162,
-161,
-161,
-161,
-161,
-161,
-161,
-161,
-161,
-161,
-161,
-161,
-161,
-161,
-161,
-162,
-162,
-161,
-161,
-161,
-161,
-161,
-161,
-162,
-162,
-161,
-161,
-162,
-162,
-161,
-161,
-163,
-163,
-161,
-161,
-161,
-161,
-161,
-161,
-161,
-161,
-162,
-162,
-161,
-161,
-162,
-162,
-161,
-161,
-162,
-162,
-161,
-161,
-162,
-162,
-161,
-161,
-163,
-163,
-161,
-161,
-163,
-163,
-161,
-161,
-161,
-161,
-161,
-161,
-162,
-162,
-163,
-163,
-161,
-161,
-161,
-161,
-161,
-161,
-162,
-162,
-161,
-161,
-162,
-162,
-161,
-161,
-161,
-161,
-161,
-161,
-163,
-163,
-161,
-161,
-161,
-161,
-160,
-160,
-159,
-159,
-160,
-160,
-160,
-160,
-160,
-160,
-161,
-161,
-160,
-160,
-160,
-160,
-160,
-160,
-159,
-159,
-160,
-160,
-160,
-160,
-161,
-161,
-160,
-160,
-160,
-160,
-159,
-159,
-159,
-159,
-159,
-159,
-159,
-159,
-160,
-160,
-159,
-159,
-160,
-160,
-160,
-160,
-160,
-160,
-160,
-160,
-161,
-161,
-159,
-159,
-160,
-160,
-159,
-159,
-159,
-159,
-159,
-159,
-159,
-159,
-159,
-159,
-159,
-159,
-159,
-159,
-159,
-159,
-159,
-159,
-159,
-159,
-158,
-158,
-157,
-157,
-157,
-157,
-158,
-158,
-157,
-157,
-156,
-156,
-157,
-157,
-156,
-156,
-157,
-157,
-159,
-159,
-158,
-158,
-159,
-159,
-160,
-160,
-159,
-159,
-159,
-159,
-159,
-159,
-159,
-159,
-158,
-158,
-158,
-158,
-159,
-159,
-158,
-158,
-158,
-158,
-158,
-158,
-157,
-157,
-158,
-158,
-158,
-158,
-159,
-159,
-159,
-159,
-158,
-158,
-158,
-158,
-158,
-158,
-158,
-158,
-158,
-158,
-157,
-157,
-158,
-158,
-158,
-158,
-157,
-157,
-157,
-157,
-158,
-158,
-157,
-157,
-158,
-158,
-159,
-159,
-158,
-158,
-158,
-158,
-158,
-158,
-158,
-158,
-158,
-158,
-159,
-159,
-158,
-158,
-159,
-159,
-158,
-158,
-158,
-158,
-159,
-159,
-157,
-157,
-159,
-159,
-158,
-158,
-158,
-158,
-158,
-158,
-158,
-158,
-158,
-158,
-157,
-157,
-157,
-157,
-157,
-157,
-158,
-158,
-158,
-158,
-158,
-158,
-158,
-158,
-157,
-157,
-157,
-157,
-156,
-156,
-157,
-157,
-155,
-155,
-155,
-155,
-154,
-154,
-155,
-155,
-154,
-154,
-153,
-153,
-154,
-154,
-154,
-154,
-154,
-154,
-155,
-155,
-155,
-155,
-155,
-155,
-155,
-155,
-154,
-154,
-153,
-153,
-152,
-152,
-152,
-152,
-151,
-151,
-153,
-153,
-154,
-154,
-155,
-155,
-156,
-156,
-156,
-156,
-158,
-158,
-158,
-158,
-158,
-158,
-159,
-159,
-159,
-159,
-158,
-158,
-156,
-156,
-156,
-156,
-155,
-155,
-155,
-155,
-155,
-155,
-156,
-156,
-156,
-156,
-156,
-156,
-156,
-156,
-156,
-156,
-157,
-157,
-157,
-157,
-158,
-158,
-158,
-158,
-158,
-158,
-159,
-159,
-158,
-158,
-157,
-157,
-156,
-156,
-156,
-156,
-154,
-154,
-154,
-154,
-153,
-153,
-153,
-153,
-153,
-153,
-153,
-153,
-153,
-153,
-153,
-153,
-153,
-153,
-152,
-152,
-153,
-153,
-151,
-151,
-151,
-151,
-150,
-150,
-151,
-151,
-151,
-151,
-151,
-151,
-150,
-150,
-149,
-149,
-149,
-149,
-149,
-149,
-149,
-149,
-148,
-148,
-149,
-149,
-149,
-149,
-149,
-149,
-149,
-149,
-149,
-149,
-148,
-148,
-148,
-148,
-144,
-144,
-143,
-143,
-139,
-139,
-138,
-138,
-136,
-136,
-136,
-136,
-134,
-134,
-133,
-133,
-133,
-133,
-132,
-132,
-133,
-133,
-132,
-132,
-131,
-131,
-127,
-127,
-126,
-126,
-123,
-123,
-122,
-122,
-120,
-120,
-121,
-121,
-118,
-118,
-117,
-117,
-117,
-117,
-117,
-117,
-118,
-118,
-115,
-115,
-115,
-115,
-116,
-116,
-115,
-115,
-114,
-114,
-113,
-113,
-111,
-111,
-112,
-112,
-111,
-111,
-111,
-111,
-110,
-110,
-109,
-109,
-109,
-109,
-110,
-110,
-109,
-109,
-108,
-108,
-109,
-109,
-108,
-108,
-108,
-108,
-108,
-108,
-109,
-109,
-107,
-107,
-106,
-106,
-105,
-105,
-105,
-105,
-103,
-103,
-104,
-104,
-102,
-102,
-102,
-102,
-101,
-101,
-101,
-101,
-103,
-103,
-102,
-102,
-103,
-103,
-103,
-103,
-104,
-104,
-104,
-104,
-103,
-103,
-102,
-102,
-102,
-102,
-101,
-101,
-102,
-102,
-101,
-101,
-101,
-101,
-100,
-100,
-100,
-100,
-101,
-101,
-99,
-99,
-100,
-100,
-100,
-100,
-99,
-99,
-99,
-99,
-99,
-99,
-98,
-98,
-99,
-99,
-99,
-99,
-99,
-99,
-99,
-99,
-98,
-98,
-101,
-101,
-101,
-101,
-102,
-102,
-102,
-102,
-102,
-102,
-103,
-103,
-104,
-104,
-103,
-103,
-103,
-103,
-103,
-103,
-104,
-104,
-103,
-103,
-103,
-103,
-104,
-104,
-104,
-104,
-104,
-104,
-104,
-104,
-104,
-104,
-103,
-103,
-104,
-104,
-104,
-104,
-104,
-104,
-104,
-104,
-104,
-104,
-104,
-104,
-103,
-103,
-104,
-104,
-104,
-104,
-104,
-104,
-104,
-104,
-104,
-104,
-104,
-104,
-104,
-104,
-104,
-104,
-104,
-104,
-103,
-103,
-104,
-104,
-103,
-103,
-103,
-103,
-103,
-103,
-104,
-104,
-103,
-103,
-103,
-103,
-104,
-104,
-104,
-104,
-104,
-104,
-104,
-104,
-104,
-104,
-103,
-103,
-103,
-103,
-103,
-103,
-103,
-103,
-103,
-103,
-103,
-103,
-103,
-103,
-103,
-103,
-103,
-103,
-103,
-103,
-103,
-103,
-103,
-103,
-103,
-103,
-103,
-103,
-103,
-103,
-103,
-103,
-103,
-103,
-103,
-103,
-103,
-103,
-103,
-103,
-102,
-102,
-103,
-103,
-102,
-102,
-102,
-102,
-102,
-102,
-102,
-102,
-103,
-103,
-102,
-102,
-102,
-102,
-103,
-103,
-102,
-102,
-103,
-103,
-102,
-102,
-102,
-102,
-102,
-102,
-102,
-102,
-101,
-101,
-102,
-102,
-102,
-102,
-103,
-103,
-102,
-102,
-103,
-103,
-102,
-102,
-102,
-102,
-103,
-103,
-102,
-102,
-101,
-101,
-101,
-101,
-101,
-101,
-102,
-102,
-102,
-102,
-102,
-102,
-101,
-101,
-100,
-100,
-100,
-100,
-101,
-101,
-101,
-101,
-100,
-100,
-101,
-101,
-101,
-101,
-101,
-101,
-101,
-101,
-101,
-101,
-101,
-101,
-100,
-100,
-101,
-101,
-101,
-101,
-100,
-100,
-99,
-99,
-100,
-100,
-100,
-100,
-100,
-100,
-100,
-100,
-100,
-100,
-100,
-100,
-99,
-99,
-99,
-99,
-99,
-99,
-99,
-99,
-99,
-99,
-99,
-99,
-98,
-98,
-97,
-97,
-97,
-97,
-97,
-97,
-99,
-99,
-99,
-99,
-99,
-99,
-97,
-97,
-97,
-97,
-97,
-97,
-97,
-97,
-98,
-98,
-98,
-98,
-97,
-97,
-99,
-99,
-98,
-98,
-98,
-98,
-97,
-97,
-98,
-98,
-97,
-97,
-97,
-97,
-97,
-97,
-96,
-96,
-97,
-97,
-96,
-96,
-97,
-97,
-97,
-97,
-97,
-97,
-97,
-97,
-97,
-97,
-97,
-97,
-97,
-97,
-97,
-97,
-97,
-97,
-97,
-97,
-97,
-97,
-97,
-97,
-97,
-97,
-97,
-97,
-96,
-96,
-95,
-95,
-95,
-95,
-95,
-95,
-95,
-95,
-97,
-97,
-96,
-96,
-97,
-97,
-96,
-96,
-97,
-97,
-98,
-98,
-97,
-97,
-97,
-97,
-97,
-97,
-97,
-97,
-97,
-97,
-96,
-96,
-97,
-97,
-97,
-97,
-95,
-95,
-96,
-96,
-96,
-96,
-96,
-96,
-97,
-97,
-97,
-97,
-97,
-97,
-97,
-97,
-97,
-97,
-97,
-97,
-97,
-97,
-97,
-97,
-97,
-97,
-97,
-97,
-97,
-97,
-97,
-97,
-99,
-99,
-99,
-99,
-97,
-97,
-97,
-97,
-97,
-97,
-97,
-97,
-97,
-97,
-96,
-96,
-97,
-97,
-95,
-95,
-95,
-95,
-94,
-94,
-95,
-95,
-95,
-95,
-95,
-95,
-97,
-97,
-96,
-96,
-96,
-96,
-97,
-97,
-97,
-97,
-97,
-97,
-97,
-97,
-97,
-97,
-97,
-97,
-96,
-96,
-97,
-97,
-97,
-97,
-96,
-96,
-96,
-96,
-97,
-97,
-96,
-96,
-96,
-96,
-95,
-95,
-94,
-94,
-95,
-95,
-94,
-94,
-94,
-94,
-92,
-92,
-95,
-95,
-94,
-94,
-94,
-94,
-95,
-95,
-92,
-92,
-92,
-92,
-94,
-94,
-92,
-92,
-94,
-94,
-95,
-95,
-94,
-94,
-93,
-93,
-92,
-92,
-93,
-93,
-93,
-93,
-94,
-94,
-92,
-92,
-93,
-93,
-92,
-92,
-94,
-94,
-93,
-93,
-95,
-95,
-94,
-94,
-95,
-95,
-94,
-94,
-95,
-95,
-95,
-95,
-94,
-94,
-93,
-93,
-93,
-93,
-94,
-94,
-93,
-93,
-94,
-94,
-93,
-93,
-91,
-91,
-91,
-91,
-90,
-90,
-90,
-90,
-91,
-91,
-91,
-91,
-90,
-90,
-91,
-91,
-91,
-91,
-91,
-91,
-90,
-90,
-90,
-90,
-90,
-90,
-91,
-91,
-90,
-90,
-90,
-90,
-89,
-89,
-90,
-90,
-91,
-91,
-91,
-91,
-92,
-92,
-93,
-93,
-91,
-91,
-92,
-92,
-91,
-91,
-90,
-90,
-92,
-92,
-90,
-90,
-91,
-91,
-91,
-91,
-91,
-91,
-91,
-91,
-94,
-94,
-95,
-95,
-96,
-96,
-96,
-96,
-97,
-97,
-97,
-97,
-97,
-97,
-95,
-95,
-95,
-95,
-97,
-97,
-96,
-96,
-97,
-97,
-95,
-95,
-91,
-91,
-88,
-88,
-85,
-85,
-80,
-80,
-79,
-79,
-78,
-78,
-82,
-82,
-83,
-83,
-86,
-86,
-86,
-86,
-88,
-88,
-91,
-91,
-90,
-90,
-90,
-90,
-90,
-90,
-90,
-90,
-89,
-89,
-89,
-89,
-89,
-89,
-90,
-90,
-90,
-90,
-91,
-91,
-91,
-91,
-90,
-90,
-89,
-89,
-89,
-89,
-88,
-88,
-88,
-88,
-87,
-87,
-89,
-89,
-89,
-89,
-88,
-88,
-91,
-91,
-90,
-90,
-91,
-91,
-89,
-89,
-90,
-90,
-89,
-89,
-89,
-89,
-88,
-88,
-87,
-87,
-87,
-87,
-87,
-87,
-86,
-86,
-85,
-85,
-86,
-86,
-85,
-85,
-85,
-85,
-84,
-84,
-84,
-84,
-83,
-83,
-82,
-82,
-82,
-82,
-81,
-81,
-81,
-81,
-81,
-81,
-81,
-81,
-80,
-80,
-80,
-80,
-81,
-81,
-80,
-80,
-80,
-80,
-80,
-80,
-80,
-80,
-81,
-81,
-81,
-81,
-81,
-81,
-81,
-81,
-83,
-83,
-83,
-83,
-81,
-81,
-84,
-84,
-84,
-84,
-83,
-83,
-81,
-81,
-75,
-75,
-71,
-71,
-64,
-64,
-57,
-57,
-54,
-54,
-48,
-48,
-44,
-44,
-39,
-39,
-37,
-37,
-35,
-35,
-30,
-30,
-28,
-28,
-26,
-26,
-22,
-22,
-23,
-23,
-21,
-21,
-19,
-19,
-18,
-18,
-19,
-19,
-18,
-18,
-17,
-17,
-17,
-17,
-17,
-17,
-16,
-16,
-16,
-16,
-15,
-15,
-15,
-15,
-15,
-15,
-14,
-14,
-14,
-14,
-13,
-13,
-13,
-13,
-13,
-13,
-13,
-13,
-12,
-12,
-13,
-13,
-11,
-11,
-11,
-11,
-11,
-11,
-11,
-11,
-9,
-9,
-10,
-10,
-10,
-10,
-9,
-9,
-9,
-9,
-9,
-9,
-9,
-9,
-9,
-9,
-8,
-8,
-8,
-8,
-8,
-8,
-8,
-8,
-8,
-8,
-8,
-8,
-8,
-8,
-8,
-8,
-7,
-7,
-9,
-9,
-8,
-8,
-8,
-8,
-9,
-9,
-8,
-8,
-8,
-8,
-9,
-9,
-8,
-8,
-8,
-8,
-9,
-9,
-9,
-9,
-9,
-9,
-10,
-10,
-11,
-11,
-10,
-10,
-10,
-10,
-9,
-9,
-9,
-9,
-9,
-9,
-9,
-9,
-8,
-8,
-8,
-8,
-8,
-8,
-8,
-8,
-8,
-8,
-7,
-7,
-7,
-7,
-8,
-8,
-7,
-7,
-6,
-6,
-6,
-6,
-7,
-7,
-5,
-5,
-5,
-5,
-7,
-7,
-6,
-6,
-7,
-7,
-5,
-5,
-5,
-5,
-6,
-6,
-5,
-5,
-6,
-6,
-5,
-5,
-5,
-5,
-5,
-5,
-6,
-6,
-5,
-5,
-5,
-5,
-5,
-5,
-6,
-6,
-4,
-4,
-4,
-4,
-4,
-4,
-4,
-4,
-4,
-4,
-6,
-6,
-5,
-5,
-4,
-4,
-5,
-5,
-4,
-4,
-5,
-5,
-4,
-4,
-4,
-4,
-4,
-4,
-4,
-4,
-4,
-4,
-4,
-4,
-3,
-3,
-3,
-3,
-3,
-3,
-3,
-3,
-4,
-4,
-4,
-4,
-4,
-4,
-3,
-3,
-6,
-6,
-4,
-4,
-4,
-4,
-4,
-4,
-5,
-5,
-3,
-3,
-4,
-4,
-3,
-3,
-4,
-4,
-3,
-3,
-4,
-4,
-4,
-4,
-3,
-3,
-4,
-4,
-3,
-3,
-4,
-4,
-3,
-3,
-3,
-3,
-4,
-4,
-5,
-5,
-3,
-3,
-4,
-4,
-4,
-4,
-4,
-4,
-4,
-4,
-4,
-4,
-4,
-4,
-4,
-4,
-4,
-4,
-4,
-4,
-4,
-4,
-3,
-3,
-3,
-3,
-4,
-4,
-4,
-4,
-4,
-4,
-3,
-3,
-4,
-4,
-4,
-4,
-4,
-4,
-3,
-3,
-3,
-3,
-3,
-3,
-4,
-4,
-3,
-3,
-3,
-3,
-2,
-2,
-4,
-4,
-3,
-3,
-4,
-4,
-3,
-3,
-3,
-3,
-3,
-3,
-3,
-3,
-3,
-3,
-3,
-3,
-4,
-4,
-3,
-3,
-5,
-5,
-4,
-4,
-4,
-4,
-2,
-2,
-2,
-2,
-2,
-2,
-4,
-4,
-2,
-2,
-3,
-3,
-3,
-3,
-3,
-3,
-3,
-3,
-3,
-3,
-3,
-3,
-3,
-3,
-3,
-3,
-3,
-3,
-3,
-3,
-2,
-2,
-3,
-3,
-2,
-2,
-4,
-4,
-3,
-3,
-3,
-3,
-3,
-3,
-4,
-4,
-3,
-3,
-3,
-3,
-2,
-2,
-3,
-3,
-2,
-2,
-2,
-2,
-4,
-4,
-3,
-3,
-2,
-2,
-3,
-3,
-2,
-2,
-3,
-3,
-3,
-3,
-3,
-3,
-3,
-3,
-3,
-3,
-3,
-3,
-3,
-3,
-3,
-3,
-4,
-4,
-4,
-4,
-6,
-6,
-6,
-6,
-9,
-9,
-9,
-9,
-11,
-11,
-11,
-11,
-12,
-12,
-11,
-11,
-11,
-11,
-10,
-10,
-11,
-11,
-11,
-11,
-11,
-11,
-11,
-11,
-10,
-10,
-11,
-11,
-11,
-11,
-11,
-11,
-11,
-11,
-11,
-11,
-11,
-11,
-11,
-11,
-11,
-11,
-11,
-11,
-10,
-10,
-11,
-11,
-11,
-11,
-10,
-10,
-11,
-11,
-9,
-9,
-11,
-11,
-9,
-9,
-10,
-10,
-10,
-10,
-10,
-10,
-11,
-11,
-10,
-10,
-9,
-9,
-9,
-9,
-9,
-9,
-9,
-9,
-9,
-9,
-10,
-10,
-9,
-9,
-9,
-9,
-10,
-10,
-9,
-9,
-10,
-10,
-11,
-11,
-10,
-10,
-9,
-9,
-10,
-10,
-10,
-10,
-10,
-10,
-9,
-9,
-10,
-10,
-9,
-9,
-8,
-8,
-8,
-8,
-7,
-7,
-7,
-7,
-7,
-7,
-7,
-7,
-8,
-8,
-7,
-7,
-7,
-7,
-7,
-7,
-6,
-6,
-7,
-7,
-6,
-6,
-8,
-8,
-7,
-7,
-8,
-8,
-7,
-7,
-7,
-7,
-8,
-8,
-7,
-7,
-8,
-8,
-7,
-7,
-8,
-8,
-9,
-9,
-8,
-8,
-9,
-9,
-10,
-10,
-9,
-9,
-9,
-9,
-9,
-9,
-9,
-9,
-9,
-9,
-8,
-8,
-8,
-8,
-8,
-8,
-8,
-8,
-9,
-9,
-6,
-6,
-8,
-8,
-7,
-7,
-7,
-7,
-7,
-7,
-8,
-8,
-8,
-8,
-8,
-8,
-7,
-7,
-7,
-7,
-7,
-7,
-6,
-6,
-6,
-6,
-6,
-6,
-7,
-7,
-6,
-6,
-7,
-7,
-7,
-7,
-7,
-7,
-8,
-8,
-7,
-7,
-8,
-8,
-7,
-7,
-7,
-7,
-8,
-8,
-7,
-7,
-7,
-7,
-6,
-6,
-7,
-7,
-7,
-7,
-7,
-7,
-7,
-7,
-6,
-6,
-8,
-8,
-8,
-8,
-7,
-7,
-8,
-8,
-7,
-7,
-8,
-8,
-7,
-7,
-7,
-7,
-6,
-6,
-6,
-6,
-5,
-5,
-4,
-4,
-3,
-3,
-3,
-3,
-3,
-3,
-3,
-3,
-3,
-3,
-3,
-3,
-3,
-3,
-2,
-2,
-2,
-2,
-1,
-1,
-2,
-2,
-1,
-1,
-1,
-1,
-1,
-1,
-1,
-1,
-1,
-1,
-1,
