donnees_brutes_CSV/mesures_80_mV.CSV

Memory Length,4000,
Trigger Level,-3.52000e+02,
Source,CH1,
Probe,1.0X,
Vertical Units,V,
Vertical Scale,1.00000e-01,
Vertical Position,2.00000e-01,
Horizontal Units,S,
Horizontal Scale,1.00000e-05,
Horizontal Position,0.0000000e+00,
Horizontal Mode,Main,
Sampling Period,4.00000e-08,
Firmware,V1.14,
Time, ,
Mode,Fast,
Waveform Data,
-177,
-177,
-177,
-177,
-177,
-177,
-177,
-177,
-177,
-177,
-177,
-177,
-177,
-177,
-177,
-176,
-176,
-177,
-177,
-176,
-176,
-177,
-177,
-177,
-177,
-177,
-177,
-177,
-177,
-177,
-177,
-176,
-176,
-177,
-177,
-177,
-177,
-176,
-176,
-177,
-177,
-177,
-177,
-176,
-176,
-177,
-177,
-177,
-177,
-177,
-177,
-177,
-177,
-177,
-177,
-176,
-176,
-176,
-176,
-177,
-177,
-177,
-177,
-177,
-177,
-177,
-177,
-177,
-177,
-177,
-177,
-177,
-177,
-177,
-177,
-176,
-176,
-177,
-177,
-177,
-177,
-177,
-177,
-177,
-177,
-177,
-177,
-177,
-177,
-177,
-177,
-177,
-177,
-177,
-177,
-177,
-177,
-177,
-177,
-177,
-177,
-176,
-176,
-177,
-177,
-176,
-176,
-177,
-177,
-176,
-176,
-177,
-177,
-177,
-177,
-177,
-177,
-177,
-177,
-177,
-177,
-177,
-177,
-177,
-177,
-177,
-177,
-177,
-177,
-177,
-177,
-177,
-177,
-177,
-177,
-177,
-177,
-177,
-177,
-177,
-177,
-177,
-177,
-177,
-177,
-177,
-177,
-177,
-177,
-177,
-177,
-177,
-177,
-177,
-177,
-177,
-177,
-177,
-177,
-177,
-177,
-177,
-177,
-177,
-177,
-177,
-177,
-177,
-177,
-177,
-177,
-177,
-177,
-177,
-177,
-177,
-177,
-177,
-177,
-176,
-176,
-177,
-177,
-177,
-177,
-177,
-177,
-177,
-177,
-177,
-177,
-177,
-177,
-177,
-177,
-177,
-177,
-177,
-177,
-177,
-177,
-177,
-177,
-177,
-177,
-177,
-177,
-177,
-177,
-177,
-177,
-177,
-177,
-177,
-177,
-177,
-177,
-177,
-177,
-177,
-177,
-177,
-177,
-177,
-177,
-177,
-177,
-177,
-177,
-176,
-176,
-177,
-177,
-177,
-177,
-177,
-177,
-176,
-176,
-176,
-176,
-177,
-177,
-177,
-177,
-176,
-176,
-176,
-176,
-176,
-176,
-176,
-176,
-177,
-177,
-176,
-176,
-177,
-177,
-176,
-176,
-177,
-177,
-177,
-177,
-177,
-177,
-177,
-177,
-177,
-177,
-177,
-177,
-177,
-177,
-177,
-177,
-177,
-177,
-177,
-177,
-177,
-177,
-177,
-177,
-177,
-177,
-177,
-177,
-176,
-176,
-177,
-177,
-177,
-177,
-177,
-177,
-177,
-177,
-176,
-176,
-177,
-177,
-177,
-177,
-177,
-177,
-177,
-177,
-177,
-177,
-177,
-177,
-177,
-177,
-177,
-177,
-177,
-177,
-177,
-177,
-177,
-177,
-177,
-177,
-177,
-177,
-177,
-177,
-177,
-177,
-177,
-177,
-177,
-177,
-177,
-177,
-177,
-177,
-177,
-177,
-177,
-177,
-177,
-177,
-177,
-177,
-177,
-177,
-177,
-177,
-177,
-177,
-177,
-177,
-177,
-177,
-177,
-177,
-177,
-177,
-177,
-177,
-177,
-177,
-177,
-177,
-177,
-177,
-177,
-177,
-176,
-176,
-177,
-177,
-177,
-177,
-177,
-177,
-177,
-177,
-177,
-177,
-177,
-177,
-177,
-177,
-177,
-177,
-177,
-177,
-177,
-177,
-177,
-177,
-177,
-177,
-177,
-177,
-177,
-177,
-177,
-177,
-177,
-177,
-177,
-177,
-176,
-176,
-176,
-176,
-177,
-177,
-177,
-177,
-177,
-177,
-177,
-177,
-176,
-176,
-177,
-177,
-176,
-176,
-177,
-177,
-176,
-176,
-177,
-177,
-176,
-176,
-177,
-177,
-176,
-176,
-177,
-177,
-176,
-176,
-177,
-177,
-176,
-176,
-177,
-177,
-177,
-177,
-177,
-177,
-177,
-177,
-176,
-176,
-176,
-176,
-176,
-176,
-177,
-177,
-176,
-176,
-177,
-177,
-176,
-176,
-176,
-176,
-177,
-177,
-177,
-177,
-176,
-176,
-177,
-177,
-176,
-176,
-176,
-176,
-176,
-176,
-177,
-177,
-176,
-176,
-177,
-177,
-176,
-176,
-176,
-176,
-177,
-177,
-177,
-177,
-177,
-177,
-177,
-177,
-177,
-177,
-177,
-177,
-177,
-177,
-177,
-177,
-177,
-177,
-176,
-176,
-177,
-177,
-177,
-177,
-177,
-177,
-177,
-177,
-177,
-177,
-177,
-177,
-177,
-177,
-177,
-177,
-177,
-177,
-177,
-177,
-177,
-177,
-177,
-177,
-177,
-177,
-177,
-177,
-177,
-177,
-177,
-177,
-177,
-177,
-177,
-177,
-177,
-177,
-177,
-177,
-177,
-177,
-177,
-177,
-177,
-177,
-177,
-177,
-177,
-177,
-177,
-177,
-177,
-177,
-177,
-177,
-177,
-177,
-177,
-177,
-177,
-177,
-177,
-177,
-177,
-177,
-177,
-177,
-177,
-177,
-177,
-177,
-177,
-177,
-176,
-176,
-177,
-177,
-177,
-177,
-177,
-177,
-177,
-177,
-177,
-177,
-177,
-177,
-176,
-176,
-177,
-177,
-177,
-177,
-177,
-177,
-177,
-177,
-176,
-176,
-177,
-177,
-176,
-176,
-177,
-177,
-177,
-177,
-177,
-177,
-177,
-177,
-177,
-177,
-177,
-177,
-176,
-176,
-177,
-177,
-177,
-177,
-177,
-177,
-177,
-177,
-177,
-177,
-176,
-176,
-177,
-177,
-177,
-177,
-177,
-177,
-177,
-177,
-177,
-177,
-177,
-177,
-177,
-177,
-177,
-177,
-176,
-176,
-176,
-176,
-177,
-177,
-177,
-177,
-177,
-177,
-177,
-177,
-177,
-177,
-177,
-177,
-177,
-177,
-177,
-177,
-177,
-177,
-177,
-177,
-177,
-177,
-177,
-177,
-176,
-176,
-177,
-177,
-177,
-177,
-177,
-177,
-177,
-177,
-177,
-177,
-177,
-177,
-177,
-177,
-177,
-177,
-176,
-176,
-177,
-177,
-176,
-176,
-176,
-176,
-176,
-176,
-176,
-176,
-176,
-176,
-176,
-176,
-176,
-176,
-175,
-175,
-174,
-174,
-175,
-175,
-174,
-174,
-174,
-174,
-173,
-173,
-173,
-173,
-173,
-173,
-173,
-173,
-173,
-173,
-173,
-173,
-173,
-173,
-172,
-172,
-172,
-172,
-172,
-172,
-172,
-172,
-172,
-172,
-172,
-172,
-173,
-173,
-172,
-172,
-172,
-172,
-171,
-171,
-172,
-172,
-171,
-171,
-171,
-171,
-171,
-171,
-171,
-171,
-169,
-169,
-170,
-170,
-170,
-170,
-170,
-170,
-170,
-170,
-171,
-171,
-170,
-170,
-170,
-170,
-170,
-170,
-170,
-170,
-169,
-169,
-169,
-169,
-169,
-169,
-169,
-169,
-169,
-169,
-168,
-168,
-168,
-168,
-168,
-168,
-169,
-169,
-168,
-168,
-167,
-167,
-168,
-168,
-168,
-168,
-169,
-169,
-167,
-167,
-168,
-168,
-167,
-167,
-168,
-168,
-168,
-168,
-168,
-168,
-168,
-168,
-169,
-169,
-168,
-168,
-169,
-169,
-168,
-168,
-168,
-168,
-169,
-169,
-168,
-168,
-169,
-169,
-167,
-167,
-167,
-167,
-167,
-167,
-168,
-168,
-167,
-167,
-168,
-168,
-167,
-167,
-167,
-167,
-166,
-166,
-166,
-166,
-165,
-165,
-165,
-165,
-165,
-165,
-164,
-164,
-164,
-164,
-163,
-163,
-164,
-164,
-163,
-163,
-163,
-163,
-162,
-162,
-163,
-163,
-161,
-161,
-163,
-163,
-162,
-162,
-163,
-163,
-162,
-162,
-162,
-162,
-162,
-162,
-161,
-161,
-163,
-163,
-161,
-161,
-161,
-161,
-162,
-162,
-162,
-162,
-161,
-161,
-162,
-162,
-161,
-161,
-161,
-161,
-161,
-161,
-162,
-162,
-162,
-162,
-163,
-163,
-163,
-163,
-162,
-162,
-163,
-163,
-162,
-162,
-163,
-163,
-162,
-162,
-162,
-162,
-161,
-161,
-163,
-163,
-162,
-162,
-162,
-162,
-163,
-163,
-163,
-163,
-162,
-162,
-161,
-161,
-161,
-161,
-162,
-162,
-161,
-161,
-161,
-161,
-161,
-161,
-162,
-162,
-161,
-161,
-161,
-161,
-162,
-162,
-161,
-161,
-161,
-161,
-162,
-162,
-161,
-161,
-161,
-161,
-161,
-161,
-161,
-161,
-161,
-161,
-161,
-161,
-161,
-161,
-159,
-159,
-159,
-159,
-159,
-159,
-159,
-159,
-159,
-159,
-158,
-158,
-158,
-158,
-157,
-157,
-157,
-157,
-157,
-157,
-157,
-157,
-158,
-158,
-156,
-156,
-157,
-157,
-157,
-157,
-156,
-156,
-157,
-157,
-157,
-157,
-156,
-156,
-156,
-156,
-156,
-156,
-156,
-156,
-157,
-157,
-156,
-156,
-155,
-155,
-155,
-155,
-156,
-156,
-156,
-156,
-157,
-157,
-155,
-155,
-155,
-155,
-155,
-155,
-155,
-155,
-155,
-155,
-156,
-156,
-155,
-155,
-155,
-155,
-155,
-155,
-155,
-155,
-155,
-155,
-155,
-155,
-155,
-155,
-155,
-155,
-155,
-155,
-155,
-155,
-155,
-155,
-155,
-155,
-155,
-155,
-155,
-155,
-155,
-155,
-155,
-155,
-155,
-155,
-155,
-155,
-156,
-156,
-155,
-155,
-155,
-155,
-155,
-155,
-155,
-155,
-155,
-155,
-155,
-155,
-155,
-155,
-155,
-155,
-153,
-153,
-154,
-154,
-154,
-154,
-154,
-154,
-154,
-154,
-154,
-154,
-155,
-155,
-155,
-155,
-156,
-156,
-156,
-156,
-156,
-156,
-156,
-156,
-156,
-156,
-155,
-155,
-156,
-156,
-156,
-156,
-155,
-155,
-156,
-156,
-155,
-155,
-155,
-155,
-155,
-155,
-156,
-156,
-156,
-156,
-156,
-156,
-156,
-156,
-155,
-155,
-155,
-155,
-155,
-155,
-155,
-155,
-155,
-155,
-155,
-155,
-154,
-154,
-154,
-154,
-154,
-154,
-155,
-155,
-155,
-155,
-155,
-155,
-155,
-155,
-154,
-154,
-154,
-154,
-154,
-154,
-155,
-155,
-155,
-155,
-154,
-154,
-154,
-154,
-154,
-154,
-153,
-153,
-154,
-154,
-153,
-153,
-153,
-153,
-153,
-153,
-152,
-152,
-151,
-151,
-152,
-152,
-152,
-152,
-151,
-151,
-152,
-152,
-151,
-151,
-149,
-149,
-151,
-151,
-150,
-150,
-150,
-150,
-151,
-151,
-151,
-151,
-152,
-152,
-152,
-152,
-152,
-152,
-151,
-151,
-151,
-151,
-153,
-153,
-153,
-153,
-152,
-152,
-151,
-151,
-149,
-149,
-149,
-149,
-148,
-148,
-148,
-148,
-146,
-146,
-147,
-147,
-145,
-145,
-144,
-144,
-143,
-143,
-141,
-141,
-141,
-141,
-140,
-140,
-140,
-140,
-139,
-139,
-137,
-137,
-136,
-136,
-137,
-137,
-136,
-136,
-135,
-135,
-135,
-135,
-135,
-135,
-134,
-134,
-133,
-133,
-134,
-134,
-134,
-134,
-134,
-134,
-134,
-134,
-133,
-133,
-134,
-134,
-133,
-133,
-132,
-132,
-133,
-133,
-132,
-132,
-133,
-133,
-132,
-132,
-133,
-133,
-132,
-132,
-132,
-132,
-133,
-133,
-132,
-132,
-132,
-132,
-132,
-132,
-133,
-133,
-133,
-133,
-133,
-133,
-133,
-133,
-133,
-133,
-132,
-132,
-133,
-133,
-133,
-133,
-132,
-132,
-133,
-133,
-132,
-132,
-133,
-133,
-132,
-132,
-133,
-133,
-132,
-132,
-132,
-132,
-131,
-131,
-131,
-131,
-129,
-129,
-128,
-128,
-125,
-125,
-124,
-124,
-124,
-124,
-123,
-123,
-121,
-121,
-120,
-120,
-117,
-117,
-116,
-116,
-116,
-116,
-115,
-115,
-114,
-114,
-113,
-113,
-112,
-112,
-109,
-109,
-109,
-109,
-107,
-107,
-106,
-106,
-105,
-105,
-106,
-106,
-105,
-105,
-102,
-102,
-100,
-100,
-99,
-99,
-99,
-99,
-99,
-99,
-99,
-99,
-96,
-96,
-96,
-96,
-94,
-94,
-95,
-95,
-92,
-92,
-92,
-92,
-92,
-92,
-93,
-93,
-91,
-91,
-90,
-90,
-90,
-90,
-90,
-90,
-90,
-90,
-89,
-89,
-90,
-90,
-90,
-90,
-91,
-91,
-90,
-90,
-90,
-90,
-89,
-89,
-91,
-91,
-90,
-90,
-91,
-91,
-91,
-91,
-90,
-90,
-91,
-91,
-90,
-90,
-90,
-90,
-90,
-90,
-91,
-91,
-90,
-90,
-91,
-91,
-90,
-90,
-91,
-91,
-89,
-89,
-91,
-91,
-91,
-91,
-91,
-91,
-91,
-91,
-90,
-90,
-91,
-91,
-91,
-91,
-91,
-91,
-90,
-90,
-89,
-89,
-91,
-91,
-91,
-91,
-90,
-90,
-91,
-91,
-90,
-90,
-91,
-91,
-90,
-90,
-91,
-91,
-91,
-91,
-91,
-91,
-91,
-91,
-91,
-91,
-91,
-91,
-91,
-91,
-90,
-90,
-90,
-90,
-91,
-91,
-91,
-91,
-91,
-91,
-90,
-90,
-90,
-90,
-91,
-91,
-91,
-91,
-90,
-90,
-90,
-90,
-90,
-90,
-90,
-90,
-91,
-91,
-90,
-90,
-91,
-91,
-91,
-91,
-90,
-90,
-90,
-90,
-91,
-91,
-91,
-91,
-90,
-90,
-90,
-90,
-90,
-90,
-91,
-91,
-91,
-91,
-91,
-91,
-90,
-90,
-90,
-90,
-90,
-90,
-90,
-90,
-90,
-90,
-91,
-91,
-90,
-90,
-90,
-90,
-90,
-90,
-90,
-90,
-89,
-89,
-90,
-90,
-90,
-90,
-89,
-89,
-90,
-90,
-89,
-89,
-89,
-89,
-89,
-89,
-91,
-91,
-90,
-90,
-90,
-90,
-89,
-89,
-90,
-90,
-89,
-89,
-89,
-89,
-90,
-90,
-90,
-90,
-90,
-90,
-89,
-89,
-88,
-88,
-89,
-89,
-90,
-90,
-89,
-89,
-89,
-89,
-89,
-89,
-90,
-90,
-90,
-90,
-90,
-90,
-89,
-89,
-89,
-89,
-89,
-89,
-89,
-89,
-90,
-90,
-90,
-90,
-89,
-89,
-90,
-90,
-89,
-89,
-89,
-89,
-90,
-90,
-90,
-90,
-90,
-90,
-90,
-90,
-90,
-90,
-89,
-89,
-90,
-90,
-90,
-90,
-90,
-90,
-90,
-90,
-89,
-89,
-90,
-90,
-89,
-89,
-89,
-89,
-89,
-89,
-90,
-90,
-89,
-89,
-89,
-89,
-89,
-89,
-90,
-90,
-89,
-89,
-89,
-89,
-90,
-90,
-90,
-90,
-90,
-90,
-90,
-90,
-90,
-90,
-90,
-90,
-90,
-90,
-89,
-89,
-90,
-90,
-90,
-90,
-90,
-90,
-90,
-90,
-90,
-90,
-90,
-90,
-91,
-91,
-90,
-90,
-90,
-90,
-90,
-90,
-90,
-90,
-90,
-90,
-89,
-89,
-90,
-90,
-89,
-89,
-91,
-91,
-90,
-90,
-90,
-90,
-89,
-89,
-90,
-90,
-89,
-89,
-91,
-91,
-90,
-90,
-90,
-90,
-90,
-90,
-91,
-91,
-91,
-91,
-91,
-91,
-90,
-90,
-91,
-91,
-91,
-91,
-91,
-91,
-92,
-92,
-91,
-91,
-93,
-93,
-91,
-91,
-92,
-92,
-91,
-91,
-93,
-93,
-94,
-94,
-94,
-94,
-92,
-92,
-92,
-92,
-93,
-93,
-92,
-92,
-92,
-92,
-92,
-92,
-94,
-94,
-93,
-93,
-93,
-93,
-92,
-92,
-92,
-92,
-94,
-94,
-92,
-92,
-93,
-93,
-92,
-92,
-93,
-93,
-93,
-93,
-91,
-91,
-91,
-91,
-93,
-93,
-92,
-92,
-92,
-92,
-91,
-91,
-91,
-91,
-91,
-91,
-92,
-92,
-91,
-91,
-91,
-91,
-91,
-91,
-91,
-91,
-90,
-90,
-91,
-91,
-90,
-90,
-90,
-90,
-91,
-91,
-90,
-90,
-91,
-91,
-91,
-91,
-91,
-91,
-91,
-91,
-90,
-90,
-90,
-90,
-92,
-92,
-91,
-91,
-91,
-91,
-91,
-91,
-90,
-90,
-90,
-90,
-90,
-90,
-91,
-91,
-89,
-89,
-91,
-91,
-90,
-90,
-90,
-90,
-91,
-91,
-91,
-91,
-89,
-89,
-89,
-89,
-91,
-91,
-90,
-90,
-90,
-90,
-90,
-90,
-89,
-89,
-90,
-90,
-90,
-90,
-89,
-89,
-89,
-89,
-89,
-89,
-90,
-90,
-88,
-88,
-89,
-89,
-89,
-89,
-89,
-89,
-89,
-89,
-90,
-90,
-89,
-89,
-88,
-88,
-89,
-89,
-88,
-88,
-89,
-89,
-88,
-88,
-88,
-88,
-87,
-87,
-88,
-88,
-86,
-86,
-87,
-87,
-86,
-86,
-87,
-87,
-87,
-87,
-87,
-87,
-85,
-85,
-86,
-86,
-86,
-86,
-85,
-85,
-88,
-88,
-86,
-86,
-87,
-87,
-87,
-87,
-87,
-87,
-87,
-87,
-87,
-87,
-88,
-88,
-87,
-87,
-88,
-88,
-88,
-88,
-88,
-88,
-88,
-88,
-87,
-87,
-88,
-88,
-88,
-88,
-88,
-88,
-88,
-88,
-88,
-88,
-89,
-89,
-88,
-88,
-87,
-87,
-87,
-87,
-87,
-87,
-87,
-87,
-87,
-87,
-86,
-86,
-86,
-86,
-86,
-86,
-86,
-86,
-87,
-87,
-86,
-86,
-87,
-87,
-85,
-85,
-86,
-86,
-86,
-86,
-86,
-86,
-86,
-86,
-86,
-86,
-86,
-86,
-86,
-86,
-86,
-86,
-86,
-86,
-86,
-86,
-85,
-85,
-87,
-87,
-86,
-86,
-86,
-86,
-85,
-85,
-85,
-85,
-86,
-86,
-85,
-85,
-85,
-85,
-86,
-86,
-86,
-86,
-86,
-86,
-86,
-86,
-86,
-86,
-85,
-85,
-85,
-85,
-87,
-87,
-86,
-86,
-87,
-87,
-87,
-87,
-87,
-87,
-88,
-88,
-87,
-87,
-86,
-86,
-87,
-87,
-87,
-87,
-87,
-87,
-87,
-87,
-87,
-87,
-88,
-88,
-87,
-87,
-88,
-88,
-88,
-88,
-88,
-88,
-89,
-89,
-88,
-88,
-88,
-88,
-89,
-89,
-88,
-88,
-89,
-89,
-88,
-88,
-90,
-90,
-89,
-89,
-89,
-89,
-88,
-88,
-88,
-88,
-89,
-89,
-88,
-88,
-89,
-89,
-89,
-89,
-89,
-89,
-88,
-88,
-88,
-88,
-88,
-88,
-88,
-88,
-88,
-88,
-88,
-88,
-88,
-88,
-88,
-88,
-87,
-87,
-87,
-87,
-88,
-88,
-87,
-87,
-87,
-87,
-87,
-87,
-86,
-86,
-86,
-86,
-87,
-87,
-86,
-86,
-88,
-88,
-88,
-88,
-87,
-87,
-87,
-87,
-87,
-87,
-86,
-86,
-85,
-85,
-88,
-88,
-86,
-86,
-86,
-86,
-86,
-86,
-87,
-87,
-87,
-87,
-87,
-87,
-86,
-86,
-88,
-88,
-87,
-87,
-87,
-87,
-86,
-86,
-87,
-87,
-86,
-86,
-86,
-86,
-87,
-87,
-87,
-87,
-87,
-87,
-87,
-87,
-87,
-87,
-87,
-87,
-87,
-87,
-85,
-85,
-88,
-88,
-88,
-88,
-86,
-86,
-85,
-85,
-86,
-86,
-86,
-86,
-85,
-85,
-86,
-86,
-85,
-85,
-85,
-85,
-85,
-85,
-86,
-86,
-84,
-84,
-86,
-86,
-85,
-85,
-85,
-85,
-86,
-86,
-86,
-86,
-85,
-85,
-85,
-85,
-86,
-86,
-85,
-85,
-86,
-86,
-85,
-85,
-85,
-85,
-85,
-85,
-85,
-85,
-84,
-84,
-84,
-84,
-84,
-84,
-85,
-85,
-84,
-84,
-83,
-83,
-83,
-83,
-82,
-82,
-83,
-83,
-83,
-83,
-82,
-82,
-81,
-81,
-83,
-83,
-83,
-83,
-81,
-81,
-81,
-81,
-83,
-83,
-81,
-81,
-83,
-83,
-83,
-83,
-83,
-83,
-83,
-83,
-82,
-82,
-82,
-82,
-83,
-83,
-83,
-83,
-82,
-82,
-82,
-82,
-84,
-84,
-83,
-83,
-84,
-84,
-83,
-83,
-84,
-84,
-84,
-84,
-84,
-84,
-84,
-84,
-84,
-84,
-84,
-84,
-86,
-86,
-84,
-84,
-84,
-84,
-85,
-85,
-85,
-85,
-85,
-85,
-85,
-85,
-86,
-86,
-85,
-85,
-85,
-85,
-85,
-85,
-84,
-84,
-85,
-85,
-83,
-83,
-84,
-84,
-84,
-84,
-84,
-84,
-84,
-84,
-83,
-83,
-83,
-83,
-84,
-84,
-83,
-83,
-82,
-82,
-84,
-84,
-83,
-83,
-84,
-84,
-85,
-85,
-84,
-84,
-83,
-83,
-83,
-83,
-83,
-83,
-82,
-82,
-83,
-83,
-83,
-83,
-83,
-83,
-82,
-82,
-83,
-83,
-82,
-82,
-82,
-82,
-82,
-82,
-83,
-83,
-83,
-83,
-83,
-83,
-81,
-81,
-82,
-82,
-82,
-82,
-82,
-82,
-83,
-83,
-82,
-82,
-83,
-83,
-83,
-83,
-81,
-81,
-83,
-83,
-83,
-83,
-81,
-81,
-83,
-83,
-83,
-83,
-83,
-83,
-81,
-81,
-83,
-83,
-82,
-82,
-83,
-83,
-83,
-83,
-83,
-83,
-83,
-83,
-83,
-83,
-82,
-82,
-83,
-83,
-82,
-82,
-82,
-82,
-83,
-83,
-82,
-82,
-83,
-83,
-82,
-82,
-83,
-83,
-82,
-82,
-81,
-81,
-81,
-81,
-81,
-81,
-82,
-82,
-82,
-82,
-81,
-81,
-82,
-82,
-81,
-81,
-81,
-81,
-81,
-81,
-81,
-81,
-79,
-79,
-75,
-75,
-73,
-73,
-72,
-72,
-69,
-69,
-69,
-69,
-68,
-68,
-65,
-65,
-60,
-60,
-59,
-59,
-58,
-58,
-56,
-56,
-55,
-55,
-54,
-54,
-53,
-53,
-51,
-51,
-48,
-48,
-47,
-47,
-46,
-46,
-45,
-45,
-44,
-44,
-43,
-43,
-40,
-40,
-39,
-39,
-39,
-39,
-39,
-39,
-37,
-37,
-37,
-37,
-36,
-36,
-36,
-36,
-35,
-35,
-33,
-33,
-33,
-33,
-33,
-33,
-33,
-33,
-32,
-32,
-32,
-32,
-31,
-31,
-31,
-31,
-30,
-30,
-30,
-30,
-30,
-30,
-29,
-29,
-30,
-30,
-28,
-28,
-28,
-28,
-28,
-28,
-28,
-28,
-28,
-28,
-28,
-28,
-28,
-28,
-27,
-27,
-27,
-27,
-27,
-27,
-26,
-26,
-27,
-27,
-27,
-27,
-26,
-26,
-27,
-27,
-26,
-26,
-27,
-27,
-25,
-25,
-26,
-26,
-25,
-25,
-25,
-25,
-25,
-25,
-25,
-25,
-24,
-24,
-25,
-25,
-25,
-25,
-25,
-25,
-25,
-25,
-24,
-24,
-25,
-25,
-25,
-25,
-25,
-25,
-24,
-24,
-25,
-25,
-24,
-24,
-24,
-24,
-24,
-24,
-24,
-24,
-24,
-24,
-24,
-24,
-23,
-23,
-24,
-24,
-24,
-24,
-24,
-24,
-25,
-25,
-24,
-24,
-24,
-24,
-23,
-23,
-24,
-24,
-24,
-24,
-22,
-22,
-24,
-24,
-24,
-24,
-24,
-24,
-23,
-23,
-24,
-24,
-24,
-24,
-24,
-24,
-23,
-23,
-23,
-23,
-22,
-22,
-24,
-24,
-22,
-22,
-24,
-24,
-24,
-24,
-24,
-24,
-24,
-24,
-24,
-24,
-24,
-24,
-24,
-24,
-24,
-24,
-24,
-24,
-23,
-23,
-22,
-22,
-21,
-21,
-22,
-22,
-24,
-24,
-24,
-24,
-23,
-23,
-23,
-23,
-22,
-22,
-23,
-23,
-23,
-23,
-22,
-22,
-24,
-24,
-21,
-21,
-22,
-22,
-23,
-23,
-23,
-23,
-23,
-23,
-22,
-22,
-21,
-21,
-22,
-22,
-24,
-24,
-22,
-22,
-22,
-22,
-22,
-22,
-24,
-24,
-23,
-23,
-23,
-23,
-22,
-22,
-22,
-22,
-24,
-24,
-22,
-22,
-23,
-23,
-22,
-22,
-23,
-23,
-23,
-23,
-24,
-24,
-22,
-22,
-22,
-22,
-22,
-22,
-22,
-22,
-22,
-22,
-22,
-22,
-21,
-21,
-22,
-22,
-24,
-24,
-22,
-22,
-23,
-23,
-23,
-23,
-21,
-21,
-22,
-22,
-24,
-24,
-22,
-22,
-21,
-21,
-23,
-23,
-22,
-22,
-21,
-21,
-22,
-22,
-23,
-23,
-22,
-22,
-22,
-22,
-23,
-23,
-21,
-21,
-22,
-22,
-22,
-22,
-23,
-23,
-21,
-21,
-21,
-21,
-23,
-23,
-22,
-22,
-23,
-23,
-22,
-22,
-22,
-22,
-23,
-23,
-23,
-23,
-23,
-23,
-21,
-21,
-22,
-22,
-23,
-23,
-23,
-23,
-22,
-22,
-24,
-24,
-22,
-22,
-22,
-22,
-21,
-21,
-22,
-22,
-21,
-21,
-22,
-22,
-21,
-21,
-22,
-22,
-21,
-21,
-21,
-21,
-21,
-21,
-21,
-21,
-22,
-22,
-22,
-22,
-22,
-22,
-21,
-21,
-22,
-22,
-21,
-21,
-22,
-22,
-21,
-21,
-21,
-21,
-21,
-21,
-21,
-21,
-21,
-21,
-21,
-21,
-21,
-21,
-21,
-21,
-22,
-22,
-21,
-21,
-23,
-23,
-21,
-21,
-22,
-22,
-21,
-21,
-21,
-21,
-21,
-21,
-21,
-21,
-21,
-21,
-23,
-23,
-21,
-21,
-21,
-21,
-23,
-23,
-22,
-22,
-21,
-21,
-22,
-22,
-21,
-21,
-21,
-21,
-21,
-21,
-21,
-21,
-21,
-21,
-21,
-21,
-22,
-22,
-22,
-22,
-22,
-22,
-21,
-21,
-21,
-21,
-22,
-22,
-20,
-20,
-22,
-22,
-22,
-22,
-21,
-21,
-22,
-22,
-22,
-22,
-21,
-21,
-22,
-22,
-22,
-22,
-23,
-23,
-22,
-22,
-22,
-22,
-22,
-22,
-21,
-21,
-21,
-21,
-21,
-21,
-21,
-21,
-22,
-22,
-22,
-22,
-21,
-21,
-22,
-22,
-21,
-21,
-22,
-22,
-21,
-21,
-24,
-24,
-22,
-22,
-21,
-21,
-23,
-23,
-23,
-23,
-21,
-21,
-21,
-21,
-21,
-21,
-21,
-21,
-23,
-23,
-21,
-21,
-22,
-22,
-21,
-21,
-23,
-23,
-21,
-21,
-22,
-22,
-22,
-22,
-22,
-22,
-21,
-21,
-22,
-22,
-22,
-22,
-21,
-21,
-22,
-22,
-23,
-23,
-22,
-22,
-22,
-22,
-21,
-21,
-22,
-22,
-22,
-22,
-22,
-22,
-23,
-23,
-21,
-21,
-22,
-22,
-23,
-23,
-23,
-23,
-23,
-23,
-23,
-23,
-21,
-21,
-22,
-22,
-22,
-22,
-22,
-22,
-22,
-22,
-22,
-22,
-23,
-23,
-23,
-23,
-22,
-22,
-22,
-22,
-24,
-24,
-24,
-24,
-22,
-22,
-23,
-23,
-22,
-22,
-23,
-23,
-23,
-23,
-21,
-21,
-22,
-22,
-22,
-22,
-21,
-21,
-23,
-23,
-23,
-23,
-22,
-22,
-21,
-21,
-24,
-24,
-23,
-23,
-22,
-22,
-23,
-23,
-21,
-21,
-22,
-22,
-21,
-21,
-22,
-22,
-21,
-21,
-23,
-23,
-23,
-23,
-22,
-22,
-21,
-21,
-23,
-23,
-22,
-22,
-23,
-23,
-22,
-22,
-21,
-21,
-22,
-22,
-22,
-22,
-22,
-22,
-22,
-22,
-21,
-21,
-22,
-22,
-23,
-23,
-22,
-22,
-22,
-22,
-20,
-20,
-21,
-21,
-21,
-21,
-21,
-21,
-20,
-20,
-21,
-21,
-21,
-21,
-21,
-21,
-23,
-23,
-21,
-21,
-21,
-21,
-22,
-22,
-22,
-22,
-21,
-21,
-21,
-21,
-21,
-21,
-21,
-21,
-21,
-21,
-21,
-21,
-21,
-21,
-21,
-21,
-21,
-21,
-22,
-22,
-21,
-21,
-21,
-21,
-23,
-23,
-21,
-21,
-20,
-20,
-21,
-21,
-22,
-22,
-21,
-21,
-22,
-22,
-21,
-21,
-21,
-21,
-22,
-22,
-21,
-21,
-22,
-22,
-20,
-20,
-21,
-21,
-21,
-21,
-21,
-21,
-22,
-22,
-22,
-22,
-21,
-21,
-21,
-21,
-20,
-20,
-20,
-20,
-21,
-21,
-21,
-21,
-21,
-21,
-21,
-21,
-20,
-20,
-21,
-21,
-21,
-21,
-21,
-21,
-20,
-20,
-21,
-21,
-21,
-21,
-20,
-20,
-21,
-21,
-21,
-21,
-21,
-21,
-21,
-21,
-23,
-23,
-22,
-22,
-22,
-22,
-21,
-21,
-21,
-21,
-21,
-21,
-21,
-21,
-21,
-21,
-21,
-21,
-21,
-21,
-20,
-20,
-22,
-22,
-20,
-20,
-22,
-22,
-21,
-21,
-21,
-21,
-21,
-21,
-22,
-22,
-21,
-21,
-21,
-21,
-21,
-21,
-22,
-22,
-21,
-21,
-22,
-22,
-22,
-22,
-21,
-21,
-21,
-21,
-21,
-21,
-21,
-21,
-22,
-22,
-21,
-21,
-21,
-21,
-23,
-23,
-21,
-21,
-21,
-21,
-21,
-21,
-22,
-22,
-21,
-21,
-23,
-23,
-22,
-22,
-22,
-22,
-21,
-21,
-22,
-22,
-22,
-22,
-22,
-22,
-21,
-21,
-23,
-23,
-22,
-22,
-23,
-23,
-22,
-22,
-23,
-23,
-22,
-22,
-23,
-23,
-23,
-23,
-24,
-24,
-22,
-22,
-23,
-23,
-22,
-22,
-23,
-23,
-23,
-23,
-24,
-24,
-24,
-24,
-23,
-23,
-22,
-22,
-22,
-22,
-24,
-24,
-24,
-24,
-22,
-22,
-24,
-24,
-23,
-23,
-22,
-22,
-24,
