donnees_brutes_CSV/mesures_30_mV.CSV

Memory Length,4000,
Trigger Level,-1.30000e+02,
Source,CH1,
Probe,1.0X,
Vertical Units,V,
Vertical Scale,5.00000e-02,
Vertical Position,1.00000e-01,
Horizontal Units,S,
Horizontal Scale,2.50000e-05,
Horizontal Position,1.8000000e-05,
Horizontal Mode,Main,
Sampling Period,1.00000e-07,
Firmware,V1.14,
Time, ,
Mode,Fast,
Waveform Data,
-144,
-144,
-144,
-145,
-145,
-146,
-146,
-145,
-145,
-145,
-145,
-143,
-143,
-144,
-144,
-143,
-143,
-145,
-145,
-144,
-144,
-145,
-145,
-145,
-145,
-145,
-145,
-144,
-144,
-145,
-145,
-145,
-145,
-145,
-145,
-146,
-146,
-144,
-144,
-145,
-145,
-144,
-144,
-144,
-144,
-145,
-145,
-147,
-147,
-145,
-145,
-145,
-145,
-145,
-145,
-147,
-147,
-144,
-144,
-146,
-146,
-147,
-147,
-147,
-147,
-145,
-145,
-144,
-144,
-145,
-145,
-144,
-144,
-144,
-144,
-143,
-143,
-144,
-144,
-143,
-143,
-145,
-145,
-143,
-143,
-147,
-147,
-145,
-145,
-145,
-145,
-145,
-145,
-144,
-144,
-145,
-145,
-145,
-145,
-144,
-144,
-143,
-143,
-143,
-143,
-144,
-144,
-145,
-145,
-146,
-146,
-145,
-145,
-144,
-144,
-146,
-146,
-144,
-144,
-145,
-145,
-147,
-147,
-146,
-146,
-146,
-146,
-144,
-144,
-146,
-146,
-146,
-146,
-145,
-145,
-144,
-144,
-146,
-146,
-143,
-143,
-143,
-143,
-143,
-143,
-144,
-144,
-143,
-143,
-143,
-143,
-143,
-143,
-143,
-143,
-144,
-144,
-144,
-144,
-143,
-143,
-143,
-143,
-142,
-142,
-144,
-144,
-144,
-144,
-145,
-145,
-143,
-143,
-143,
-143,
-145,
-145,
-144,
-144,
-145,
-145,
-145,
-145,
-145,
-145,
-145,
-145,
-144,
-144,
-144,
-144,
-143,
-143,
-143,
-143,
-143,
-143,
-145,
-145,
-143,
-143,
-143,
-143,
-143,
-143,
-144,
-144,
-143,
-143,
-144,
-144,
-144,
-144,
-143,
-143,
-143,
-143,
-143,
-143,
-144,
-144,
-142,
-142,
-143,
-143,
-144,
-144,
-144,
-144,
-144,
-144,
-143,
-143,
-144,
-144,
-144,
-144,
-145,
-145,
-144,
-144,
-143,
-143,
-144,
-144,
-143,
-143,
-143,
-143,
-143,
-143,
-142,
-142,
-143,
-143,
-143,
-143,
-144,
-144,
-143,
-143,
-143,
-143,
-143,
-143,
-143,
-143,
-143,
-143,
-143,
-143,
-143,
-143,
-141,
-141,
-141,
-141,
-143,
-143,
-142,
-142,
-141,
-141,
-141,
-141,
-143,
-143,
-143,
-143,
-144,
-144,
-143,
-143,
-144,
-144,
-144,
-144,
-145,
-145,
-144,
-144,
-144,
-144,
-144,
-144,
-143,
-143,
-144,
-144,
-143,
-143,
-143,
-143,
-143,
-143,
-143,
-143,
-144,
-144,
-144,
-144,
-145,
-145,
-143,
-143,
-144,
-144,
-144,
-144,
-144,
-144,
-145,
-145,
-145,
-145,
-143,
-143,
-145,
-145,
-145,
-145,
-144,
-144,
-145,
-145,
-143,
-143,
-143,
-143,
-144,
-144,
-143,
-143,
-142,
-142,
-143,
-143,
-143,
-143,
-143,
-143,
-143,
-143,
-143,
-143,
-143,
-143,
-143,
-143,
-143,
-143,
-143,
-143,
-145,
-145,
-145,
-145,
-145,
-145,
-144,
-144,
-144,
-144,
-143,
-143,
-143,
-143,
-144,
-144,
-143,
-143,
-144,
-144,
-145,
-145,
-144,
-144,
-145,
-145,
-145,
-145,
-144,
-144,
-145,
-145,
-143,
-143,
-142,
-142,
-143,
-143,
-145,
-145,
-144,
-144,
-145,
-145,
-145,
-145,
-143,
-143,
-144,
-144,
-143,
-143,
-143,
-143,
-143,
-143,
-143,
-143,
-145,
-145,
-145,
-145,
-144,
-144,
-142,
-142,
-144,
-144,
-144,
-144,
-144,
-144,
-143,
-143,
-145,
-145,
-145,
-145,
-145,
-145,
-143,
-143,
-143,
-143,
-144,
-144,
-143,
-143,
-141,
-141,
-142,
-142,
-143,
-143,
-140,
-140,
-142,
-142,
-143,
-143,
-143,
-143,
-142,
-142,
-143,
-143,
-142,
-142,
-143,
-143,
-141,
-141,
-139,
-139,
-143,
-143,
-143,
-143,
-141,
-141,
-142,
-142,
-144,
-144,
-141,
-141,
-142,
-142,
-142,
-142,
-143,
-143,
-142,
-142,
-143,
-143,
-143,
-143,
-143,
-143,
-143,
-143,
-145,
-145,
-143,
-143,
-142,
-142,
-143,
-143,
-143,
-143,
-144,
-144,
-141,
-141,
-142,
-142,
-142,
-142,
-141,
-141,
-141,
-141,
-143,
-143,
-143,
-143,
-144,
-144,
-142,
-142,
-142,
-142,
-142,
-142,
-142,
-142,
-143,
-143,
-143,
-143,
-144,
-144,
-141,
-141,
-141,
-141,
-142,
-142,
-141,
-141,
-141,
-141,
-141,
-141,
-139,
-139,
-141,
-141,
-140,
-140,
-141,
-141,
-141,
-141,
-139,
-139,
-141,
-141,
-140,
-140,
-142,
-142,
-139,
-139,
-141,
-141,
-143,
-143,
-143,
-143,
-141,
-141,
-143,
-143,
-141,
-141,
-143,
-143,
-140,
-140,
-140,
-140,
-141,
-141,
-140,
-140,
-142,
-142,
-142,
-142,
-143,
-143,
-141,
-141,
-142,
-142,
-143,
-143,
-142,
-142,
-143,
-143,
-142,
-142,
-141,
-141,
-142,
-142,
-141,
-141,
-142,
-142,
-143,
-143,
-142,
-142,
-141,
-141,
-142,
-142,
-143,
-143,
-140,
-140,
-141,
-141,
-141,
-141,
-142,
-142,
-141,
-141,
-142,
-142,
-141,
-141,
-140,
-140,
-141,
-141,
-140,
-140,
-141,
-141,
-141,
-141,
-140,
-140,
-139,
-139,
-141,
-141,
-139,
-139,
-140,
-140,
-139,
-139,
-141,
-141,
-139,
-139,
-140,
-140,
-139,
-139,
-139,
-139,
-138,
-138,
-139,
-139,
-139,
-139,
-138,
-138,
-141,
-141,
-139,
-139,
-141,
-141,
-139,
-139,
-140,
-140,
-141,
-141,
-141,
-141,
-139,
-139,
-142,
-142,
-140,
-140,
-141,
-141,
-140,
-140,
-139,
-139,
-140,
-140,
-140,
-140,
-141,
-141,
-141,
-141,
-142,
-142,
-140,
-140,
-141,
-141,
-140,
-140,
-140,
-140,
-138,
-138,
-139,
-139,
-138,
-138,
-139,
-139,
-139,
-139,
-138,
-138,
-139,
-139,
-138,
-138,
-139,
-139,
-141,
-141,
-139,
-139,
-138,
-138,
-139,
-139,
-139,
-139,
-139,
-139,
-138,
-138,
-139,
-139,
-138,
-138,
-138,
-138,
-137,
-137,
-139,
-139,
-140,
-140,
-139,
-139,
-141,
-141,
-140,
-140,
-140,
-140,
-139,
-139,
-139,
-139,
-139,
-139,
-139,
-139,
-138,
-138,
-139,
-139,
-138,
-138,
-137,
-137,
-137,
-137,
-137,
-137,
-137,
-137,
-136,
-136,
-138,
-138,
-137,
-137,
-136,
-136,
-137,
-137,
-137,
-137,
-137,
-137,
-137,
-137,
-137,
-137,
-138,
-138,
-135,
-135,
-137,
-137,
-136,
-136,
-137,
-137,
-137,
-137,
-136,
-136,
-138,
-138,
-136,
-136,
-138,
-138,
-136,
-136,
-137,
-137,
-135,
-135,
-136,
-136,
-135,
-135,
-136,
-136,
-135,
-135,
-136,
-136,
-136,
-136,
-137,
-137,
-137,
-137,
-136,
-136,
-137,
-137,
-138,
-138,
-138,
-138,
-137,
-137,
-137,
-137,
-136,
-136,
-138,
-138,
-136,
-136,
-139,
-139,
-136,
-136,
-137,
-137,
-137,
-137,
-136,
-136,
-136,
-136,
-137,
-137,
-138,
-138,
-137,
-137,
-135,
-135,
-135,
-135,
-135,
-135,
-135,
-135,
-135,
-135,
-134,
-134,
-138,
-138,
-136,
-136,
-134,
-134,
-135,
-135,
-134,
-134,
-135,
-135,
-134,
-134,
-134,
-134,
-134,
-134,
-135,
-135,
-135,
-135,
-135,
-135,
-134,
-134,
-134,
-134,
-135,
-135,
-136,
-136,
-135,
-135,
-134,
-134,
-135,
-135,
-134,
-134,
-134,
-134,
-134,
-134,
-136,
-136,
-135,
-135,
-134,
-134,
-134,
-134,
-134,
-134,
-134,
-134,
-133,
-133,
-134,
-134,
-135,
-135,
-134,
-134,
-134,
-134,
-134,
-134,
-133,
-133,
-133,
-133,
-133,
-133,
-134,
-134,
-133,
-133,
-132,
-132,
-134,
-134,
-133,
-133,
-134,
-134,
-133,
-133,
-133,
-133,
-134,
-134,
-133,
-133,
-133,
-133,
-133,
-133,
-133,
-133,
-133,
-133,
-133,
-133,
-133,
-133,
-133,
-133,
-132,
-132,
-133,
-133,
-132,
-132,
-131,
-131,
-132,
-132,
-132,
-132,
-131,
-131,
-129,
-129,
-129,
-129,
-130,
-130,
-129,
-129,
-129,
-129,
-130,
-130,
-132,
-132,
-129,
-129,
-130,
-130,
-132,
-132,
-131,
-131,
-131,
-131,
-132,
-132,
-131,
-131,
-132,
-132,
-132,
-132,
-131,
-131,
-132,
-132,
-132,
-132,
-131,
-131,
-133,
-133,
-132,
-132,
-131,
-131,
-132,
-132,
-131,
-131,
-131,
-131,
-130,
-130,
-131,
-131,
-130,
-130,
-129,
-129,
-129,
-129,
-129,
-129,
-129,
-129,
-130,
-130,
-128,
-128,
-129,
-129,
-127,
-127,
-127,
-127,
-126,
-126,
-128,
-128,
-128,
-128,
-127,
-127,
-126,
-126,
-128,
-128,
-127,
-127,
-128,
-128,
-126,
-126,
-129,
-129,
-129,
-129,
-128,
-128,
-129,
-129,
-127,
-127,
-126,
-126,
-128,
-128,
-129,
-129,
-126,
-126,
-126,
-126,
-125,
-125,
-127,
-127,
-126,
-126,
-127,
-127,
-126,
-126,
-127,
-127,
-127,
-127,
-125,
-125,
-126,
-126,
-125,
-125,
-123,
-123,
-124,
-124,
-125,
-125,
-124,
-124,
-123,
-123,
-124,
-124,
-125,
-125,
-124,
-124,
-125,
-125,
-124,
-124,
-125,
-125,
-125,
-125,
-123,
-123,
-125,
-125,
-125,
-125,
-125,
-125,
-125,
-125,
-125,
-125,
-125,
-125,
-124,
-124,
-124,
-124,
-125,
-125,
-123,
-123,
-125,
-125,
-123,
-123,
-124,
-124,
-124,
-124,
-123,
-123,
-123,
-123,
-123,
-123,
-122,
-122,
-123,
-123,
-123,
-123,
-121,
-121,
-120,
-120,
-121,
-121,
-121,
-121,
-121,
-121,
-122,
-122,
-122,
-122,
-122,
-122,
-122,
-122,
-120,
-120,
-121,
-121,
-120,
-120,
-119,
-119,
-119,
-119,
-120,
-120,
-119,
-119,
-118,
-118,
-117,
-117,
-120,
-120,
-118,
-118,
-119,
-119,
-119,
-119,
-120,
-120,
-120,
-120,
-119,
-119,
-120,
-120,
-120,
-120,
-120,
-120,
-120,
-120,
-121,
-121,
-120,
-120,
-121,
-121,
-121,
-121,
-121,
-121,
-119,
-119,
-120,
-120,
-119,
-119,
-120,
-120,
-119,
-119,
-119,
-119,
-119,
-119,
-117,
-117,
-117,
-117,
-116,
-116,
-117,
-117,
-115,
-115,
-117,
-117,
-116,
-116,
-119,
-119,
-117,
-117,
-117,
-117,
-117,
-117,
-115,
-115,
-116,
-116,
-116,
-116,
-117,
-117,
-115,
-115,
-115,
-115,
-116,
-116,
-116,
-116,
-116,
-116,
-115,
-115,
-115,
-115,
-116,
-116,
-115,
-115,
-113,
-113,
-113,
-113,
-114,
-114,
-116,
-116,
-115,
-115,
-115,
-115,
-113,
-113,
-115,
-115,
-114,
-114,
-114,
-114,
-113,
-113,
-113,
-113,
-113,
-113,
-112,
-112,
-108,
-108,
-108,
-108,
-105,
-105,
-107,
-107,
-105,
-105,
-102,
-102,
-103,
-103,
-101,
-101,
-102,
-102,
-101,
-101,
-102,
-102,
-100,
-100,
-100,
-100,
-100,
-100,
-101,
-101,
-100,
-100,
-102,
-102,
-101,
-101,
-101,
-101,
-101,
-101,
-102,
-102,
-102,
-102,
-101,
-101,
-101,
-101,
-100,
-100,
-101,
-101,
-100,
-100,
-100,
-100,
-101,
-101,
-100,
-100,
-101,
-101,
-101,
-101,
-100,
-100,
-100,
-100,
-100,
-100,
-101,
-101,
-100,
-100,
-101,
-101,
-99,
-99,
-99,
-99,
-101,
-101,
-99,
-99,
-98,
-98,
-99,
-99,
-100,
-100,
-99,
-99,
-100,
-100,
-99,
-99,
-99,
-99,
-99,
-99,
-100,
-100,
-99,
-99,
-96,
-96,
-96,
-96,
-96,
-96,
-97,
-97,
-97,
-97,
-96,
-96,
-95,
-95,
-96,
-96,
-95,
-95,
-96,
-96,
-95,
-95,
-94,
-94,
-94,
-94,
-93,
-93,
-94,
-94,
-91,
-91,
-92,
-92,
-91,
-91,
-92,
-92,
-91,
-91,
-90,
-90,
-90,
-90,
-90,
-90,
-89,
-89,
-90,
-90,
-90,
-90,
-90,
-90,
-89,
-89,
-90,
-90,
-88,
-88,
-89,
-89,
-89,
-89,
-89,
-89,
-89,
-89,
-89,
-89,
-89,
-89,
-90,
-90,
-89,
-89,
-88,
-88,
-90,
-90,
-90,
-90,
-90,
-90,
-90,
-90,
-89,
-89,
-90,
-90,
-88,
-88,
-89,
-89,
-89,
-89,
-91,
-91,
-88,
-88,
-89,
-89,
-89,
-89,
-89,
-89,
-89,
-89,
-90,
-90,
-89,
-89,
-90,
-90,
-89,
-89,
-90,
-90,
-89,
-89,
-88,
-88,
-89,
-89,
-88,
-88,
-89,
-89,
-89,
-89,
-89,
-89,
-90,
-90,
-89,
-89,
-89,
-89,
-88,
-88,
-89,
-89,
-89,
-89,
-88,
-88,
-88,
-88,
-89,
-89,
-88,
-88,
-88,
-88,
-86,
-86,
-87,
-87,
-87,
-87,
-88,
-88,
-87,
-87,
-86,
-86,
-86,
-86,
-86,
-86,
-86,
-86,
-86,
-86,
-86,
-86,
-88,
-88,
-87,
-87,
-86,
-86,
-87,
-87,
-86,
-86,
-85,
-85,
-85,
-85,
-85,
-85,
-86,
-86,
-85,
-85,
-87,
-87,
-86,
-86,
-87,
-87,
-86,
-86,
-87,
-87,
-87,
-87,
-87,
-87,
-88,
-88,
-89,
-89,
-88,
-88,
-88,
-88,
-89,
-89,
-90,
-90,
-89,
-89,
-89,
-89,
-90,
-90,
-89,
-89,
-90,
-90,
-89,
-89,
-89,
-89,
-89,
-89,
-89,
-89,
-88,
-88,
-88,
-88,
-88,
-88,
-87,
-87,
-88,
-88,
-90,
-90,
-89,
-89,
-89,
-89,
-89,
-89,
-90,
-90,
-89,
-89,
-89,
-89,
-89,
-89,
-89,
-89,
-89,
-89,
-88,
-88,
-88,
-88,
-86,
-86,
-83,
-83,
-80,
-80,
-80,
-80,
-74,
-74,
-74,
-74,
-73,
-73,
-73,
-73,
-71,
-71,
-69,
-69,
-69,
-69,
-69,
-69,
-67,
-67,
-68,
-68,
-68,
-68,
-67,
-67,
-67,
-67,
-67,
-67,
-68,
-68,
-68,
-68,
-66,
-66,
-66,
-66,
-67,
-67,
-68,
-68,
-65,
-65,
-65,
-65,
-67,
-67,
-65,
-65,
-66,
-66,
-67,
-67,
-65,
-65,
-64,
-64,
-65,
-65,
-65,
-65,
-65,
-65,
-65,
-65,
-66,
-66,
-66,
-66,
-65,
-65,
-65,
-65,
-67,
-67,
-66,
-66,
-65,
-65,
-66,
-66,
-65,
-65,
-66,
-66,
-65,
-65,
-65,
-65,
-65,
-65,
-64,
-64,
-64,
-64,
-65,
-65,
-65,
-65,
-65,
-65,
-65,
-65,
-65,
-65,
-67,
-67,
-65,
-65,
-65,
-65,
-66,
-66,
-65,
-65,
-65,
-65,
-65,
-65,
-65,
-65,
-65,
-65,
-65,
-65,
-64,
-64,
-64,
-64,
-65,
-65,
-62,
-62,
-63,
-63,
-64,
-64,
-59,
-59,
-59,
-59,
-58,
-58,
-56,
-56,
-55,
-55,
-55,
-55,
-52,
-52,
-51,
-51,
-49,
-49,
-47,
-47,
-44,
-44,
-39,
-39,
-35,
-35,
-33,
-33,
-33,
-33,
-29,
-29,
-28,
-28,
-26,
-26,
-24,
-24,
-21,
-21,
-21,
-21,
-19,
-19,
-20,
-20,
-19,
-19,
-18,
-18,
-15,
-15,
-16,
-16,
-14,
-14,
-15,
-15,
-14,
-14,
-13,
-13,
-15,
-15,
-13,
-13,
-13,
-13,
-12,
-12,
-12,
-12,
-10,
-10,
-12,
-12,
-12,
-12,
-11,
-11,
-11,
-11,
-10,
-10,
-9,
-9,
-9,
-9,
-11,
-11,
-8,
-8,
-11,
-11,
-11,
-11,
-10,
-10,
-9,
-9,
-9,
-9,
-8,
-8,
-9,
-9,
-8,
-8,
-8,
-8,
-5,
-5,
-5,
-5,
-4,
-4,
-3,
-3,
-4,
-4,
-1,
-1,
-4,
-4,
-4,
-4,
-3,
-3,
-1,
-1,
-3,
-3,
-1,
-1,
-2,
-2,
-1,
-1,
-2,
-2,
0,
0,
0,
0,
1,
1,
0,
0,
-1,
-1,
1,
1,
0,
0,
0,
0,
0,
0,
1,
1,
-1,
-1,
0,
0,
0,
0,
2,
2,
0,
0,
1,
1,
2,
2,
2,
2,
2,
2,
-1,
-1,
1,
1,
-2,
-2,
-1,
-1,
-1,
-1,
-1,
-1,
0,
0,
1,
1,
-2,
-2,
-1,
-1,
-2,
-2,
0,
0,
-1,
-1,
0,
0,
0,
0,
1,
1,
1,
1,
-1,
-1,
0,
0,
-1,
-1,
1,
1,
1,
1,
1,
1,
-1,
-1,
0,
0,
-1,
-1,
-1,
-1,
-1,
-1,
0,
0,
-1,
-1,
-1,
-1,
-1,
-1,
-1,
-1,
0,
0,
-1,
-1,
0,
0,
0,
0,
-1,
-1,
-1,
-1,
0,
0,
-1,
-1,
0,
0,
-1,
-1,
1,
1,
-1,
-1,
1,
1,
0,
0,
-1,
-1,
1,
1,
0,
0,
2,
2,
3,
3,
2,
2,
1,
1,
1,
1,
0,
0,
3,
3,
2,
2,
3,
3,
2,
2,
1,
1,
2,
2,
0,
0,
0,
0,
0,
0,
2,
2,
1,
1,
1,
1,
1,
1,
2,
2,
1,
1,
2,
2,
2,
2,
2,
2,
3,
3,
2,
2,
1,
1,
2,
2,
1,
1,
0,
0,
2,
2,
2,
2,
4,
4,
2,
2,
4,
4,
1,
1,
3,
3,
3,
3,
2,
2,
1,
1,
2,
2,
3,
3,
1,
1,
2,
2,
2,
2,
3,
3,
1,
1,
2,
2,
2,
2,
2,
2,
2,
2,
2,
2,
2,
2,
4,
4,
3,
3,
2,
2,
4,
4,
3,
3,
3,
3,
2,
2,
2,
2,
2,
2,
3,
3,
3,
3,
3,
3,
2,
2,
3,
3,
4,
4,
3,
3,
3,
3,
5,
5,
4,
4,
2,
2,
3,
3,
2,
2,
3,
3,
2,
2,
2,
2,
2,
2,
2,
2,
1,
1,
3,
3,
3,
3,
2,
2,
3,
3,
3,
3,
2,
2,
-1,
-1,
2,
2,
2,
2,
3,
3,
2,
2,
3,
3,
2,
2,
2,
2,
2,
2,
2,
2,
2,
2,
1,
1,
2,
2,
2,
2,
2,
2,
1,
1,
2,
2,
1,
1,
1,
1,
1,
1,
1,
1,
1,
1,
-1,
-1,
-1,
-1,
-2,
-2,
-1,
-1,
-1,
-1,
0,
0,
0,
0,
-1,
-1,
1,
1,
1,
1,
0,
0,
-1,
-1,
1,
1,
1,
1,
1,
1,
1,
1,
1,
1,
-1,
-1,
0,
0,
-1,
-1,
1,
1,
1,
1,
0,
0,
2,
2,
1,
1,
0,
0,
0,
0,
0,
0,
2,
2,
2,
2,
2,
2,
1,
1,
0,
0,
1,
1,
-1,
-1,
0,
0,
2,
2,
1,
1,
1,
1,
3,
3,
2,
2,
-1,
-1,
1,
1,
2,
2,
3,
3,
1,
1,
2,
2,
1,
1,
1,
1,
1,
1,
1,
1,
3,
3,
1,
1,
2,
2,
2,
2,
1,
1,
0,
0,
2,
2,
2,
2,
2,
2,
2,
2,
2,
2,
1,
1,
2,
2,
1,
1,
-1,
-1,
1,
1,
-1,
-1,
1,
1,
1,
1,
2,
2,
1,
1,
3,
3,
2,
2,
3,
3,
2,
2,
2,
2,
2,
2,
2,
2,
1,
1,
1,
1,
3,
3,
1,
1,
2,
2,
2,
2,
2,
2,
1,
1,
3,
3,
5,
5,
5,
5,
3,
3,
4,
4,
3,
3,
3,
3,
3,
3,
3,
3,
3,
3,
1,
1,
3,
3,
2,
2,
3,
3,
1,
1,
3,
3,
2,
2,
4,
4,
2,
2,
4,
4,
3,
3,
4,
4,
2,
2,
3,
3,
4,
4,
2,
2,
3,
3,
3,
3,
3,
3,
1,
1,
3,
3,
3,
3,
3,
3,
2,
2,
4,
4,
1,
1,
2,
2,
1,
1,
1,
1,
2,
2,
1,
1,
2,
2,
3,
3,
2,
2,
-1,
-1,
2,
2,
1,
1,
0,
0,
-1,
-1,
1,
1,
-1,
-1,
0,
0,
2,
2,
0,
0,
2,
2,
0,
0,
2,
2,
3,
3,
2,
2,
-1,
-1,
1,
1,
1,
1,
2,
2,
0,
0,
2,
2,
0,
0,
2,
2,
1,
1,
1,
1,
2,
2,
0,
0,
2,
2,
3,
3,
2,
2,
-1,
-1,
1,
1,
2,
2,
1,
1,
0,
0,
1,
1,
0,
0,
0,
0,
-1,
-1,
1,
1,
2,
2,
1,
1,
2,
2,
2,
2,
1,
1,
1,
1,
0,
0,
2,
2,
-1,
-1,
0,
0,
1,
1,
0,
0,
0,
0,
0,
0,
-1,
-1,
1,
1,
0,
0,
1,
1,
0,
0,
0,
0,
0,
0,
1,
1,
0,
0,
0,
0,
-1,
-1,
-1,
-1,
-1,
-1,
-1,
-1,
-1,
-1,
-1,
-1,
0,
0,
-1,
-1,
2,
2,
1,
1,
2,
2,
0,
0,
1,
1,
1,
1,
1,
1,
0,
0,
2,
2,
1,
1,
1,
1,
0,
0,
1,
1,
2,
2,
2,
2,
2,
2,
1,
1,
1,
1,
1,
1,
2,
2,
3,
3,
0,
0,
0,
0,
1,
1,
-1,
-1,
1,
1,
1,
1,
0,
0,
1,
1,
0,
0,
1,
1,
1,
1,
2,
2,
2,
2,
2,
2,
2,
2,
2,
2,
2,
2,
3,
3,
2,
2,
3,
3,
1,
1,
2,
2,
2,
2,
2,
2,
3,
3,
2,
2,
2,
2,
3,
3,
2,
2,
3,
3,
2,
2,
1,
1,
2,
2,
1,
1,
3,
3,
0,
0,
2,
2,
2,
2,
2,
2,
3,
3,
1,
1,
3,
3,
2,
2,
2,
2,
2,
2,
3,
3,
2,
2,
3,
3,
2,
2,
2,
2,
1,
1,
1,
1,
2,
2,
1,
1,
3,
3,
1,
1,
1,
1,
1,
1,
-1,
-1,
1,
1,
0,
0,
0,
0,
2,
2,
1,
1,
2,
2,
-1,
-1,
-1,
-1,
0,
0,
-1,
-1,
-1,
-1,
0,
0,
0,
0,
2,
2,
-1,
-1,
-1,
-1,
-1,
-1,
-1,
-1,
0,
0,
-1,
-1,
1,
1,
0,
0,
0,
0,
2,
2,
1,
1,
2,
2,
1,
1,
2,
2,
2,
2,
0,
0,
1,
1,
0,
0,
0,
0,
2,
2,
1,
1,
0,
0,
0,
0,
0,
0,
-1,
-1,
1,
1,
2,
2,
-1,
-1,
1,
1,
1,
1,
-1,
-1,
0,
0,
0,
0,
-1,
-1,
1,
1,
-1,
-1,
0,
0,
0,
0,
1,
1,
0,
0,
2,
2,
2,
2,
2,
2,
2,
2,
2,
2,
1,
1,
2,
2,
0,
0,
1,
1,
1,
1,
0,
0,
1,
1,
1,
1,
1,
1,
-1,
-1,
2,
2,
2,
2,
1,
1,
2,
2,
3,
3,
1,
1,
2,
2,
1,
1,
1,
1,
0,
0,
2,
2,
0,
0,
1,
1,
2,
2,
0,
0,
2,
2,
2,
2,
2,
2,
1,
1,
2,
2,
1,
1,
1,
1,
1,
1,
1,
1,
1,
1,
2,
2,
0,
0,
1,
1,
2,
2,
1,
1,
1,
1,
2,
2,
1,
1,
1,
1,
2,
2,
-1,
-1,
1,
1,
1,
1,
1,
1,
1,
1,
1,
1,
1,
1,
2,
2,
1,
1,
0,
0,
2,
2,
1,
1,
1,
1,
2,
2,
2,
2,
2,
2,
2,
2,
2,
2,
2,
2,
0,
0,
1,
1,
1,
1,
3,
3,
2,
2,
0,
0,
2,
2,
1,
1,
1,
1,
-1,
-1,
1,
1,
1,
1,
1,
1,
1,
1,
1,
1,
-2,
-2,
0,
0,
1,
1,
2,
2,
2,
2,
1,
1,
2,
2,
0,
0,
0,
0,
0,
0,
1,
1,
0,
0,
1,
1,
-1,
-1,
1,
1,
-1,
-1,
-1,
-1,
1,
1,
0,
0,
3,
3,
-1,
-1,
3,
3,
1,
1,
-1,
-1,
-1,
-1,
2,
2,
1,
1,
1,
1,
-1,
-1,
0,
0,
-2,
-2,
-1,
-1,
0,
0,
0,
0,
1,
1,
0,
0,
1,
1,
0,
0,
-1,
-1,
-1,
-1,
1,
1,
0,
0,
0,
0,
-1,
-1,
0,
0,
-1,
-1,
0,
0,
1,
1,
3,
3,
1,
1,
0,
0,
2,
2,
-1,
-1,
-1,
-1,
1,
1,
1,
1,
0,
0,
0,
0,
-1,
-1,
1,
1,
-1,
-1,
0,
0,
0,
0,
2,
2,
1,
1,
-1,
-1,
2,
2,
1,
1,
1,
1,
1,
1,
2,
2,
1,
1,
1,
1,
-1,
-1,
2,
2,
-2,
-2,
0,
0,
1,
1,
2,
2,
2,
2,
1,
1,
4,
4,
1,
1,
1,
1,
2,
2,
2,
2,
1,
1,
1,
1,
1,
1,
2,
2,
0,
0,
2,
2,
1,
1,
3,
3,
2,
2,
1,
1,
3,
3,
1,
1,
1,
1,
1,
1,
3,
3,
2,
2,
2,
2,
2,
2,
4,
4,
2,
2,
3,
3,
3,
3,
2,
2,
3,
3,
2,
2,
3,
3,
1,
1,
2,
2,
0,
0,
2,
2,
1,
1,
1,
1,
1,
1,
3,
3,
1,
1,
3,
3,
2,
2,
3,
3,
2,
2,
2,
2,
2,
2,
1,
1,
0,
0,
-1,
-1,
2,
2,
1,
1,
1,
1,
1,
1,
2,
2,
1,
1,
2,
2,
1,
1,
3,
3,
2,
2,
1,
1,
1,
1,
-1,
-1,
-1,
-1,
-1,
-1,
0,
0,
0,
0,
1,
1,
-1,
-1,
1,
1,
0,
0,
3,
3,
2,
2,
2,
2,
1,
1,
2,
2,
0,
0,
1,
1,
1,
1,
-1,
-1,
2,
2,
0,
0,
0,
0,
0,
0,
2,
2,
-1,
-1,
1,
1,
2,
2,
2,
2,
2,
2,
2,
2,
3,
3,
-1,
-1,
1,
1,
-1,
-1,
1,
1,
2,
2,
0,
0,
1,
1,
1,
1,
1,
1,
1,
1,
-1,
-1,
-1,
-1,
1,
1,
1,
1,
0,
0,
1,
1,
1,
1,
-1,
-1,
0,
0,
0,
0,
-1,
-1,
1,
1,
0,
0,
0,
0,
0,
0,
0,
0,
0,
0,
0,
0,
0,
0,
0,
0,
-1,
-1,
2,
2,
1,
1,
1,
1,
2,
2,
2,
2,
1,
1,
2,
2,
1,
1,
0,
0,
2,
2,
0,
0,
0,
0,
1,
1,
1,
1,
0,
0,
2,
2,
2,
2,
1,
1,
2,
2,
3,
3,
3,
3,
2,
2,
2,
2,
2,
2,
3,
3,
2,
2,
2,
2,
3,
3,
1,
1,
1,
1,
2,
2,
2,
2,
2,
2,
3,
3,
1,
1,
3,
3,
3,
3,
4,
4,
3,
3,
1,
1,
1,
1,
1,
1,
3,
3,
1,
1,
1,
1,
3,
3,
2,
2,
1,
1,
2,
2,
2,
2,
3,
3,
4,
4,
4,
4,
2,
2,
3,
3,
2,
2,
2,
2,
3,
3,
1,
1,
2,
2,
4,
4,
4,
4,
2,
2,
4,
4,
4,
4,
3,
3,
3,
3,
4,
4,
4,
4,
3,
3,
3,
3,
2,
2,
4,
4,
3,
3,
1,
1,
4,
4,
3,
3,
2,
2,
4,
4,
3,
3,
3,
3,
2,
2,
1,
1,
2,
2,
3,
3,
0,
0,
1,
1,
1,
1,
0,
0,
1,
1,
0,
0,
1,
1,
-1,
-1,
1,
1,
1,
1,
2,
2,
0,
0,
1,
1,
0,
0,
2,
2,
0,
0,
-1,
-1,
2,
2,
-1,
-1,
-1,
-1,
0,
0,
-1,
-1,
0,
0,
1,
1,
-1,
-1,
0,
0,
-1,
-1,
-1,
-1,
-1,
-1,
1,
1,
-1,
-1,
-1,
-1,
0,
0,
-1,
-1,
-1,
-1,
1,
1,
-1,
-1,
-1,
-1,
0,
0,
0,
0,
-1,
-1,
-1,
-1,
0,
0,
-1,
-1,
-1,
-1,
-1,
-1,
-1,
-1,
-1,
-1,
-1,
-1,
1,
1,
1,
1,
2,
2,
1,
1,
1,
1,
1,
1,
1,
1,
0,
0,
0,
0,
-1,
-1,
2,
2,
-1,
-1,
0,
0,
2,
2,
-1,
-1,
1,
1,
3,
3,
2,
2,
0,
0,
1,
1,
1,
1,
2,
2,
0,
0,
2,
2,
1,
1,
1,
1,
-1,
-1,
-1,
-1,
2,
2,
0,
