donnees_brutes_CSV/mesures_20_mV.CSV

Memory Length,4000,
Trigger Level,-8.80000e+01,
Source,CH1,
Probe,1.0X,
Vertical Units,V,
Vertical Scale,5.00000e-02,
Vertical Position,1.00000e-01,
Horizontal Units,S,
Horizontal Scale,2.50000e-05,
Horizontal Position,0.0000000e+00,
Horizontal Mode,Main,
Sampling Period,1.00000e-07,
Firmware,V1.14,
Time, ,
Mode,Fast,
Waveform Data,
-61,
-61,
-61,
-62,
-62,
-61,
-61,
-61,
-61,
-61,
-61,
-61,
-61,
-61,
-61,
-61,
-61,
-60,
-60,
-61,
-61,
-62,
-62,
-61,
-61,
-60,
-60,
-60,
-60,
-61,
-61,
-61,
-61,
-60,
-60,
-60,
-60,
-62,
-62,
-62,
-62,
-60,
-60,
-63,
-63,
-61,
-61,
-59,
-59,
-61,
-61,
-61,
-61,
-61,
-61,
-61,
-61,
-60,
-60,
-61,
-61,
-62,
-62,
-61,
-61,
-61,
-61,
-62,
-62,
-62,
-62,
-61,
-61,
-62,
-62,
-61,
-61,
-62,
-62,
-63,
-63,
-64,
-64,
-62,
-62,
-61,
-61,
-60,
-60,
-63,
-63,
-60,
-60,
-61,
-61,
-61,
-61,
-63,
-63,
-62,
-62,
-62,
-62,
-63,
-63,
-61,
-61,
-60,
-60,
-62,
-62,
-63,
-63,
-62,
-62,
-61,
-61,
-61,
-61,
-61,
-61,
-62,
-62,
-62,
-62,
-62,
-62,
-64,
-64,
-62,
-62,
-62,
-62,
-63,
-63,
-61,
-61,
-61,
-61,
-60,
-60,
-65,
-65,
-61,
-61,
-61,
-61,
-61,
-61,
-61,
-61,
-60,
-60,
-61,
-61,
-60,
-60,
-60,
-60,
-61,
-61,
-59,
-59,
-60,
-60,
-60,
-60,
-59,
-59,
-59,
-59,
-61,
-61,
-59,
-59,
-59,
-59,
-59,
-59,
-58,
-58,
-59,
-59,
-60,
-60,
-61,
-61,
-62,
-62,
-61,
-61,
-60,
-60,
-61,
-61,
-59,
-59,
-59,
-59,
-59,
-59,
-61,
-61,
-59,
-59,
-59,
-59,
-60,
-60,
-60,
-60,
-59,
-59,
-61,
-61,
-61,
-61,
-61,
-61,
-63,
-63,
-61,
-61,
-62,
-62,
-60,
-60,
-60,
-60,
-62,
-62,
-62,
-62,
-59,
-59,
-59,
-59,
-61,
-61,
-60,
-60,
-59,
-59,
-62,
-62,
-61,
-61,
-63,
-63,
-62,
-62,
-61,
-61,
-62,
-62,
-61,
-61,
-62,
-62,
-60,
-60,
-62,
-62,
-61,
-61,
-60,
-60,
-61,
-61,
-62,
-62,
-60,
-60,
-62,
-62,
-61,
-61,
-61,
-61,
-62,
-62,
-60,
-60,
-61,
-61,
-60,
-60,
-60,
-60,
-60,
-60,
-62,
-62,
-61,
-61,
-61,
-61,
-61,
-61,
-61,
-61,
-59,
-59,
-61,
-61,
-61,
-61,
-61,
-61,
-61,
-61,
-60,
-60,
-60,
-60,
-61,
-61,
-62,
-62,
-62,
-62,
-63,
-63,
-61,
-61,
-62,
-62,
-61,
-61,
-62,
-62,
-62,
-62,
-62,
-62,
-61,
-61,
-63,
-63,
-61,
-61,
-61,
-61,
-61,
-61,
-60,
-60,
-61,
-61,
-61,
-61,
-61,
-61,
-60,
-60,
-61,
-61,
-62,
-62,
-63,
-63,
-62,
-62,
-63,
-63,
-62,
-62,
-64,
-64,
-65,
-65,
-62,
-62,
-63,
-63,
-61,
-61,
-61,
-61,
-61,
-61,
-64,
-64,
-61,
-61,
-61,
-61,
-61,
-61,
-62,
-62,
-61,
-61,
-62,
-62,
-62,
-62,
-63,
-63,
-63,
-63,
-61,
-61,
-64,
-64,
-62,
-62,
-61,
-61,
-61,
-61,
-62,
-62,
-60,
-60,
-60,
-60,
-60,
-60,
-61,
-61,
-59,
-59,
-62,
-62,
-61,
-61,
-61,
-61,
-63,
-63,
-60,
-60,
-60,
-60,
-61,
-61,
-61,
-61,
-61,
-61,
-62,
-62,
-61,
-61,
-61,
-61,
-62,
-62,
-62,
-62,
-60,
-60,
-62,
-62,
-62,
-62,
-63,
-63,
-65,
-65,
-61,
-61,
-63,
-63,
-61,
-61,
-61,
-61,
-61,
-61,
-62,
-62,
-62,
-62,
-62,
-62,
-62,
-62,
-62,
-62,
-60,
-60,
-61,
-61,
-61,
-61,
-64,
-64,
-62,
-62,
-61,
-61,
-64,
-64,
-60,
-60,
-61,
-61,
-61,
-61,
-63,
-63,
-62,
-62,
-62,
-62,
-62,
-62,
-64,
-64,
-60,
-60,
-62,
-62,
-61,
-61,
-62,
-62,
-62,
-62,
-60,
-60,
-62,
-62,
-61,
-61,
-61,
-61,
-60,
-60,
-62,
-62,
-62,
-62,
-62,
-62,
-61,
-61,
-62,
-62,
-60,
-60,
-61,
-61,
-60,
-60,
-63,
-63,
-62,
-62,
-60,
-60,
-62,
-62,
-59,
-59,
-60,
-60,
-61,
-61,
-60,
-60,
-61,
-61,
-61,
-61,
-60,
-60,
-60,
-60,
-59,
-59,
-62,
-62,
-61,
-61,
-62,
-62,
-62,
-62,
-61,
-61,
-62,
-62,
-61,
-61,
-61,
-61,
-59,
-59,
-60,
-60,
-60,
-60,
-61,
-61,
-61,
-61,
-60,
-60,
-59,
-59,
-62,
-62,
-61,
-61,
-60,
-60,
-62,
-62,
-64,
-64,
-63,
-63,
-61,
-61,
-62,
-62,
-62,
-62,
-62,
-62,
-62,
-62,
-62,
-62,
-63,
-63,
-64,
-64,
-62,
-62,
-64,
-64,
-62,
-62,
-62,
-62,
-62,
-62,
-63,
-63,
-63,
-63,
-62,
-62,
-63,
-63,
-63,
-63,
-61,
-61,
-64,
-64,
-64,
-64,
-64,
-64,
-64,
-64,
-61,
-61,
-64,
-64,
-63,
-63,
-61,
-61,
-62,
-62,
-64,
-64,
-61,
-61,
-63,
-63,
-62,
-62,
-61,
-61,
-62,
-62,
-63,
-63,
-63,
-63,
-63,
-63,
-64,
-64,
-62,
-62,
-64,
-64,
-64,
-64,
-62,
-62,
-62,
-62,
-65,
-65,
-62,
-62,
-63,
-63,
-62,
-62,
-62,
-62,
-61,
-61,
-62,
-62,
-62,
-62,
-62,
-62,
-63,
-63,
-62,
-62,
-63,
-63,
-64,
-64,
-62,
-62,
-61,
-61,
-64,
-64,
-62,
-62,
-64,
-64,
-63,
-63,
-61,
-61,
-61,
-61,
-62,
-62,
-61,
-61,
-62,
-62,
-62,
-62,
-63,
-63,
-61,
-61,
-62,
-62,
-62,
-62,
-63,
-63,
-63,
-63,
-63,
-63,
-61,
-61,
-63,
-63,
-62,
-62,
-61,
-61,
-61,
-61,
-63,
-63,
-62,
-62,
-63,
-63,
-62,
-62,
-61,
-61,
-61,
-61,
-60,
-60,
-61,
-61,
-61,
-61,
-60,
-60,
-60,
-60,
-62,
-62,
-61,
-61,
-61,
-61,
-62,
-62,
-61,
-61,
-62,
-62,
-61,
-61,
-62,
-62,
-61,
-61,
-61,
-61,
-61,
-61,
-62,
-62,
-63,
-63,
-61,
-61,
-62,
-62,
-64,
-64,
-62,
-62,
-62,
-62,
-64,
-64,
-63,
-63,
-63,
-63,
-61,
-61,
-62,
-62,
-61,
-61,
-63,
-63,
-62,
-62,
-61,
-61,
-64,
-64,
-62,
-62,
-62,
-62,
-64,
-64,
-64,
-64,
-60,
-60,
-64,
-64,
-63,
-63,
-65,
-65,
-62,
-62,
-64,
-64,
-62,
-62,
-62,
-62,
-62,
-62,
-61,
-61,
-63,
-63,
-61,
-61,
-60,
-60,
-62,
-62,
-62,
-62,
-60,
-60,
-62,
-62,
-61,
-61,
-62,
-62,
-61,
-61,
-63,
-63,
-62,
-62,
-63,
-63,
-62,
-62,
-62,
-62,
-62,
-62,
-60,
-60,
-61,
-61,
-62,
-62,
-62,
-62,
-62,
-62,
-62,
-62,
-62,
-62,
-61,
-61,
-61,
-61,
-62,
-62,
-59,
-59,
-61,
-61,
-60,
-60,
-60,
-60,
-63,
-63,
-60,
-60,
-63,
-63,
-63,
-63,
-63,
-63,
-60,
-60,
-63,
-63,
-61,
-61,
-62,
-62,
-62,
-62,
-63,
-63,
-61,
-61,
-62,
-62,
-60,
-60,
-60,
-60,
-63,
-63,
-60,
-60,
-61,
-61,
-62,
-62,
-62,
-62,
-61,
-61,
-64,
-64,
-63,
-63,
-62,
-62,
-60,
-60,
-63,
-63,
-61,
-61,
-62,
-62,
-61,
-61,
-61,
-61,
-62,
-62,
-60,
-60,
-61,
-61,
-63,
-63,
-64,
-64,
-61,
-61,
-61,
-61,
-61,
-61,
-62,
-62,
-61,
-61,
-62,
-62,
-60,
-60,
-63,
-63,
-60,
-60,
-60,
-60,
-61,
-61,
-60,
-60,
-61,
-61,
-62,
-62,
-61,
-61,
-60,
-60,
-61,
-61,
-61,
-61,
-61,
-61,
-61,
-61,
-61,
-61,
-59,
-59,
-61,
-61,
-61,
-61,
-60,
-60,
-60,
-60,
-61,
-61,
-62,
-62,
-62,
-62,
-62,
-62,
-61,
-61,
-63,
-63,
-62,
-62,
-63,
-63,
-62,
-62,
-62,
-62,
-62,
-62,
-64,
-64,
-63,
-63,
-63,
-63,
-62,
-62,
-61,
-61,
-63,
-63,
-63,
-63,
-62,
-62,
-62,
-62,
-62,
-62,
-62,
-62,
-62,
-62,
-61,
-61,
-64,
-64,
-62,
-62,
-63,
-63,
-62,
-62,
-61,
-61,
-63,
-63,
-64,
-64,
-64,
-64,
-64,
-64,
-63,
-63,
-64,
-64,
-63,
-63,
-62,
-62,
-61,
-61,
-61,
-61,
-62,
-62,
-61,
-61,
-62,
-62,
-62,
-62,
-62,
-62,
-62,
-62,
-63,
-63,
-65,
-65,
-62,
-62,
-64,
-64,
-64,
-64,
-63,
-63,
-62,
-62,
-61,
-61,
-60,
-60,
-61,
-61,
-61,
-61,
-62,
-62,
-60,
-60,
-61,
-61,
-61,
-61,
-62,
-62,
-61,
-61,
-61,
-61,
-62,
-62,
-62,
-62,
-63,
-63,
-62,
-62,
-62,
-62,
-60,
-60,
-61,
-61,
-59,
-59,
-61,
-61,
-60,
-60,
-62,
-62,
-61,
-61,
-61,
-61,
-62,
-62,
-61,
-61,
-61,
-61,
-61,
-61,
-61,
-61,
-61,
-61,
-61,
-61,
-60,
-60,
-62,
-62,
-61,
-61,
-61,
-61,
-59,
-59,
-59,
-59,
-60,
-60,
-60,
-60,
-60,
-60,
-60,
-60,
-61,
-61,
-61,
-61,
-61,
-61,
-60,
-60,
-60,
-60,
-60,
-60,
-61,
-61,
-60,
-60,
-60,
-60,
-61,
-61,
-62,
-62,
-61,
-61,
-62,
-62,
-62,
-62,
-61,
-61,
-61,
-61,
-60,
-60,
-61,
-61,
-62,
-62,
-60,
-60,
-62,
-62,
-61,
-61,
-60,
-60,
-62,
-62,
-60,
-60,
-61,
-61,
-61,
-61,
-59,
-59,
-61,
-61,
-61,
-61,
-61,
-61,
-60,
-60,
-62,
-62,
-60,
-60,
-60,
-60,
-61,
-61,
-62,
-62,
-61,
-61,
-61,
-61,
-62,
-62,
-62,
-62,
-63,
-63,
-63,
-63,
-62,
-62,
-61,
-61,
-64,
-64,
-63,
-63,
-62,
-62,
-63,
-63,
-63,
-63,
-63,
-63,
-65,
-65,
-65,
-65,
-65,
-65,
-65,
-65,
-65,
-65,
-65,
-65,
-66,
-66,
-66,
-66,
-65,
-65,
-65,
-65,
-67,
-67,
-65,
-65,
-65,
-65,
-65,
-65,
-65,
-65,
-65,
-65,
-65,
-65,
-64,
-64,
-65,
-65,
-66,
-66,
-65,
-65,
-67,
-67,
-67,
-67,
-66,
-66,
-68,
-68,
-67,
-67,
-66,
-66,
-68,
-68,
-67,
-67,
-68,
-68,
-68,
-68,
-67,
-67,
-67,
-67,
-66,
-66,
-66,
-66,
-66,
-66,
-68,
-68,
-67,
-67,
-66,
-66,
-66,
-66,
-67,
-67,
-65,
-65,
-67,
-67,
-67,
-67,
-67,
-67,
-67,
-67,
-68,
-68,
-67,
-67,
-68,
-68,
-67,
-67,
-68,
-68,
-67,
-67,
-67,
-67,
-66,
-66,
-66,
-66,
-67,
-67,
-65,
-65,
-65,
-65,
-65,
-65,
-67,
-67,
-65,
-65,
-66,
-66,
-65,
-65,
-66,
-66,
-65,
-65,
-65,
-65,
-67,
-67,
-65,
-65,
-65,
-65,
-65,
-65,
-67,
-67,
-66,
-66,
-65,
-65,
-65,
-65,
-65,
-65,
-65,
-65,
-66,
-66,
-65,
-65,
-66,
-66,
-65,
-65,
-65,
-65,
-66,
-66,
-64,
-64,
-65,
-65,
-65,
-65,
-65,
-65,
-65,
-65,
-65,
-65,
-65,
-65,
-65,
-65,
-66,
-66,
-66,
-66,
-65,
-65,
-66,
-66,
-66,
-66,
-65,
-65,
-67,
-67,
-65,
-65,
-64,
-64,
-65,
-65,
-65,
-65,
-65,
-65,
-64,
-64,
-64,
-64,
-64,
-64,
-64,
-64,
-64,
-64,
-63,
-63,
-66,
-66,
-65,
-65,
-64,
-64,
-65,
-65,
-63,
-63,
-63,
-63,
-63,
-63,
-63,
-63,
-63,
-63,
-63,
-63,
-63,
-63,
-64,
-64,
-61,
-61,
-63,
-63,
-62,
-62,
-64,
-64,
-65,
-65,
-63,
-63,
-64,
-64,
-62,
-62,
-64,
-64,
-63,
-63,
-63,
-63,
-64,
-64,
-65,
-65,
-64,
-64,
-65,
-65,
-64,
-64,
-65,
-65,
-64,
-64,
-65,
-65,
-64,
-64,
-63,
-63,
-63,
-63,
-60,
-60,
-61,
-61,
-60,
-60,
-61,
-61,
-62,
-62,
-62,
-62,
-61,
-61,
-64,
-64,
-61,
-61,
-62,
-62,
-62,
-62,
-63,
-63,
-63,
-63,
-61,
-61,
-63,
-63,
-59,
-59,
-60,
-60,
-60,
-60,
-61,
-61,
-61,
-61,
-62,
-62,
-62,
-62,
-62,
-62,
-62,
-62,
-62,
-62,
-62,
-62,
-65,
-65,
-61,
-61,
-63,
-63,
-64,
-64,
-62,
-62,
-61,
-61,
-60,
-60,
-61,
-61,
-61,
-61,
-60,
-60,
-60,
-60,
-61,
-61,
-61,
-61,
-62,
-62,
-62,
-62,
-63,
-63,
-62,
-62,
-61,
-61,
-62,
-62,
-60,
-60,
-60,
-60,
-59,
-59,
-60,
-60,
-60,
-60,
-59,
-59,
-60,
-60,
-59,
-59,
-59,
-59,
-59,
-59,
-58,
-58,
-59,
-59,
-59,
-59,
-58,
-58,
-59,
-59,
-59,
-59,
-58,
-58,
-58,
-58,
-59,
-59,
-58,
-58,
-58,
-58,
-59,
-59,
-60,
-60,
-58,
-58,
-59,
-59,
-58,
-58,
-57,
-57,
-59,
-59,
-57,
-57,
-58,
-58,
-57,
-57,
-58,
-58,
-58,
-58,
-58,
-58,
-57,
-57,
-58,
-58,
-57,
-57,
-58,
-58,
-58,
-58,
-59,
-59,
-59,
-59,
-57,
-57,
-58,
-58,
-57,
-57,
-58,
-58,
-59,
-59,
-61,
-61,
-59,
-59,
-60,
-60,
-59,
-59,
-59,
-59,
-59,
-59,
-59,
-59,
-59,
-59,
-60,
-60,
-59,
-59,
-60,
-60,
-60,
-60,
-58,
-58,
-59,
-59,
-59,
-59,
-59,
-59,
-57,
-57,
-58,
-58,
-58,
-58,
-59,
-59,
-58,
-58,
-59,
-59,
-57,
-57,
-59,
-59,
-58,
-58,
-58,
-58,
-58,
-58,
-58,
-58,
-58,
-58,
-58,
-58,
-59,
-59,
-58,
-58,
-58,
-58,
-58,
-58,
-58,
-58,
-59,
-59,
-59,
-59,
-58,
-58,
-59,
-59,
-59,
-59,
-59,
-59,
-59,
-59,
-59,
-59,
-59,
-59,
-57,
-57,
-59,
-59,
-57,
-57,
-58,
-58,
-59,
-59,
-58,
-58,
-56,
-56,
-57,
-57,
-57,
-57,
-57,
-57,
-58,
-58,
-58,
-58,
-59,
-59,
-59,
-59,
-58,
-58,
-57,
-57,
-58,
-58,
-57,
-57,
-58,
-58,
-59,
-59,
-58,
-58,
-59,
-59,
-58,
-58,
-57,
-57,
-58,
-58,
-57,
-57,
-58,
-58,
-58,
-58,
-57,
-57,
-57,
-57,
-57,
-57,
-58,
-58,
-59,
-59,
-59,
-59,
-58,
-58,
-56,
-56,
-55,
-55,
-53,
-53,
-51,
-51,
-52,
-52,
-51,
-51,
-49,
-49,
-49,
-49,
-47,
-47,
-46,
-46,
-46,
-46,
-48,
-48,
-46,
-46,
-45,
-45,
-45,
-45,
-44,
-44,
-46,
-46,
-45,
-45,
-44,
-44,
-43,
-43,
-45,
-45,
-44,
-44,
-43,
-43,
-44,
-44,
-40,
-40,
-42,
-42,
-44,
-44,
-40,
-40,
-43,
-43,
-43,
-43,
-43,
-43,
-44,
-44,
-43,
-43,
-44,
-44,
-43,
-43,
-42,
-42,
-42,
-42,
-43,
-43,
-44,
-44,
-41,
-41,
-43,
-43,
-44,
-44,
-44,
-44,
-43,
-43,
-43,
-43,
-44,
-44,
-45,
-45,
-43,
-43,
-44,
-44,
-45,
-45,
-45,
-45,
-45,
-45,
-43,
-43,
-45,
-45,
-44,
-44,
-44,
-44,
-46,
-46,
-45,
-45,
-45,
-45,
-45,
-45,
-44,
-44,
-46,
-46,
-44,
-44,
-43,
-43,
-44,
-44,
-45,
-45,
-44,
-44,
-43,
-43,
-44,
-44,
-44,
-44,
-46,
-46,
-47,
-47,
-47,
-47,
-46,
-46,
-46,
-46,
-47,
-47,
-48,
-48,
-47,
-47,
-47,
-47,
-45,
-45,
-48,
-48,
-45,
-45,
-45,
-45,
-47,
-47,
-45,
-45,
-47,
-47,
-46,
-46,
-47,
-47,
-45,
-45,
-47,
-47,
-47,
-47,
-47,
-47,
-45,
-45,
-47,
-47,
-45,
-45,
-47,
-47,
-44,
-44,
-45,
-45,
-45,
-45,
-43,
-43,
-47,
-47,
-46,
-46,
-46,
-46,
-45,
-45,
-47,
-47,
-45,
-45,
-45,
-45,
-44,
-44,
-45,
-45,
-44,
-44,
-44,
-44,
-44,
-44,
-43,
-43,
-43,
-43,
-41,
-41,
-43,
-43,
-44,
-44,
-43,
-43,
-41,
-41,
-44,
-44,
-43,
-43,
-44,
-44,
-43,
-43,
-45,
-45,
-45,
-45,
-46,
-46,
-46,
-46,
-45,
-45,
-47,
-47,
-45,
-45,
-47,
-47,
-47,
-47,
-47,
-47,
-46,
-46,
-47,
-47,
-45,
-45,
-46,
-46,
-45,
-45,
-47,
-47,
-45,
-45,
-46,
-46,
-44,
-44,
-44,
-44,
-46,
-46,
-44,
-44,
-45,
-45,
-45,
-45,
-45,
-45,
-44,
-44,
-46,
-46,
-45,
-45,
-44,
-44,
-44,
-44,
-45,
-45,
-44,
-44,
-45,
-45,
-44,
-44,
-43,
-43,
-46,
-46,
-44,
-44,
-46,
-46,
-44,
-44,
-45,
-45,
-44,
-44,
-45,
-45,
-45,
-45,
-45,
-45,
-44,
-44,
-45,
-45,
-44,
-44,
-46,
-46,
-45,
-45,
-44,
-44,
-44,
-44,
-45,
-45,
-45,
-45,
-45,
-45,
-46,
-46,
-44,
-44,
-45,
-45,
-46,
-46,
-44,
-44,
-45,
-45,
-45,
-45,
-44,
-44,
-44,
-44,
-45,
-45,
-44,
-44,
-45,
-45,
-46,
-46,
-46,
-46,
-45,
-45,
-46,
-46,
-43,
-43,
-45,
-45,
-45,
-45,
-44,
-44,
-45,
-45,
-45,
-45,
-45,
-45,
-45,
-45,
-43,
-43,
-44,
-44,
-44,
-44,
-44,
-44,
-45,
-45,
-44,
-44,
-45,
-45,
-45,
-45,
-43,
-43,
-44,
-44,
-46,
-46,
-45,
-45,
-47,
-47,
-45,
-45,
-46,
-46,
-44,
-44,
-45,
-45,
-45,
-45,
-44,
-44,
-46,
-46,
-45,
-45,
-45,
-45,
-46,
-46,
-45,
-45,
-45,
-45,
-45,
-45,
-45,
-45,
-45,
-45,
-45,
-45,
-45,
-45,
-45,
-45,
-45,
-45,
-44,
-44,
-44,
-44,
-45,
-45,
-43,
-43,
-43,
-43,
-42,
-42,
-43,
-43,
-43,
-43,
-43,
-43,
-43,
-43,
-43,
-43,
-43,
-43,
-42,
-42,
-42,
-42,
-44,
-44,
-44,
-44,
-43,
-43,
-43,
-43,
-41,
-41,
-43,
-43,
-42,
-42,
-43,
-43,
-42,
-42,
-43,
-43,
-43,
-43,
-44,
-44,
-43,
-43,
-43,
-43,
-43,
-43,
-45,
-45,
-43,
-43,
-44,
-44,
-45,
-45,
-43,
-43,
-43,
-43,
-45,
-45,
-42,
-42,
-42,
-42,
-42,
-42,
-42,
-42,
-44,
-44,
-43,
-43,
-43,
-43,
-43,
-43,
-43,
-43,
-43,
-43,
-43,
-43,
-45,
-45,
-43,
-43,
-43,
-43,
-44,
-44,
-43,
-43,
-44,
-44,
-43,
-43,
-44,
-44,
-43,
-43,
-42,
-42,
-42,
-42,
-43,
-43,
-43,
-43,
-42,
-42,
-42,
-42,
-43,
-43,
-43,
-43,
-43,
-43,
-43,
-43,
-43,
-43,
-42,
-42,
-43,
-43,
-44,
-44,
-44,
-44,
-43,
-43,
-42,
-42,
-44,
-44,
-43,
-43,
-43,
-43,
-44,
-44,
-45,
-45,
-43,
-43,
-43,
-43,
-44,
-44,
-43,
-43,
-44,
-44,
-44,
-44,
-45,
-45,
-45,
-45,
-45,
-45,
-45,
-45,
-45,
-45,
-45,
-45,
-44,
-44,
-45,
-45,
-44,
-44,
-44,
-44,
-43,
-43,
-43,
-43,
-39,
-39,
-37,
-37,
-35,
-35,
-34,
-34,
-31,
-31,
-29,
-29,
-27,
-27,
-26,
-26,
-26,
-26,
-24,
-24,
-25,
-25,
-21,
-21,
-21,
-21,
-20,
-20,
-21,
-21,
-19,
-19,
-19,
-19,
-17,
-17,
-19,
-19,
-18,
-18,
-18,
-18,
-19,
-19,
-19,
-19,
-19,
-19,
-17,
-17,
-19,
-19,
-17,
-17,
-17,
-17,
-16,
-16,
-17,
-17,
-16,
-16,
-17,
-17,
-17,
-17,
-16,
-16,
-16,
-16,
-16,
-16,
-17,
-17,
-17,
-17,
-17,
-17,
-17,
-17,
-19,
-19,
-17,
-17,
-16,
-16,
-16,
-16,
-17,
-17,
-17,
-17,
-16,
-16,
-16,
-16,
-16,
-16,
-17,
-17,
-17,
-17,
-17,
-17,
-17,
-17,
-17,
-17,
-16,
-16,
-19,
-19,
-17,
-17,
-17,
-17,
-17,
-17,
-18,
-18,
-17,
-17,
-17,
-17,
-17,
-17,
-19,
-19,
-17,
-17,
-17,
-17,
-17,
-17,
-17,
-17,
-17,
-17,
-16,
-16,
-19,
-19,
-17,
-17,
-17,
-17,
-17,
-17,
-19,
-19,
-18,
-18,
-19,
-19,
-18,
-18,
-18,
-18,
-17,
-17,
-19,
-19,
-18,
-18,
-19,
-19,
-17,
-17,
-16,
-16,
-19,
-19,
-16,
-16,
-17,
-17,
-15,
-15,
-17,
-17,
-16,
-16,
-17,
-17,
-15,
-15,
-16,
-16,
-15,
-15,
-16,
-16,
-16,
-16,
-16,
-16,
-16,
-16,
-15,
-15,
-17,
-17,
-14,
-14,
-14,
-14,
-13,
-13,
-16,
-16,
-13,
-13,
-16,
-16,
-14,
-14,
-15,
-15,
-14,
-14,
-16,
-16,
-14,
-14,
-15,
-15,
-15,
-15,
-14,
-14,
-15,
-15,
-13,
-13,
-15,
-15,
-15,
-15,
-15,
-15,
-13,
-13,
-15,
-15,
-15,
-15,
-16,
-16,
-15,
-15,
-17,
-17,
-15,
-15,
-16,
-16,
-17,
-17,
-15,
-15,
-15,
-15,
-14,
-14,
-14,
-14,
-15,
-15,
-15,
-15,
-15,
-15,
-16,
-16,
-15,
-15,
-15,
-15,
-14,
-14,
-17,
-17,
-16,
-16,
-15,
-15,
-17,
-17,
-16,
-16,
-15,
-15,
-13,
-13,
-13,
-13,
-13,
-13,
-13,
-13,
-13,
-13,
-13,
-13,
-15,
-15,
-15,
-15,
-15,
-15,
-16,
-16,
-16,
-16,
-16,
-16,
-17,
-17,
-16,
-16,
-16,
-16,
-15,
-15,
-15,
-15,
-16,
-16,
-17,
-17,
-14,
-14,
-16,
-16,
-15,
-15,
-16,
-16,
-14,
-14,
-15,
-15,
-15,
-15,
-16,
-16,
-15,
-15,
-14,
-14,
-15,
-15,
-14,
-14,
-15,
-15,
-15,
-15,
-15,
-15,
-15,
-15,
-15,
-15,
-15,
-15,
-16,
-16,
-14,
-14,
-16,
-16,
-16,
-16,
-15,
-15,
-15,
-15,
-13,
-13,
-13,
-13,
-14,
-14,
-14,
-14,
-14,
-14,
-15,
-15,
-14,
-14,
-14,
-14,
-13,
-13,
-14,
-14,
-14,
-14,
-14,
-14,
-14,
-14,
-14,
-14,
-14,
-14,
-13,
-13,
-13,
-13,
-13,
-13,
-14,
-14,
-13,
-13,
-14,
-14,
-13,
-13,
-15,
-15,
-14,
-14,
-14,
-14,
-13,
-13,
-13,
-13,
-14,
-14,
-14,
-14,
-14,
-14,
-14,
-14,
-13,
-13,
-13,
-13,
-14,
-14,
-14,
-14,
-14,
-14,
-13,
-13,
-15,
-15,
-15,
-15,
-15,
-15,
-14,
-14,
-14,
-14,
-14,
-14,
-15,
-15,
-15,
-15,
-14,
-14,
-14,
-14,
-15,
-15,
-15,
-15,
-15,
-15,
-14,
-14,
-15,
-15,
-16,
-16,
-16,
-16,
-16,
-16,
-15,
-15,
-16,
-16,
-17,
-17,
-16,
-16,
-15,
-15,
-16,
-16,
-15,
-15,
-16,
-16,
-16,
-16,
-15,
-15,
-15,
-15,
-16,
-16,
-15,
-15,
-15,
-15,
-15,
-15,
-14,
-14,
-14,
-14,
-14,
-14,
-15,
-15,
-12,
-12,
-14,
-14,
-13,
-13,
-13,
-13,
-14,
-14,
-14,
-14,
-14,
-14,
-14,
-14,
-14,
-14,
-14,
-14,
-15,
-15,
-14,
-14,
-14,
-14,
-14,
-14,
-13,
-13,
-14,
-14,
-13,
-13,
-11,
-11,
-14,
-14,
-13,
-13,
-13,
-13,
-13,
-13,
-14,
-14,
-14,
-14,
-13,
-13,
-15,
-15,
-15,
-15,
-13,
-13,
-13,
-13,
-13,
-13,
-11,
-11,
-13,
-13,
-12,
-12,
-13,
-13,
-13,
-13,
-12,
-12,
-12,
-12,
-15,
-15,
-13,
-13,
-15,
-15,
-14,
-14,
-15,
-15,
-13,
-13,
-15,
-15,
-15,
-15,
-14,
-14,
-13,
-13,
-12,
-12,
-15,
-15,
-14,
-14,
-15,
-15,
-14,
-14,
-15,
-15,
-16,
-16,
-15,
-15,
-15,
-15,
-16,
-16,
-14,
-14,
-15,
-15,
-15,
-15,
-13,
-13,
-15,
-15,
-14,
-14,
-15,
-15,
-13,
-13,
-15,
-15,
-13,
-13,
-15,
-15,
-14,
-14,
-14,
-14,
-14,
-14,
-15,
-15,
-15,
-15,
-15,
-15,
-14,
-14,
-14,
-14,
-15,
-15,
-15,
-15,
-15,
-15,
-15,
-15,
-16,
-16,
-13,
-13,
-16,
-16,
-16,
-16,
-15,
-15,
-15,
-15,
-15,
-15,
-15,
-15,
-16,
-16,
-14,
-14,
-13,
-13,
-15,
-15,
-13,
-13,
-13,
-13,
-15,
-15,
-15,
-15,
-13,
-13,
-15,
-15,
-14,
-14,
-14,
-14,
-13,
-13,
-15,
-15,
-14,
-14,
-15,
-15,
-14,
-14,
-14,
-14,
-15,
-15,
-13,
-13,
-15,
-15,
-16,
-16,
-16,
-16,
-14,
-14,
-15,
-15,
-16,
-16,
-15,
-15,
-14,
-14,
-15,
-15,
-12,
-12,
-13,
-13,
-13,
-13,
-13,
-13,
-15,
-15,
-13,
-13,
-15,
-15,
-15,
-15,
-15,
-15,
-14,
-14,
-15,
-15,
-16,
-16,
-15,
-15,
-14,
-14,
-15,
-15,
-14,
-14,
-15,
-15,
-13,
-13,
-12,
-12,
-14,
-14,
-13,
-13,
-15,
-15,
-14,
-14,
-16,
-16,
-13,
-13,
-14,
-14,
-14,
-14,
-15,
-15,
-13,
-13,
-14,
-14,
-13,
-13,
-14,
-14,
-13,
-13,
-12,
-12,
-14,
-14,
-12,
-12,
-12,
-12,
-13,
-13,
-14,
-14,
-11,
-11,
-12,
-12,
-13,
-13,
-12,
-12,
-10,
-10,
-13,
-13,
-10,
-10,
-12,
-12,
-11,
-11,
-12,
-12,
-12,
-12,
-10,
-10,
-11,
-11,
-12,
-12,
-14,
-14,
-11,
-11,
-11,
-11,
-12,
-12,
-12,
-12,
-10,
-10,
-13,
-13,
-11,
-11,
-12,
-12,
-11,
-11,
-11,
-11,
-13,
-13,
-11,
-11,
-13,
-13,
-11,
-11,
-12,
-12,
-11,
-11,
-12,
-12,
-12,
-12,
-12,
-12,
-11,
-11,
-13,
-13,
-12,
-12,
-13,
-13,
-12,
-12,
-12,
-12,
-13,
-13,
-11,
-11,
-15,
-15,
-13,
-13,
-14,
-14,
-14,
-14,
-15,
-15,
-15,
-15,
-15,
-15,
-13,
-13,
-15,
-15,
-13,
-13,
-15,
-15,
-13,
-13,
-13,
-13,
-15,
-15,
-15,
-15,
-15,
-15,
-15,
-15,
-17,
-17,
-14,
-14,
-14,
-14,
-14,
-14,
-15,
-15,
-13,
-13,
-15,
-15,
-13,
-13,
-11,
-11,
-11,
-11,
-13,
-13,
-13,
-13,
-12,
-12,
-13,
-13,
-13,
-13,
-13,
-13,
-13,
-13,
-13,
-13,
-11,
-11,
-12,
-12,
-12,
-12,
-13,
-13,
-12,
-12,
-12,
-12,
-10,
-10,
-11,
-11,
-11,
-11,
-12,
-12,
-12,
-12,
-12,
-12,
-12,
-12,
-12,
-12,
-11,
-11,
-11,
-11,
-11,
-11,
-12,
-12,
-12,
-12,
-11,
-11,
-11,
-11,
-10,
-10,
-12,
-12,
-12,
-12,
-11,
-11,
-12,
-12,
-11,
-11,
-11,
-11,
-11,
-11,
-11,
-11,
-10,
-10,
-12,
-12,
-10,
-10,
-13,
-13,
-12,
-12,
-11,
-11,
-11,
-11,
-11,
-11,
-11,
-11,
-11,
-11,
-13,
-13,
-11,
-11,
-11,
-11,
-12,
-12,
-11,
-11,
-11,
-11,
-11,
-11,
-11,
-11,
-11,
-11,
-11,
-11,
-11,
-11,
-10,
-10,
-11,
-11,
-10,
-10,
-11,
-11,
-12,
-12,
-10,
-10,
-11,
-11,
-11,
-11,
-11,
-11,
-10,
-10,
-10,
-10,
-10,
-10,
-10,
-10,
-11,
-11,
-10,
-10,
-11,
-11,
-11,
-11,
-10,
-10,
-11,
-11,
-12,
-12,
-9,
-9,
-11,
-11,
-11,
-11,
-11,
-11,
-11,
-11,
-11,
-11,
-11,
-11,
-11,
-11,
-11,
-11,
-10,
-10,
-11,
-11,
-11,
-11,
-11,
-11,
-11,
-11,
-10,
-10,
-11,
-11,
-10,
-10,
-11,
-11,
-10,
-10,
-10,
-10,
-9,
-9,
-8,
-8,
-9,
-9,
-9,
-9,
-8,
-8,
-9,
-9,
-11,
-11,
-9,
-9,
-10,
-10,
-11,
-11,
-10,
-10,
-9,
-9,
-11,
-11,
-10,
-10,
-9,
-9,
-10,
-10,
-9,
-9,
-11,
-11,
-10,
-10,
-10,
-10,
-9,
-9,
-11,
-11,
-9,
-9,
-10,
-10,
-9,
-9,
-9,
-9,
-8,
-8,
-10,
-10,
-9,
-9,
-9,
-9,
-9,
-9,
-10,
-10,
-10,
-10,
-9,
-9,
-9,
-9,
-11,
-11,
-11,
-11,
-10,
-10,
-10,
-10,
-10,
-10,
-10,
-10,
-10,
-10,
-11,
-11,
-9,
-9,
-10,
-10,
-9,
-9,
-11,
-11,
-10,
-10,
-11,
-11,
-10,
-10,
-11,
-11,
-13,
-13,
-10,
-10,
-11,
-11,
-9,
-9,
-11,
-11,
-10,
-10,
-11,
-11,
-11,
-11,
-10,
-10,
-9,
-9,
-11,
-11,
-9,
-9,
-11,
-11,
-9,
-9,
-11,
-11,
-11,
-11,
-10,
-10,
