donnees_brutes_CSV/mesures_100_mV.CSV

Memory Length,4000,
Trigger Level,-4.40000e+02,
Source,CH1,
Probe,1.0X,
Vertical Units,V,
Vertical Scale,1.00000e-01,
Vertical Position,2.00000e-01,
Horizontal Units,S,
Horizontal Scale,2.50000e-05,
Horizontal Position,0.0000000e+00,
Horizontal Mode,Main,
Sampling Period,1.00000e-07,
Firmware,V1.14,
Time, ,
Mode,Fast,
Waveform Data,
-177,
-177,
-177,
-177,
-177,
-177,
-177,
-177,
-177,
-177,
-177,
-177,
-177,
-177,
-177,
-177,
-177,
-177,
-177,
-177,
-177,
-177,
-177,
-177,
-177,
-177,
-177,
-177,
-177,
-177,
-177,
-177,
-177,
-177,
-177,
-177,
-177,
-177,
-177,
-177,
-177,
-177,
-177,
-177,
-177,
-177,
-177,
-177,
-177,
-177,
-177,
-177,
-177,
-177,
-177,
-177,
-177,
-177,
-177,
-177,
-177,
-177,
-177,
-177,
-177,
-177,
-177,
-177,
-177,
-177,
-177,
-177,
-177,
-177,
-177,
-177,
-177,
-177,
-177,
-177,
-177,
-177,
-177,
-177,
-177,
-177,
-177,
-177,
-177,
-177,
-177,
-177,
-177,
-177,
-177,
-177,
-177,
-177,
-177,
-177,
-177,
-177,
-177,
-177,
-177,
-177,
-177,
-177,
-177,
-177,
-177,
-177,
-177,
-177,
-177,
-177,
-177,
-177,
-177,
-177,
-177,
-177,
-177,
-177,
-177,
-177,
-177,
-177,
-177,
-177,
-177,
-177,
-177,
-177,
-177,
-177,
-177,
-177,
-177,
-177,
-177,
-177,
-177,
-177,
-177,
-177,
-177,
-177,
-177,
-177,
-177,
-177,
-177,
-177,
-177,
-177,
-177,
-177,
-177,
-177,
-177,
-177,
-177,
-177,
-177,
-177,
-177,
-177,
-177,
-177,
-177,
-177,
-177,
-177,
-177,
-177,
-177,
-177,
-177,
-177,
-177,
-177,
-177,
-177,
-177,
-177,
-177,
-177,
-177,
-177,
-177,
-177,
-177,
-177,
-177,
-177,
-177,
-177,
-177,
-177,
-177,
-177,
-177,
-177,
-177,
-177,
-177,
-177,
-177,
-177,
-177,
-177,
-177,
-177,
-177,
-177,
-177,
-177,
-177,
-177,
-177,
-177,
-177,
-177,
-177,
-177,
-177,
-177,
-177,
-177,
-177,
-177,
-177,
-177,
-177,
-177,
-177,
-177,
-177,
-177,
-177,
-177,
-177,
-177,
-177,
-177,
-177,
-177,
-177,
-177,
-177,
-177,
-177,
-177,
-177,
-177,
-177,
-177,
-177,
-177,
-177,
-177,
-177,
-177,
-177,
-177,
-177,
-177,
-177,
-177,
-177,
-177,
-177,
-177,
-177,
-177,
-177,
-177,
-177,
-177,
-177,
-177,
-177,
-177,
-177,
-177,
-177,
-177,
-177,
-177,
-177,
-177,
-177,
-177,
-177,
-177,
-177,
-177,
-177,
-177,
-177,
-177,
-177,
-177,
-177,
-177,
-177,
-177,
-177,
-177,
-177,
-177,
-177,
-177,
-177,
-177,
-177,
-177,
-177,
-177,
-177,
-177,
-177,
-177,
-177,
-177,
-177,
-177,
-177,
-177,
-177,
-177,
-177,
-177,
-177,
-177,
-177,
-177,
-177,
-177,
-177,
-177,
-177,
-177,
-177,
-177,
-177,
-177,
-177,
-177,
-177,
-177,
-177,
-177,
-177,
-177,
-177,
-177,
-177,
-177,
-177,
-177,
-177,
-177,
-177,
-177,
-177,
-177,
-177,
-177,
-177,
-177,
-177,
-177,
-177,
-177,
-177,
-177,
-177,
-177,
-177,
-177,
-177,
-177,
-177,
-177,
-177,
-177,
-177,
-177,
-177,
-177,
-177,
-177,
-177,
-177,
-177,
-177,
-177,
-177,
-177,
-177,
-177,
-177,
-177,
-177,
-177,
-177,
-177,
-177,
-177,
-177,
-177,
-177,
-177,
-177,
-177,
-177,
-177,
-177,
-177,
-177,
-177,
-177,
-177,
-177,
-177,
-177,
-177,
-177,
-177,
-177,
-177,
-177,
-177,
-177,
-177,
-177,
-177,
-177,
-177,
-177,
-177,
-177,
-177,
-177,
-177,
-177,
-177,
-177,
-177,
-177,
-177,
-177,
-177,
-177,
-177,
-177,
-177,
-177,
-177,
-177,
-177,
-177,
-177,
-177,
-177,
-177,
-177,
-177,
-177,
-177,
-177,
-177,
-177,
-177,
-177,
-177,
-177,
-177,
-177,
-177,
-177,
-177,
-177,
-177,
-177,
-177,
-177,
-177,
-177,
-177,
-177,
-177,
-177,
-177,
-177,
-177,
-177,
-177,
-177,
-177,
-177,
-177,
-177,
-177,
-177,
-177,
-177,
-177,
-177,
-177,
-177,
-177,
-177,
-177,
-177,
-177,
-177,
-177,
-177,
-177,
-177,
-177,
-177,
-177,
-177,
-177,
-177,
-177,
-177,
-177,
-177,
-177,
-177,
-177,
-177,
-177,
-177,
-177,
-177,
-177,
-177,
-177,
-177,
-177,
-177,
-177,
-177,
-177,
-177,
-177,
-177,
-177,
-177,
-177,
-177,
-177,
-177,
-177,
-177,
-177,
-177,
-177,
-177,
-177,
-177,
-177,
-177,
-177,
-177,
-177,
-177,
-177,
-177,
-177,
-177,
-177,
-177,
-177,
-177,
-177,
-177,
-177,
-177,
-177,
-177,
-177,
-177,
-177,
-177,
-177,
-177,
-177,
-177,
-177,
-177,
-177,
-177,
-177,
-177,
-177,
-177,
-177,
-177,
-177,
-177,
-177,
-177,
-177,
-177,
-177,
-177,
-177,
-177,
-177,
-177,
-177,
-177,
-177,
-177,
-177,
-177,
-177,
-177,
-177,
-177,
-177,
-177,
-177,
-177,
-177,
-177,
-177,
-177,
-177,
-177,
-177,
-177,
-177,
-177,
-177,
-177,
-177,
-177,
-177,
-177,
-177,
-177,
-177,
-177,
-177,
-177,
-177,
-177,
-177,
-177,
-177,
-177,
-177,
-177,
-177,
-177,
-177,
-177,
-177,
-177,
-177,
-177,
-177,
-177,
-177,
-177,
-177,
-177,
-177,
-177,
-177,
-177,
-177,
-177,
-177,
-177,
-177,
-177,
-177,
-177,
-177,
-177,
-177,
-177,
-177,
-177,
-177,
-177,
-177,
-177,
-177,
-177,
-177,
-177,
-177,
-177,
-177,
-177,
-177,
-177,
-177,
-177,
-177,
-177,
-177,
-177,
-177,
-177,
-177,
-177,
-177,
-177,
-177,
-177,
-177,
-177,
-177,
-177,
-177,
-177,
-177,
-177,
-177,
-177,
-177,
-177,
-177,
-177,
-177,
-177,
-177,
-177,
-177,
-177,
-177,
-177,
-177,
-177,
-177,
-177,
-177,
-177,
-177,
-177,
-177,
-177,
-176,
-176,
-176,
-176,
-176,
-176,
-176,
-176,
-176,
-176,
-177,
-177,
-176,
-176,
-176,
-176,
-176,
-176,
-176,
-176,
-176,
-176,
-176,
-176,
-176,
-176,
-176,
-176,
-176,
-176,
-176,
-176,
-176,
-176,
-176,
-176,
-176,
-176,
-176,
-176,
-176,
-176,
-176,
-176,
-176,
-176,
-176,
-176,
-176,
-176,
-176,
-176,
-176,
-176,
-176,
-176,
-177,
-177,
-176,
-176,
-176,
-176,
-176,
-176,
-176,
-176,
-176,
-176,
-176,
-176,
-176,
-176,
-176,
-176,
-176,
-176,
-176,
-176,
-176,
-176,
-176,
-176,
-176,
-176,
-176,
-176,
-176,
-176,
-176,
-176,
-176,
-176,
-176,
-176,
-176,
-176,
-176,
-176,
-175,
-175,
-176,
-176,
-176,
-176,
-176,
-176,
-176,
-176,
-176,
-176,
-176,
-176,
-176,
-176,
-176,
-176,
-176,
-176,
-176,
-176,
-176,
-176,
-176,
-176,
-176,
-176,
-176,
-176,
-176,
-176,
-176,
-176,
-176,
-176,
-176,
-176,
-175,
-175,
-175,
-175,
-175,
-175,
-175,
-175,
-175,
-175,
-175,
-175,
-174,
-174,
-175,
-175,
-176,
-176,
-176,
-176,
-176,
-176,
-176,
-176,
-176,
-176,
-176,
-176,
-176,
-176,
-175,
-175,
-176,
-176,
-174,
-174,
-175,
-175,
-174,
-174,
-173,
-173,
-173,
-173,
-173,
-173,
-173,
-173,
-173,
-173,
-173,
-173,
-173,
-173,
-174,
-174,
-175,
-175,
-174,
-174,
-173,
-173,
-173,
-173,
-173,
-173,
-173,
-173,
-173,
-173,
-173,
-173,
-172,
-172,
-173,
-173,
-172,
-172,
-173,
-173,
-173,
-173,
-173,
-173,
-173,
-173,
-173,
-173,
-173,
-173,
-172,
-172,
-172,
-172,
-172,
-172,
-172,
-172,
-172,
-172,
-172,
-172,
-171,
-171,
-172,
-172,
-171,
-171,
-172,
-172,
-171,
-171,
-171,
-171,
-172,
-172,
-171,
-171,
-172,
-172,
-171,
-171,
-173,
-173,
-172,
-172,
-172,
-172,
-171,
-171,
-171,
-171,
-171,
-171,
-171,
-171,
-171,
-171,
-171,
-171,
-171,
-171,
-171,
-171,
-171,
-171,
-170,
-170,
-171,
-171,
-170,
-170,
-170,
-170,
-171,
-171,
-170,
-170,
-170,
-170,
-170,
-170,
-170,
-170,
-170,
-170,
-169,
-169,
-169,
-169,
-170,
-170,
-170,
-170,
-170,
-170,
-170,
-170,
-170,
-170,
-169,
-169,
-169,
-169,
-170,
-170,
-169,
-169,
-169,
-169,
-170,
-170,
-169,
-169,
-170,
-170,
-169,
-169,
-169,
-169,
-169,
-169,
-169,
-169,
-169,
-169,
-169,
-169,
-169,
-169,
-168,
-168,
-168,
-168,
-169,
-169,
-168,
-168,
-168,
-168,
-169,
-169,
-169,
-169,
-169,
-169,
-168,
-168,
-168,
-168,
-168,
-168,
-168,
-168,
-169,
-169,
-168,
-168,
-169,
-169,
-169,
-169,
-168,
-168,
-169,
-169,
-167,
-167,
-167,
-167,
-167,
-167,
-167,
-167,
-166,
-166,
-165,
-165,
-165,
-165,
-164,
-164,
-164,
-164,
-165,
-165,
-164,
-164,
-164,
-164,
-164,
-164,
-165,
-165,
-165,
-165,
-165,
-165,
-164,
-164,
-165,
-165,
-165,
-165,
-165,
-165,
-165,
-165,
-166,
-166,
-165,
-165,
-166,
-166,
-167,
-167,
-166,
-166,
-167,
-167,
-167,
-167,
-166,
-166,
-166,
-166,
-166,
-166,
-166,
-166,
-166,
-166,
-165,
-165,
-165,
-165,
-165,
-165,
-165,
-165,
-165,
-165,
-165,
-165,
-166,
-166,
-165,
-165,
-165,
-165,
-165,
-165,
-165,
-165,
-166,
-166,
-166,
-166,
-167,
-167,
-166,
-166,
-166,
-166,
-165,
-165,
-166,
-166,
-165,
-165,
-165,
-165,
-167,
-167,
-167,
-167,
-167,
-167,
-168,
-168,
-168,
-168,
-168,
-168,
-168,
-168,
-167,
-167,
-167,
-167,
-168,
-168,
-168,
-168,
-169,
-169,
-169,
-169,
-168,
-168,
-168,
-168,
-169,
-169,
-169,
-169,
-167,
-167,
-167,
-167,
-166,
-166,
-164,
-164,
-163,
-163,
-161,
-161,
-160,
-160,
-159,
-159,
-158,
-158,
-157,
-157,
-157,
-157,
-157,
-157,
-156,
-156,
-157,
-157,
-157,
-157,
-156,
-156,
-155,
-155,
-156,
-156,
-155,
-155,
-155,
-155,
-155,
-155,
-155,
-155,
-155,
-155,
-155,
-155,
-155,
-155,
-155,
-155,
-155,
-155,
-154,
-154,
-154,
-154,
-155,
-155,
-155,
-155,
-155,
-155,
-154,
-154,
-153,
-153,
-153,
-153,
-153,
-153,
-154,
-154,
-153,
-153,
-153,
-153,
-152,
-152,
-152,
-152,
-152,
-152,
-151,
-151,
-151,
-151,
-150,
-150,
-149,
-149,
-149,
-149,
-150,
-150,
-149,
-149,
-149,
-149,
-148,
-148,
-148,
-148,
-148,
-148,
-149,
-149,
-149,
-149,
-149,
-149,
-148,
-148,
-148,
-148,
-149,
-149,
-148,
-148,
-148,
-148,
-147,
-147,
-148,
-148,
-148,
-148,
-147,
-147,
-147,
-147,
-148,
-148,
-148,
-148,
-147,
-147,
-147,
-147,
-147,
-147,
-147,
-147,
-147,
-147,
-148,
-148,
-147,
-147,
-147,
-147,
-148,
-148,
-148,
-148,
-147,
-147,
-148,
-148,
-148,
-148,
-148,
-148,
-147,
-147,
-148,
-148,
-147,
-147,
-149,
-149,
-147,
-147,
-148,
-148,
-148,
-148,
-147,
-147,
-148,
-148,
-147,
-147,
-148,
-148,
-147,
-147,
-147,
-147,
-146,
-146,
-147,
-147,
-147,
-147,
-148,
-148,
-146,
-146,
-148,
-148,
-148,
-148,
-147,
-147,
-147,
-147,
-147,
-147,
-147,
-147,
-146,
-146,
-147,
-147,
-146,
-146,
-146,
-146,
-145,
-145,
-146,
-146,
-146,
-146,
-147,
-147,
-147,
-147,
-147,
-147,
-147,
-147,
-145,
-145,
-146,
-146,
-144,
-144,
-144,
-144,
-144,
-144,
-144,
-144,
-144,
-144,
-144,
-144,
-144,
-144,
-145,
-145,
-144,
-144,
-145,
-145,
-144,
-144,
-145,
-145,
-144,
-144,
-144,
-144,
-144,
-144,
-144,
-144,
-143,
-143,
-143,
-143,
-143,
-143,
-143,
-143,
-143,
-143,
-142,
-142,
-142,
-142,
-141,
-141,
-141,
-141,
-139,
-139,
-139,
-139,
-138,
-138,
-138,
-138,
-138,
-138,
-137,
-137,
-137,
-137,
-136,
-136,
-135,
-135,
-134,
-134,
-134,
-134,
-133,
-133,
-134,
-134,
-133,
-133,
-135,
-135,
-134,
-134,
-134,
-134,
-133,
-133,
-133,
-133,
-134,
-134,
-133,
-133,
-133,
-133,
-132,
-132,
-132,
-132,
-131,
-131,
-131,
-131,
-131,
-131,
-132,
-132,
-130,
-130,
-131,
-131,
-131,
-131,
-131,
-131,
-131,
-131,
-130,
-130,
-131,
-131,
-131,
-131,
-130,
-130,
-131,
-131,
-132,
-132,
-132,
-132,
-133,
-133,
-133,
-133,
-133,
-133,
-133,
-133,
-133,
-133,
-134,
-134,
-134,
-134,
-135,
-135,
-134,
-134,
-135,
-135,
-134,
-134,
-135,
-135,
-135,
-135,
-134,
-134,
-134,
-134,
-134,
-134,
-134,
-134,
-134,
-134,
-133,
-133,
-133,
-133,
-132,
-132,
-131,
-131,
-129,
-129,
-127,
-127,
-123,
-123,
-122,
-122,
-121,
-121,
-118,
-118,
-118,
-118,
-117,
-117,
-117,
-117,
-116,
-116,
-114,
-114,
-115,
-115,
-117,
-117,
-114,
-114,
-115,
-115,
-115,
-115,
-115,
-115,
-114,
-114,
-113,
-113,
-115,
-115,
-114,
-114,
-114,
-114,
-115,
-115,
-116,
-116,
-117,
-117,
-117,
-117,
-118,
-118,
-121,
-121,
-123,
-123,
-125,
-125,
-129,
-129,
-131,
-131,
-132,
-132,
-133,
-133,
-136,
-136,
-137,
-137,
-137,
-137,
-137,
-137,
-137,
-137,
-137,
-137,
-137,
-137,
-136,
-136,
-136,
-136,
-135,
-135,
-134,
-134,
-136,
-136,
-135,
-135,
-133,
-133,
-132,
-132,
-131,
-131,
-128,
-128,
-127,
-127,
-127,
-127,
-129,
-129,
-130,
-130,
-129,
-129,
-129,
-129,
-127,
-127,
-127,
-127,
-124,
-124,
-124,
-124,
-123,
-123,
-123,
-123,
-123,
-123,
-123,
-123,
-122,
-122,
-122,
-122,
-120,
-120,
-119,
-119,
-119,
-119,
-117,
-117,
-116,
-116,
-116,
-116,
-115,
-115,
-114,
-114,
-116,
-116,
-114,
-114,
-115,
-115,
-115,
-115,
-115,
-115,
-115,
-115,
-115,
-115,
-115,
-115,
-115,
-115,
-115,
-115,
-115,
-115,
-115,
-115,
-114,
-114,
-115,
-115,
-114,
-114,
-115,
-115,
-114,
-114,
-113,
-113,
-114,
-114,
-114,
-114,
-113,
-113,
-112,
-112,
-113,
-113,
-113,
-113,
-114,
-114,
-113,
-113,
-113,
-113,
-113,
-113,
-114,
-114,
-113,
-113,
-112,
-112,
-113,
-113,
-113,
-113,
-112,
-112,
-113,
-113,
-113,
-113,
-113,
-113,
-114,
-114,
-113,
-113,
-113,
-113,
-113,
-113,
-113,
-113,
-113,
-113,
-112,
-112,
-112,
-112,
-113,
-113,
-113,
-113,
-113,
-113,
-113,
-113,
-113,
-113,
-113,
-113,
-112,
-112,
-113,
-113,
-113,
-113,
-113,
-113,
-113,
-113,
-112,
-112,
-113,
-113,
-113,
-113,
-112,
-112,
-112,
-112,
-113,
-113,
-113,
-113,
-113,
-113,
-113,
-113,
-113,
-113,
-113,
-113,
-115,
-115,
-115,
-115,
-115,
-115,
-115,
-115,
-115,
-115,
-113,
-113,
-114,
-114,
-112,
-112,
-112,
-112,
-112,
-112,
-111,
-111,
-112,
-112,
-112,
-112,
-112,
-112,
-112,
-112,
-112,
-112,
-111,
-111,
-111,
-111,
-111,
-111,
-111,
-111,
-109,
-109,
-111,
-111,
-109,
-109,
-111,
-111,
-110,
-110,
-111,
-111,
-111,
-111,
-111,
-111,
-111,
-111,
-111,
-111,
-111,
-111,
-112,
-112,
-112,
-112,
-111,
-111,
-112,
-112,
-111,
-111,
-111,
-111,
-111,
-111,
-111,
-111,
-112,
-112,
-111,
-111,
-112,
-112,
-112,
-112,
-112,
-112,
-111,
-111,
-111,
-111,
-111,
-111,
-111,
-111,
-111,
-111,
-111,
-111,
-110,
-110,
-111,
-111,
-110,
-110,
-109,
-109,
-111,
-111,
-111,
-111,
-111,
-111,
-111,
-111,
-112,
-112,
-111,
-111,
-111,
-111,
-111,
-111,
-111,
-111,
-110,
-110,
-111,
-111,
-111,
-111,
-111,
-111,
-111,
-111,
-111,
-111,
-111,
-111,
-110,
-110,
-111,
-111,
-111,
-111,
-111,
-111,
-111,
-111,
-111,
-111,
-111,
-111,
-111,
-111,
-111,
-111,
-111,
-111,
-110,
-110,
-111,
-111,
-111,
-111,
-110,
-110,
-111,
-111,
-111,
-111,
-111,
-111,
-111,
-111,
-111,
-111,
-110,
-110,
-109,
-109,
-110,
-110,
-111,
-111,
-111,
-111,
-111,
-111,
-110,
-110,
-110,
-110,
-110,
-110,
-110,
-110,
-111,
-111,
-110,
-110,
-111,
-111,
-111,
-111,
-110,
-110,
-108,
-108,
-109,
-109,
-109,
-109,
-109,
-109,
-109,
-109,
-109,
-109,
-108,
-108,
-109,
-109,
-109,
-109,
-108,
-108,
-109,
-109,
-108,
-108,
-108,
-108,
-106,
-106,
-104,
-104,
-105,
-105,
-104,
-104,
-104,
-104,
-102,
-102,
-102,
-102,
-102,
-102,
-100,
-100,
-100,
-100,
-100,
-100,
-99,
-99,
-98,
-98,
-98,
-98,
-97,
-97,
-96,
-96,
-96,
-96,
-95,
-95,
-91,
-91,
-92,
-92,
-91,
-91,
-91,
-91,
-92,
-92,
-94,
-94,
-94,
-94,
-95,
-95,
-95,
-95,
-95,
-95,
-96,
-96,
-97,
-97,
-97,
-97,
-97,
-97,
-96,
-96,
-95,
-95,
-95,
-95,
-95,
-95,
-94,
-94,
-95,
-95,
-94,
-94,
-94,
-94,
-94,
-94,
-94,
-94,
-95,
-95,
-95,
-95,
-95,
-95,
-95,
-95,
-96,
-96,
-96,
-96,
-97,
-97,
-97,
-97,
-97,
-97,
-96,
-96,
-95,
-95,
-94,
-94,
-95,
-95,
-94,
-94,
-94,
-94,
-92,
-92,
-93,
-93,
-92,
-92,
-91,
-91,
-90,
-90,
-90,
-90,
-89,
-89,
-89,
-89,
-89,
-89,
-89,
-89,
-88,
-88,
-88,
-88,
-88,
-88,
-88,
-88,
-88,
-88,
-88,
-88,
-88,
-88,
-87,
-87,
-87,
-87,
-88,
-88,
-88,
-88,
-88,
-88,
-87,
-87,
-87,
-87,
-88,
-88,
-88,
-88,
-88,
-88,
-88,
-88,
-89,
-89,
-89,
-89,
-89,
-89,
-89,
-89,
-89,
-89,
-87,
-87,
-86,
-86,
-86,
-86,
-84,
-84,
-85,
-85,
-85,
-85,
-85,
-85,
-84,
-84,
-83,
-83,
-84,
-84,
-84,
-84,
-84,
-84,
-84,
-84,
-83,
-83,
-81,
-81,
-81,
-81,
-81,
-81,
-81,
-81,
-81,
-81,
-80,
-80,
-81,
-81,
-80,
-80,
-80,
-80,
-79,
-79,
-79,
-79,
-80,
-80,
-80,
-80,
-80,
-80,
-82,
-82,
-81,
-81,
-81,
-81,
-81,
-81,
-81,
-81,
-80,
-80,
-81,
-81,
-81,
-81,
-83,
-83,
-84,
-84,
-85,
-85,
-87,
-87,
-89,
-89,
-90,
-90,
-89,
-89,
-91,
-91,
-91,
-91,
-91,
-91,
-91,
-91,
-93,
-93,
-92,
-92,
-95,
-95,
-95,
-95,
-96,
-96,
-97,
-97,
-97,
-97,
-97,
-97,
-99,
-99,
-99,
-99,
-99,
-99,
-99,
-99,
-100,
-100,
-100,
-100,
-100,
-100,
-101,
-101,
-101,
-101,
-101,
-101,
-101,
-101,
-102,
-102,
-103,
-103,
-102,
-102,
-101,
-101,
-102,
-102,
-102,
-102,
-101,
-101,
-103,
-103,
-102,
-102,
-103,
-103,
-103,
-103,
-105,
-105,
-104,
-104,
-104,
-104,
-103,
-103,
-103,
-103,
-103,
-103,
-103,
-103,
-103,
-103,
-102,
-102,
-102,
-102,
-102,
-102,
-102,
-102,
-103,
-103,
-102,
-102,
-102,
-102,
-103,
-103,
-101,
-101,
-102,
-102,
-101,
-101,
-101,
-101,
-100,
-100,
-101,
-101,
-101,
-101,
-102,
-102,
-102,
-102,
-103,
-103,
-103,
-103,
-103,
-103,
-104,
-104,
-104,
-104,
-105,
-105,
-104,
-104,
-106,
-106,
-106,
-106,
-106,
-106,
-104,
-104,
-105,
-105,
-105,
-105,
-104,
-104,
-104,
-104,
-103,
-103,
-104,
-104,
-104,
-104,
-104,
-104,
-103,
-103,
-105,
-105,
-104,
-104,
-104,
-104,
-104,
-104,
-105,
-105,
-104,
-104,
-104,
-104,
-106,
-106,
-105,
-105,
-107,
-107,
-105,
-105,
-106,
-106,
-104,
-104,
-103,
-103,
-102,
-102,
-102,
-102,
-102,
-102,
-101,
-101,
-101,
-101,
-101,
-101,
-101,
-101,
-102,
-102,
-101,
-101,
-102,
-102,
-102,
-102,
-102,
-102,
-102,
-102,
-103,
-103,
-102,
-102,
-102,
-102,
-103,
-103,
-103,
-103,
-103,
-103,
-103,
-103,
-103,
-103,
-102,
-102,
-103,
-103,
-101,
-101,
-102,
-102,
-102,
-102,
-101,
-101,
-102,
-102,
-101,
-101,
-102,
-102,
-102,
-102,
-102,
-102,
-102,
-102,
-103,
-103,
-103,
-103,
-103,
-103,
-103,
-103,
-103,
-103,
-103,
-103,
-102,
-102,
-104,
-104,
-103,
-103,
-102,
-102,
-103,
-103,
-103,
-103,
-102,
-102,
-102,
-102,
-102,
-102,
-103,
-103,
-102,
-102,
-103,
-103,
-102,
-102,
-103,
-103,
-103,
-103,
-102,
-102,
-104,
-104,
-103,
-103,
-103,
-103,
-103,
-103,
-104,
-104,
-103,
-103,
-103,
-103,
-103,
-103,
-104,
-104,
-104,
-104,
-104,
-104,
-104,
-104,
-104,
-104,
-104,
-104,
-104,
-104,
-104,
-104,
-104,
-104,
-104,
-104,
-104,
-104,
-104,
-104,
-104,
-104,
-104,
-104,
-104,
-104,
-105,
-105,
-104,
-104,
-104,
-104,
-104,
-104,
-104,
-104,
-105,
-105,
-105,
-105,
-105,
-105,
-104,
-104,
-103,
-103,
-103,
-103,
-103,
-103,
-103,
-103,
-103,
-103,
-104,
-104,
-104,
-104,
-104,
-104,
-104,
-104,
-104,
-104,
-104,
-104,
-104,
-104,
-105,
-105,
-104,
-104,
-104,
-104,
-104,
-104,
-104,
-104,
-103,
-103,
-104,
-104,
-103,
-103,
-102,
-102,
-102,
-102,
-101,
-101,
-101,
-101,
-102,
-102,
-102,
-102,
-102,
-102,
-103,
-103,
-103,
-103,
-102,
-102,
-103,
-103,
-103,
-103,
-103,
-103,
-103,
-103,
-103,
-103,
-104,
-104,
-104,
-104,
-103,
-103,
-104,
-104,
-104,
-104,
-103,
-103,
-103,
-103,
-102,
-102,
-102,
-102,
-102,
-102,
-102,
-102,
-103,
-103,
-102,
-102,
-103,
-103,
-102,
-102,
-102,
-102,
-102,
-102,
-102,
-102,
-102,
-102,
-102,
-102,
-102,
-102,
-103,
-103,
-103,
-103,
-102,
-102,
-103,
-103,
-103,
-103,
-103,
-103,
-103,
-103,
-103,
-103,
-103,
-103,
-103,
-103,
-103,
-103,
-102,
-102,
-101,
-101,
-101,
-101,
-100,
-100,
-101,
-101,
-99,
-99,
-99,
-99,
-99,
-99,
-99,
-99,
-99,
-99,
-99,
-99,
-98,
-98,
-99,
-99,
-99,
-99,
-98,
-98,
-96,
-96,
-95,
-95,
-93,
-93,
-94,
-94,
-94,
-94,
-91,
-91,
-91,
-91,
-91,
-91,
-89,
-89,
-89,
-89,
-89,
-89,
-89,
-89,
-88,
-88,
-88,
-88,
-87,
-87,
-87,
-87,
-86,
-86,
-87,
-87,
-87,
-87,
-85,
-85,
-78,
-78,
-71,
-71,
-64,
-64,
-57,
-57,
-49,
-49,
-46,
-46,
-40,
-40,
-37,
-37,
-33,
-33,
-31,
-31,
-27,
-27,
-24,
-24,
-20,
-20,
-19,
-19,
-17,
-17,
-15,
-15,
-13,
-13,
-12,
-12,
-11,
-11,
-10,
-10,
-9,
-9,
-7,
-7,
-6,
-6,
-5,
-5,
-6,
-6,
-5,
-5,
-4,
-4,
-3,
-3,
-3,
-3,
-3,
-3,
-3,
-3,
-2,
-2,
-1,
-1,
-1,
-1,
-1,
-1,
0,
0,
-1,
-1,
0,
0,
0,
0,
0,
0,
0,
0,
1,
1,
1,
1,
1,
1,
1,
1,
0,
0,
2,
2,
-1,
-1,
1,
1,
0,
0,
0,
0,
1,
1,
1,
1,
0,
0,
0,
0,
1,
1,
1,
1,
1,
1,
1,
1,
0,
0,
1,
1,
1,
1,
1,
1,
1,
1,
1,
1,
1,
1,
0,
0,
2,
2,
1,
1,
1,
1,
0,
0,
1,
1,
0,
0,
0,
0,
0,
0,
1,
1,
1,
1,
-1,
-1,
0,
0,
1,
1,
-1,
-1,
0,
0,
1,
1,
0,
0,
0,
0,
0,
0,
1,
1,
1,
1,
1,
1,
-1,
-1,
1,
1,
1,
1,
1,
1,
1,
1,
0,
0,
0,
0,
0,
0,
2,
2,
1,
1,
1,
1,
-1,
-1,
2,
2,
1,
1,
2,
2,
1,
1,
1,
1,
1,
1,
1,
1,
0,
0,
1,
1,
1,
1,
1,
1,
1,
1,
0,
0,
1,
1,
0,
0,
2,
2,
0,
0,
2,
2,
1,
1,
2,
2,
1,
1,
1,
1,
1,
1,
-1,
-1,
1,
1,
1,
1,
2,
2,
1,
1,
1,
1,
1,
1,
1,
1,
1,
1,
1,
1,
1,
1,
2,
2,
2,
2,
1,
1,
2,
2,
1,
1,
1,
1,
1,
1,
2,
2,
1,
1,
2,
2,
1,
1,
2,
2,
1,
1,
1,
1,
2,
2,
2,
2,
2,
2,
2,
2,
1,
1,
1,
1,
1,
1,
1,
1,
2,
2,
1,
1,
2,
2,
1,
1,
0,
0,
1,
1,
0,
0,
2,
2,
1,
1,
1,
1,
2,
2,
1,
1,
1,
1,
1,
1,
1,
1,
2,
2,
1,
1,
1,
1,
0,
0,
1,
1,
1,
1,
1,
1,
0,
0,
2,
2,
2,
2,
1,
1,
1,
1,
0,
0,
0,
0,
1,
1,
1,
1,
1,
1,
1,
1,
1,
1,
2,
2,
1,
1,
2,
2,
2,
2,
2,
2,
3,
3,
1,
1,
2,
2,
2,
2,
1,
1,
1,
1,
1,
1,
2,
2,
1,
1,
1,
1,
1,
1,
1,
1,
1,
1,
2,
2,
2,
2,
2,
2,
1,
1,
1,
1,
0,
0,
1,
1,
1,
1,
1,
1,
2,
2,
2,
2,
3,
3,
2,
2,
3,
3,
2,
2,
3,
3,
2,
2,
2,
2,
3,
3,
2,
2,
3,
3,
3,
3,
3,
3,
1,
1,
2,
2,
3,
3,
3,
3,
2,
2,
2,
2,
2,
2,
3,
3,
2,
2,
3,
3,
2,
2,
1,
1,
1,
1,
1,
1,
2,
2,
2,
2,
2,
2,
2,
2,
2,
2,
1,
1,
2,
2,
2,
2,
2,
2,
2,
2,
1,
1,
2,
2,
1,
1,
1,
1,
2,
2,
2,
2,
2,
2,
1,
1,
1,
1,
1,
1,
1,
1,
0,
0,
1,
1,
2,
2,
2,
2,
1,
1,
1,
1,
1,
1,
0,
0,
1,
1,
1,
1,
0,
